<?xml version="1.0" encoding="utf-8"?>
<COLLADA xmlns="http://www.collada.org/2005/11/COLLADASchema" version="1.4.1">
  <asset><contributor><author></author><authoring_tool>FBX COLLADA exporter</authoring_tool><comments></comments></contributor><created>2018-12-19T21:22:19Z</created><keywords></keywords><modified>2018-12-19T21:22:19Z</modified><revision></revision><subject></subject><title></title><unit meter="0.010000" name="centimeter"></unit><up_axis>Y_UP</up_axis></asset>
  <library_images>
    <image id="Image0001-image" name="Image0001"><init_from>file://C:/Users/Draugemalf/Desktop/lab_set.png</init_from></image>
  </library_images>
  <library_materials>
    <material id="lab_set" name="lab_set">
      <instance_effect url="#lab_set-fx"/>
    </material>
  </library_materials>
  <library_effects>
    <effect id="lab_set-fx" name="lab_set">
      <profile_COMMON>
        <technique sid="standard">
          <phong>
            <emission>
              <color sid="emission">0.000000  0.000000 0.000000 1.000000</color>
            </emission>
            <ambient>
              <color sid="ambient">0.200000  0.200000 0.200000 1.000000</color>
            </ambient>
            <diffuse>
              <texture texture="Image0001-image" texcoord="CHANNEL0">
                <extra>
                  <technique profile="MAYA">
                    <wrapU sid="wrapU0">TRUE</wrapU>
                    <wrapV sid="wrapV0">TRUE</wrapV>
                    <blend_mode>NONE</blend_mode>
                  </technique>
                </extra>
              </texture>
            </diffuse>
            <specular>
              <color sid="specular">0.635000  0.635000 0.635000 1.000000</color>
            </specular>
            <shininess>
              <float sid="shininess">64.000000</float>
            </shininess>
            <reflective>
              <color sid="reflective">0.000000  0.000000 0.000000 1.000000</color>
            </reflective>
            <reflectivity>
              <float sid="reflectivity">0.500000</float>
            </reflectivity>
            <transparent opaque="RGB_ZERO">
              <color sid="transparent">0.000000  0.000000 0.000000 1.000000</color>
            </transparent>
            <transparency>
              <float sid="transparency">1.000000</float>
            </transparency>
          </phong>
        </technique>
      </profile_COMMON>
    </effect>
  </library_effects>
  <library_geometries>
    <geometry id="lab_flat-lib" name="lab_flatMesh">
      <mesh>
        <source id="lab_flat-POSITION">
          <float_array id="lab_flat-POSITION-array" count="945">
-2.000000 0.455326 0.000000
2.000000 0.455326 0.000000
-2.000001 1.250000 -0.095300
-2.000004 0.986512 0.000787
-2.000000 1.074727 -0.102561
-2.000001 1.022637 -0.064903
-1.999999 1.049304 -0.089770
-1.999998 1.006539 -0.040558
-1.999998 0.993603 -0.018950
-0.101079 0.986517 0.000787
-0.101079 0.993605 -0.018950
-0.101079 1.006535 -0.040558
-0.101079 1.022636 -0.064903
-0.101079 1.049307 -0.089770
-0.101079 1.074724 -0.102561
-0.101079 1.250000 -0.095300
-1.758300 0.986516 0.000787
-1.758298 0.993609 -0.018950
-1.758300 1.006535 -0.040558
-1.758300 1.022637 -0.064903
-1.758299 1.049304 -0.089770
-1.758301 1.074727 -0.102561
-1.758300 1.250000 -0.095300
-0.120676 1.000000 0.000000
-0.120676 1.019626 -0.009629
-0.120676 1.030346 -0.027769
-0.120676 1.044417 -0.048088
-0.120675 1.064286 -0.066610
-0.120676 1.082633 -0.075860
-0.120675 1.250000 -0.095300
-1.721218 1.000000 0.000000
-1.738700 1.000000 0.000000
-1.738698 1.019623 -0.009629
-1.721219 1.019627 -0.009629
-1.738699 1.030347 -0.027769
-1.721219 1.030347 -0.027769
-1.738699 1.044419 -0.048088
-1.721222 1.044413 -0.048088
-1.738699 1.064286 -0.066610
-1.721219 1.064286 -0.066610
-1.738702 1.082634 -0.075860
-1.721219 1.082636 -0.075860
-1.738700 1.250000 -0.095300
-1.721221 1.250000 -0.095300
-1.460448 0.995237 0.000787
-1.460449 1.001823 -0.017564
-1.460451 1.013845 -0.037653
-1.460449 1.028816 -0.060288
-1.460449 1.053615 -0.083407
-1.460451 1.077236 -0.095298
-1.460450 1.250000 -0.095298
-0.398921 0.995235 0.000787
-0.398921 1.001826 -0.017564
-0.398921 1.013846 -0.037653
-0.398921 1.028816 -0.060288
-0.398921 1.053617 -0.083407
-0.398921 1.077235 -0.095298
-0.398921 1.250000 -0.095298
-1.481279 1.000000 0.000000
-1.481278 1.019627 -0.009629
-1.481282 1.030342 -0.027769
-1.481280 1.044413 -0.048088
-1.481279 1.064283 -0.066610
-1.481280 1.082635 -0.075860
-1.481281 1.250000 -0.095300
-0.357110 1.000000 0.000000
-0.378093 1.000000 0.000000
-0.378093 1.019627 -0.009629
-0.357109 1.019627 -0.009629
-0.378093 1.030344 -0.027769
-0.357110 1.030345 -0.027769
-0.378093 1.044418 -0.048088
-0.357110 1.044417 -0.048088
-0.378093 1.064287 -0.066610
-0.357110 1.064286 -0.066610
-0.378093 1.082635 -0.075860
-0.357110 1.082636 -0.075860
-0.378093 1.250000 -0.095300
-0.357110 1.250000 -0.095300
-1.701070 0.851978 0.000787
-1.701069 0.858564 -0.017564
-1.701070 0.982329 -0.037653
-1.701068 1.028817 -0.060288
-1.701070 1.053616 -0.083407
-1.701070 1.077236 -0.095298
-1.701069 1.250000 -0.095298
-1.522421 0.851974 0.000787
-1.522418 0.858567 -0.017564
-1.522421 0.982327 -0.037653
-1.522421 1.028814 -0.060288
-1.522420 1.053615 -0.083407
-1.522419 1.077233 -0.095298
-1.522419 1.250000 -0.095298
-1.502271 1.000000 0.000000
-1.502270 1.019625 -0.009629
-1.502269 1.030347 -0.027769
-1.502269 1.044416 -0.048088
-1.502269 1.064284 -0.066610
-1.502269 1.082632 -0.075860
-1.502270 1.250000 -0.095300
-0.336959 0.851976 0.000787
-0.336960 0.858565 -0.017564
-0.336959 0.982326 -0.037653
-0.336959 1.028816 -0.060288
-0.336959 1.053617 -0.083407
-0.336959 1.077235 -0.095298
-0.336959 1.250000 -0.095298
-0.155099 0.851976 0.000787
-0.155099 0.858563 -0.017564
-0.155099 0.982328 -0.037653
-0.155099 1.028818 -0.060288
-0.155099 1.053615 -0.083407
-0.155099 1.077232 -0.095298
-0.155099 1.250000 -0.095298
-0.138157 1.000000 0.000000
-0.138157 1.019625 -0.009629
-0.138157 1.030344 -0.027769
-0.138157 1.044416 -0.048088
-0.138157 1.064288 -0.066610
-0.138157 1.082637 -0.075860
-0.138157 1.250000 -0.095300
2.000001 1.250000 -0.095300
1.999997 0.986513 0.000787
2.000000 1.074727 -0.102561
1.999997 1.022637 -0.064903
1.999999 1.049304 -0.089770
2.000000 1.006534 -0.040558
1.999997 0.993604 -0.018950
1.787879 0.986516 0.000787
1.787883 0.993604 -0.018950
1.787880 1.006535 -0.040558
1.787878 1.022633 -0.064903
1.787882 1.049305 -0.089770
1.787881 1.074725 -0.102561
1.787880 1.250000 -0.095300
0.101079 0.986512 0.000787
0.101079 0.993605 -0.018950
0.101079 1.006536 -0.040558
0.101079 1.022635 -0.064903
0.101079 1.049307 -0.089770
0.101079 1.074723 -0.102561
0.101079 1.250000 -0.095300
1.768289 1.000000 0.000000
1.768291 1.019628 -0.009629
1.768290 1.030348 -0.027769
1.768290 1.044415 -0.048088
1.768291 1.064287 -0.066610
1.768291 1.082638 -0.075860
1.768291 1.250000 -0.095300
0.138157 1.000000 0.000000
0.120675 1.000000 0.000000
0.120675 1.019626 -0.009629
0.138157 1.019626 -0.009629
0.120675 1.030344 -0.027769
0.138157 1.030346 -0.027769
0.120675 1.044417 -0.048088
0.138157 1.044420 -0.048088
0.120675 1.064286 -0.066610
0.138157 1.064287 -0.066610
0.120675 1.082637 -0.075860
0.138157 1.082636 -0.075860
0.120675 1.250000 -0.095300
0.138157 1.250000 -0.095300
0.398921 0.995236 0.000787
0.398922 1.001826 -0.017564
0.398921 1.013845 -0.037653
0.398921 1.028813 -0.060288
0.398921 1.053616 -0.083407
0.398921 1.077235 -0.095298
0.398921 1.250000 -0.095298
1.490041 0.995236 0.000787
1.490038 1.001824 -0.017564
1.490042 1.013846 -0.037653
1.490039 1.028815 -0.060288
1.490041 1.053615 -0.083407
1.490040 1.077236 -0.095298
1.490041 1.250000 -0.095298
0.378092 1.000000 0.000000
0.378092 1.019625 -0.009629
0.378093 1.030344 -0.027769
0.378092 1.044416 -0.048088
0.378092 1.064288 -0.066610
0.378092 1.082636 -0.075860
0.378092 1.250000 -0.095300
1.531850 1.000000 0.000000
1.510869 1.000000 0.000000
1.510872 1.019626 -0.009629
1.531849 1.019627 -0.009629
1.510870 1.030347 -0.027769
1.531851 1.030344 -0.027769
1.510871 1.044417 -0.048088
1.531850 1.044419 -0.048088
1.510869 1.064287 -0.066610
1.531851 1.064287 -0.066610
1.510869 1.082634 -0.075860
1.531849 1.082633 -0.075860
1.510869 1.250000 -0.095300
1.531850 1.250000 -0.095300
0.158308 0.851976 0.000787
0.158308 0.858565 -0.017564
0.158308 0.982323 -0.037653
0.158308 1.028815 -0.060288
0.158308 1.053616 -0.083407
0.158308 1.077235 -0.095298
0.158308 1.250000 -0.095298
0.336959 0.851974 0.000787
0.336959 0.858566 -0.017564
0.336959 0.982327 -0.037653
0.336959 1.028814 -0.060288
0.336959 1.053618 -0.083407
0.336959 1.077237 -0.095298
0.336959 1.250000 -0.095298
0.357110 1.000000 0.000000
0.357110 1.019624 -0.009629
0.357110 1.030342 -0.027769
0.357110 1.044416 -0.048088
0.357110 1.064286 -0.066610
0.357110 1.082635 -0.075860
0.357110 1.250000 -0.095300
1.551999 0.851978 0.000787
1.551999 0.858567 -0.017564
1.552000 0.982324 -0.037653
1.552002 1.028814 -0.060288
1.552000 1.053618 -0.083407
1.552000 1.077237 -0.095298
1.552000 1.250000 -0.095298
1.733859 0.851974 0.000787
1.733859 0.858566 -0.017564
1.733860 0.982328 -0.037653
1.733857 1.028813 -0.060288
1.733858 1.053619 -0.083407
1.733860 1.077236 -0.095298
1.733860 1.250000 -0.095298
1.750811 1.000000 0.000000
1.750811 1.019627 -0.009629
1.750810 1.030346 -0.027769
1.750809 1.044418 -0.048088
1.750810 1.064290 -0.066610
1.750810 1.082634 -0.075860
1.750810 1.250000 -0.095300
-2.000000 0.000000 -0.063453
-2.000000 0.455326 0.000000
-2.000000 0.433376 -0.063453
-1.500000 0.455326 0.000000
-1.500000 0.433376 -0.063453
-1.500000 0.000000 -0.063453
-0.500000 0.455326 0.000000
-0.500000 0.433376 -0.063453
-0.500000 0.000000 -0.063453
0.500000 0.455326 0.000000
0.500000 0.433376 -0.063453
0.500000 0.000000 -0.063453
2.000000 0.455326 0.000000
2.000000 0.433376 -0.063453
2.000000 0.000000 -0.063453
1.500000 0.455326 0.000000
1.500000 0.433376 -0.063453
1.500000 0.000000 -0.063453
-1.000000 0.455326 0.000000
-1.000000 0.433376 -0.063453
-1.000000 0.000000 -0.063453
0.000000 0.455326 0.000000
0.000000 0.433376 -0.063453
0.000000 0.000000 -0.063453
1.000000 0.455326 0.000000
1.000000 0.433376 -0.063453
1.000000 0.000000 -0.063453
0.000000 0.455326 0.000000
0.000000 0.986516 0.000787
-0.000000 0.993606 -0.018950
0.000000 1.250000 -0.095300
0.000000 1.074725 -0.102561
-0.000000 1.022635 -0.064903
-0.000000 1.049305 -0.089770
0.000000 1.006536 -0.040558
2.000000 1.000000 0.000000
0.318092 1.000000 0.000000
0.000000 1.000000 0.000000
-1.681908 1.000000 0.000000
-2.000000 1.000000 0.000000
-2.000001 1.250000 0.000000
-1.758300 1.250000 0.000000
-1.738700 1.250000 0.000000
-1.721221 1.250000 0.000000
-0.120675 1.250000 0.000000
-0.101079 1.250000 0.000000
-1.460450 1.250000 0.000000
-0.398921 1.250000 0.000000
-0.378093 1.250000 0.000000
-0.357110 1.250000 0.000000
-1.481281 1.250000 0.000000
-1.701069 1.250000 0.000000
-1.522419 1.250000 0.000000
-1.502270 1.250000 0.000000
-0.336959 1.250000 0.000000
-0.155099 1.250000 0.000000
-0.138157 1.250000 0.000000
1.787880 1.250000 0.000000
2.000001 1.250000 0.000000
0.120675 1.250000 0.000000
0.138157 1.250000 0.000000
1.768291 1.250000 0.000000
0.101079 1.250000 0.000000
0.398921 1.250000 0.000000
1.490041 1.250000 0.000000
1.510869 1.250000 0.000000
1.531850 1.250000 0.000000
0.378092 1.250000 0.000000
0.158308 1.250000 0.000000
0.336959 1.250000 0.000000
0.357110 1.250000 0.000000
1.552000 1.250000 0.000000
1.733860 1.250000 0.000000
1.750810 1.250000 0.000000
0.000000 1.250000 0.000000
</float_array>
          <technique_common>
            <accessor source="#lab_flat-POSITION-array" count="315" stride="3">
              <param name="X" type="float"/>
              <param name="Y" type="float"/>
              <param name="Z" type="float"/>
            </accessor>
          </technique_common>
        </source>
        <source id="lab_flat-Normal0">
          <float_array id="lab_flat-Normal0-array" count="4626">
0.000000 -0.903886 -0.427774
0.000000 -0.903886 -0.427774
0.000000 -0.941162 -0.337956
0.000000 -0.941162 -0.337956
0.000000 -0.903886 -0.427774
0.000000 -0.941162 -0.337956
0.000000 -0.846292 -0.532719
0.000000 -0.903886 -0.427774
0.000000 -0.846292 -0.532719
0.000000 -0.846292 -0.532719
0.000000 -0.903886 -0.427774
0.000000 -0.903886 -0.427774
0.000000 -0.737220 -0.675653
0.000000 -0.788251 -0.615354
0.000000 -0.846292 -0.532719
0.000000 -0.846292 -0.532719
0.000000 -0.788251 -0.615354
0.000000 -0.846292 -0.532719
0.000000 -0.531784 -0.846880
0.000000 -0.609945 -0.792444
0.000000 -0.737220 -0.675653
0.000000 -0.737220 -0.675653
0.000000 -0.609945 -0.792444
0.000000 -0.788251 -0.615354
0.000000 -0.153541 -0.988142
0.000000 -0.307082 -0.951683
0.000000 -0.531784 -0.846880
0.000000 -0.531784 -0.846880
0.000000 -0.307082 -0.951683
0.000000 -0.609945 -0.792444
0.000000 0.000000 -1.000000
0.000000 0.000000 -1.000000
0.000000 -0.153541 -0.988142
0.000000 -0.153541 -0.988142
0.000000 0.000000 -1.000000
0.000000 -0.307082 -0.951683
0.000000 -0.932545 -0.361053
-0.000000 -0.932545 -0.361053
-0.000000 -0.911414 -0.411490
-0.000000 -0.911414 -0.411490
-0.000000 -0.932545 -0.361053
-0.000000 -0.887482 -0.460842
-0.000000 -0.911414 -0.411490
-0.000000 -0.887482 -0.460842
-0.000000 -0.848505 -0.529188
-0.000000 -0.848505 -0.529188
-0.000000 -0.887482 -0.460842
0.000000 -0.835549 -0.549415
-0.000000 -0.848505 -0.529188
0.000000 -0.835549 -0.549415
0.000000 -0.779357 -0.626580
0.000000 -0.779357 -0.626580
0.000000 -0.835549 -0.549415
0.000000 -0.732363 -0.680914
0.000000 -0.779357 -0.626580
0.000000 -0.732363 -0.680914
0.000001 -0.610045 -0.792367
0.000001 -0.610045 -0.792367
0.000000 -0.732363 -0.680914
0.000001 -0.532105 -0.846678
0.000001 -0.610045 -0.792367
0.000001 -0.532105 -0.846678
-0.000000 -0.309279 -0.950971
-0.000000 -0.309279 -0.950971
0.000001 -0.532105 -0.846678
-0.000001 -0.157611 -0.987501
-0.000000 -0.309279 -0.950971
-0.000001 -0.157611 -0.987501
-0.000000 -0.005804 -0.999983
-0.000000 -0.005804 -0.999983
-0.000001 -0.157611 -0.987501
0.000000 -0.005804 -0.999983
-0.812418 -0.548768 -0.197054
-0.814074 -0.544139 -0.202967
-0.813900 -0.530967 -0.235881
-0.813900 -0.530967 -0.235881
-0.814074 -0.544139 -0.202967
-0.812691 -0.516484 -0.269774
-0.813900 -0.530967 -0.235881
-0.812691 -0.516484 -0.269774
-0.809467 -0.499819 -0.308131
-0.809467 -0.499819 -0.308131
-0.812691 -0.516484 -0.269774
-0.810748 -0.491441 -0.318078
-0.809467 -0.499819 -0.308131
-0.810748 -0.491441 -0.318078
-0.812832 -0.442602 -0.378693
-0.812832 -0.442602 -0.378693
-0.810748 -0.491441 -0.318078
-0.814080 -0.439086 -0.380101
-0.815118 -0.308363 -0.490403
-0.812832 -0.442602 -0.378693
-0.814233 -0.354365 -0.459838
-0.814233 -0.354365 -0.459838
-0.812832 -0.442602 -0.378693
-0.814080 -0.439086 -0.380101
-0.817375 -0.131959 -0.560790
-0.815118 -0.308363 -0.490403
-0.816351 -0.132886 -0.562061
-0.816351 -0.132886 -0.562061
-0.815118 -0.308363 -0.490403
-0.814233 -0.354365 -0.459838
-0.817375 -0.131959 -0.560790
-0.816351 -0.132886 -0.562061
-0.804151 -0.001730 -0.594423
-0.804151 -0.001730 -0.594423
-0.816351 -0.132886 -0.562061
-0.802112 -0.003460 -0.597163
0.812422 -0.548764 -0.197052
0.813904 -0.530963 -0.235879
0.814078 -0.544134 -0.202966
0.814078 -0.544134 -0.202966
0.813904 -0.530963 -0.235879
0.812695 -0.516479 -0.269772
0.813904 -0.530963 -0.235879
0.809470 -0.499815 -0.308128
0.812695 -0.516479 -0.269772
0.812695 -0.516479 -0.269772
0.809470 -0.499815 -0.308128
0.810751 -0.491437 -0.318075
0.809470 -0.499815 -0.308128
0.812834 -0.442600 -0.378689
0.810751 -0.491437 -0.318075
0.810751 -0.491437 -0.318075
0.812834 -0.442600 -0.378689
0.814084 -0.439085 -0.380095
0.815119 -0.308360 -0.490404
0.814234 -0.354363 -0.459837
0.812834 -0.442600 -0.378689
0.812834 -0.442600 -0.378689
0.814234 -0.354363 -0.459837
0.814084 -0.439085 -0.380095
0.817378 -0.131958 -0.560786
0.816352 -0.132884 -0.562060
0.815119 -0.308360 -0.490404
0.815119 -0.308360 -0.490404
0.816352 -0.132884 -0.562060
0.814234 -0.354363 -0.459837
0.817378 -0.131958 -0.560786
0.804152 -0.001731 -0.594421
0.816352 -0.132884 -0.562060
0.816352 -0.132884 -0.562060
0.804152 -0.001731 -0.594421
0.802112 -0.003463 -0.597164
0.000000 -0.941163 -0.337952
0.000000 -0.917319 -0.398154
0.000000 -0.941163 -0.337952
0.000000 -0.941163 -0.337952
0.000000 -0.917319 -0.398154
0.000000 -0.889503 -0.456930
0.000000 -0.842269 -0.539057
0.000000 -0.889503 -0.456930
0.000000 -0.850264 -0.526356
0.000000 -0.850264 -0.526356
0.000000 -0.889503 -0.456930
0.000000 -0.917319 -0.398154
0.000000 -0.850264 -0.526356
0.000000 -0.788248 -0.615358
0.000000 -0.842269 -0.539057
0.000000 -0.842269 -0.539057
0.000000 -0.788248 -0.615358
0.000000 -0.737221 -0.675652
0.000000 -0.788248 -0.615358
0.000000 -0.609943 -0.792445
0.000000 -0.737221 -0.675652
0.000000 -0.737221 -0.675652
0.000000 -0.609943 -0.792445
0.000000 -0.531774 -0.846886
0.000000 -0.609943 -0.792445
0.000000 -0.307068 -0.951688
0.000000 -0.531774 -0.846886
0.000000 -0.531774 -0.846886
0.000000 -0.307068 -0.951688
0.000000 -0.153534 -0.988143
0.000000 -0.307068 -0.951688
0.000000 0.000000 -1.000000
0.000000 -0.153534 -0.988143
0.000000 -0.153534 -0.988143
0.000000 0.000000 -1.000000
0.000000 0.000000 -1.000000
-0.000002 -0.932545 -0.361053
-0.000001 -0.932546 -0.361052
-0.000001 -0.911415 -0.411489
-0.000001 -0.911415 -0.411489
-0.000001 -0.932546 -0.361052
-0.000000 -0.887483 -0.460840
-0.000001 -0.911415 -0.411489
-0.000000 -0.887483 -0.460840
-0.000000 -0.848505 -0.529187
-0.000000 -0.848505 -0.529187
-0.000000 -0.887483 -0.460840
0.000000 -0.835550 -0.549415
-0.000000 -0.848505 -0.529187
0.000000 -0.835550 -0.549415
0.000000 -0.779357 -0.626580
0.000000 -0.779357 -0.626580
0.000000 -0.835550 -0.549415
-0.000000 -0.732363 -0.680915
0.000000 -0.779357 -0.626580
-0.000000 -0.732363 -0.680915
-0.000001 -0.610045 -0.792367
-0.000001 -0.610045 -0.792367
-0.000000 -0.732363 -0.680915
-0.000001 -0.532105 -0.846678
-0.000001 -0.610045 -0.792367
-0.000001 -0.532105 -0.846678
-0.000000 -0.309279 -0.950971
-0.000000 -0.309279 -0.950971
-0.000001 -0.532105 -0.846678
0.000000 -0.157612 -0.987501
-0.000000 -0.309279 -0.950971
0.000000 -0.157612 -0.987501
0.000000 -0.005804 -0.999983
0.000000 -0.005804 -0.999983
0.000000 -0.157612 -0.987501
0.000000 -0.005804 -0.999983
-0.675924 -0.693611 -0.249061
-0.679424 -0.687479 -0.256429
-0.681189 -0.669182 -0.296947
-0.681189 -0.669182 -0.296947
-0.679424 -0.687479 -0.256429
-0.681775 -0.648557 -0.338462
-0.681189 -0.669182 -0.296947
-0.681775 -0.648557 -0.338462
-0.681325 -0.617946 -0.392350
-0.681325 -0.617946 -0.392350
-0.681775 -0.648557 -0.338462
-0.678241 -0.618793 -0.396340
-0.687961 -0.534905 -0.490496
-0.681325 -0.617946 -0.392350
-0.685447 -0.570738 -0.452129
-0.685447 -0.570738 -0.452129
-0.681325 -0.617946 -0.392350
-0.678241 -0.618793 -0.396340
-0.690755 -0.384868 -0.612155
-0.687961 -0.534905 -0.490496
-0.689334 -0.442177 -0.573845
-0.689334 -0.442177 -0.573845
-0.687961 -0.534905 -0.490496
-0.685447 -0.570738 -0.452129
-0.691219 -0.111448 -0.714000
-0.690755 -0.384868 -0.612155
-0.695502 -0.221519 -0.683525
-0.695502 -0.221519 -0.683525
-0.690755 -0.384868 -0.612155
-0.689334 -0.442177 -0.573845
-0.675922 0.000000 -0.736973
-0.691219 -0.111448 -0.714000
-0.679407 -0.002120 -0.733758
-0.679407 -0.002120 -0.733758
-0.691219 -0.111448 -0.714000
-0.695502 -0.221519 -0.683525
0.675929 -0.693606 -0.249060
0.681193 -0.669178 -0.296945
0.679428 -0.687476 -0.256426
0.679428 -0.687476 -0.256426
0.681193 -0.669178 -0.296945
0.681779 -0.648554 -0.338460
0.681193 -0.669178 -0.296945
0.681329 -0.617943 -0.392347
0.681779 -0.648554 -0.338460
0.681779 -0.648554 -0.338460
0.681329 -0.617943 -0.392347
0.678245 -0.618790 -0.396337
0.687965 -0.534902 -0.490494
0.685451 -0.570735 -0.452127
0.681329 -0.617943 -0.392347
0.681329 -0.617943 -0.392347
0.685451 -0.570735 -0.452127
0.678245 -0.618790 -0.396337
0.690760 -0.384866 -0.612151
0.689338 -0.442175 -0.573842
0.687965 -0.534902 -0.490494
0.687965 -0.534902 -0.490494
0.689338 -0.442175 -0.573842
0.685451 -0.570735 -0.452127
0.691223 -0.111447 -0.713996
0.695507 -0.221518 -0.683521
0.690760 -0.384866 -0.612151
0.690760 -0.384866 -0.612151
0.695507 -0.221518 -0.683521
0.689338 -0.442175 -0.573842
0.675927 0.000000 -0.736969
0.679411 -0.002120 -0.733755
0.691223 -0.111447 -0.713996
0.691223 -0.111447 -0.713996
0.679411 -0.002120 -0.733755
0.695507 -0.221518 -0.683521
0.000000 -0.941167 -0.337942
0.000000 -0.941167 -0.337942
0.000000 -0.941167 -0.337942
0.000000 -0.941167 -0.337942
0.000000 -0.941167 -0.337942
0.000000 -0.941167 -0.337942
0.000000 -0.348521 -0.937301
0.000000 -0.160224 -0.987081
0.000000 -0.255138 -0.966905
0.000000 -0.255138 -0.966905
0.000000 -0.160224 -0.987081
0.000000 -0.160224 -0.987081
0.000000 -0.255138 -0.966905
0.000000 -0.524271 -0.851551
0.000000 -0.348521 -0.937301
0.000000 -0.348521 -0.937301
0.000000 -0.524271 -0.851551
0.000000 -0.606487 -0.795094
0.000000 -0.524271 -0.851551
0.000000 -0.609943 -0.792445
0.000000 -0.606487 -0.795094
0.000000 -0.606487 -0.795094
0.000000 -0.609943 -0.792445
0.000000 -0.531774 -0.846886
0.000000 -0.609943 -0.792445
0.000000 -0.307068 -0.951688
0.000000 -0.531774 -0.846886
0.000000 -0.531774 -0.846886
0.000000 -0.307068 -0.951688
0.000000 -0.153534 -0.988143
0.000000 -0.307068 -0.951688
0.000000 0.000000 -1.000000
0.000000 -0.153534 -0.988143
0.000000 -0.153534 -0.988143
0.000000 0.000000 -1.000000
0.000000 0.000000 -1.000000
-0.000002 -0.932545 -0.361053
-0.000001 -0.932546 -0.361052
-0.000001 -0.911415 -0.411489
-0.000001 -0.911415 -0.411489
-0.000001 -0.932546 -0.361052
-0.000000 -0.887483 -0.460840
-0.000001 -0.911415 -0.411489
-0.000000 -0.887483 -0.460840
-0.000000 -0.848505 -0.529187
-0.000000 -0.848505 -0.529187
-0.000000 -0.887483 -0.460840
0.000000 -0.835550 -0.549415
-0.000000 -0.848505 -0.529187
0.000000 -0.835550 -0.549415
0.000000 -0.779357 -0.626580
0.000000 -0.779357 -0.626580
0.000000 -0.835550 -0.549415
-0.000000 -0.732363 -0.680915
0.000000 -0.779357 -0.626580
-0.000000 -0.732363 -0.680915
-0.000001 -0.610045 -0.792367
-0.000001 -0.610045 -0.792367
-0.000000 -0.732363 -0.680915
-0.000001 -0.532105 -0.846678
-0.000001 -0.610045 -0.792367
-0.000001 -0.532105 -0.846678
-0.000000 -0.309279 -0.950971
-0.000000 -0.309279 -0.950971
-0.000001 -0.532105 -0.846678
0.000000 -0.157612 -0.987501
-0.000000 -0.309279 -0.950971
0.000000 -0.157612 -0.987501
0.000000 -0.005804 -0.999983
0.000000 -0.005804 -0.999983
0.000000 -0.157612 -0.987501
0.000000 -0.005804 -0.999983
-0.991541 -0.122159 -0.043863
-0.991495 -0.121937 -0.045494
-0.972419 -0.111662 -0.204774
-0.972419 -0.111662 -0.204774
-0.991495 -0.121937 -0.045494
-0.947447 -0.187395 -0.259281
-0.972419 -0.111662 -0.204774
-0.947447 -0.187395 -0.259281
-0.882885 -0.227151 -0.410995
-0.882885 -0.227151 -0.410995
-0.947447 -0.187395 -0.259281
-0.834266 -0.400472 -0.378975
-0.882885 -0.227151 -0.410995
-0.834266 -0.400472 -0.378975
-0.738732 -0.457460 -0.494980
-0.738732 -0.457460 -0.494980
-0.834266 -0.400472 -0.378975
-0.700504 -0.539633 -0.467001
-0.702620 -0.378742 -0.602394
-0.738732 -0.457460 -0.494980
-0.701220 -0.435167 -0.564731
-0.701220 -0.435167 -0.564731
-0.738732 -0.457460 -0.494980
-0.700504 -0.539633 -0.467001
-0.703073 -0.109640 -0.702615
-0.702620 -0.378742 -0.602394
-0.707295 -0.217923 -0.672491
-0.707295 -0.217923 -0.672491
-0.702620 -0.378742 -0.602394
-0.701220 -0.435167 -0.564731
-0.687991 0.000000 -0.725720
-0.703073 -0.109640 -0.702615
-0.691431 -0.002088 -0.722440
-0.691431 -0.002088 -0.722440
-0.703073 -0.109640 -0.702615
-0.707295 -0.217923 -0.672491
0.991541 -0.122159 -0.043863
0.972419 -0.111661 -0.204774
0.991495 -0.121937 -0.045494
0.991495 -0.121937 -0.045494
0.972419 -0.111661 -0.204774
0.947447 -0.187393 -0.259284
0.972419 -0.111661 -0.204774
0.882886 -0.227148 -0.410995
0.947447 -0.187393 -0.259284
0.947447 -0.187393 -0.259284
0.882886 -0.227148 -0.410995
0.834267 -0.400471 -0.378974
0.882886 -0.227148 -0.410995
0.738733 -0.457461 -0.494978
0.834267 -0.400471 -0.378974
0.834267 -0.400471 -0.378974
0.738733 -0.457461 -0.494978
0.700504 -0.539635 -0.466998
0.702621 -0.378742 -0.602394
0.701220 -0.435166 -0.564731
0.738733 -0.457461 -0.494978
0.738733 -0.457461 -0.494978
0.701220 -0.435166 -0.564731
0.700504 -0.539635 -0.466998
0.703075 -0.109639 -0.702613
0.707295 -0.217922 -0.672491
0.702621 -0.378742 -0.602394
0.702621 -0.378742 -0.602394
0.707295 -0.217922 -0.672491
0.701220 -0.435166 -0.564731
0.687995 0.000000 -0.725716
0.691433 -0.002087 -0.722438
0.703075 -0.109639 -0.702613
0.703075 -0.109639 -0.702613
0.691433 -0.002087 -0.722438
0.707295 -0.217922 -0.672491
0.000000 -0.941167 -0.337942
0.000000 -0.941167 -0.337942
0.000000 -0.941167 -0.337942
0.000000 -0.941167 -0.337942
0.000000 -0.941167 -0.337942
0.000000 -0.941167 -0.337942
0.000000 -0.348521 -0.937301
0.000000 -0.160224 -0.987081
0.000000 -0.255138 -0.966905
0.000000 -0.255138 -0.966905
0.000000 -0.160224 -0.987081
0.000000 -0.160224 -0.987081
0.000000 -0.255138 -0.966905
0.000000 -0.524271 -0.851551
0.000000 -0.348521 -0.937301
0.000000 -0.348521 -0.937301
0.000000 -0.524271 -0.851551
0.000000 -0.606487 -0.795094
0.000000 -0.524271 -0.851551
0.000000 -0.609943 -0.792445
0.000000 -0.606487 -0.795094
0.000000 -0.606487 -0.795094
0.000000 -0.609943 -0.792445
0.000000 -0.531774 -0.846886
0.000000 -0.609943 -0.792445
0.000000 -0.307068 -0.951688
0.000000 -0.531774 -0.846886
0.000000 -0.531774 -0.846886
0.000000 -0.307068 -0.951688
0.000000 -0.153534 -0.988143
0.000000 -0.307068 -0.951688
0.000000 0.000000 -1.000000
0.000000 -0.153534 -0.988143
0.000000 -0.153534 -0.988143
0.000000 0.000000 -1.000000
0.000000 0.000000 -1.000000
-0.991541 -0.122161 -0.043864
-0.991494 -0.121940 -0.045495
-0.972418 -0.111664 -0.204778
-0.972418 -0.111664 -0.204778
-0.991494 -0.121940 -0.045495
-0.947445 -0.187397 -0.259289
-0.972418 -0.111664 -0.204778
-0.947445 -0.187397 -0.259289
-0.882881 -0.227152 -0.411003
-0.882881 -0.227152 -0.411003
-0.947445 -0.187397 -0.259289
-0.834262 -0.400477 -0.378980
-0.882881 -0.227152 -0.411003
-0.834262 -0.400477 -0.378980
-0.738727 -0.457463 -0.494985
-0.738727 -0.457463 -0.494985
-0.834262 -0.400477 -0.378980
-0.700496 -0.539638 -0.467008
-0.702620 -0.378742 -0.602394
-0.738727 -0.457463 -0.494985
-0.701216 -0.435165 -0.564736
-0.701216 -0.435165 -0.564736
-0.738727 -0.457463 -0.494985
-0.700496 -0.539638 -0.467008
-0.703072 -0.109641 -0.702616
-0.702620 -0.378742 -0.602394
-0.707295 -0.217924 -0.672490
-0.707295 -0.217924 -0.672490
-0.702620 -0.378742 -0.602394
-0.701216 -0.435165 -0.564736
-0.687986 0.000000 -0.725724
-0.703072 -0.109641 -0.702616
-0.691429 -0.002090 -0.722441
-0.691429 -0.002090 -0.722441
-0.703072 -0.109641 -0.702616
-0.707295 -0.217924 -0.672490
0.993998 -0.102963 -0.036971
0.979663 -0.094404 -0.177057
0.993965 -0.102778 -0.038346
0.993965 -0.102778 -0.038346
0.979663 -0.094404 -0.177057
0.961399 -0.159912 -0.223920
0.979663 -0.094404 -0.177057
0.912518 -0.196946 -0.358502
0.961399 -0.159912 -0.223920
0.961399 -0.159912 -0.223920
0.912518 -0.196946 -0.358502
0.872419 -0.355310 -0.335618
0.912518 -0.196946 -0.358502
0.792625 -0.414708 -0.446948
0.872419 -0.355310 -0.335618
0.872419 -0.355310 -0.335618
0.792625 -0.414708 -0.446948
0.759477 -0.491890 -0.425722
0.761382 -0.345106 -0.548816
0.760119 -0.396648 -0.514673
0.792625 -0.414708 -0.446948
0.792625 -0.414708 -0.446948
0.760119 -0.396648 -0.514673
0.759477 -0.491890 -0.425722
0.761779 -0.099734 -0.640114
0.765582 -0.198231 -0.612037
0.761382 -0.345106 -0.548816
0.761382 -0.345106 -0.548816
0.765582 -0.198231 -0.612037
0.760119 -0.396648 -0.514673
0.748156 0.000000 -0.663523
0.751275 -0.001905 -0.659986
0.761779 -0.099734 -0.640114
0.761779 -0.099734 -0.640114
0.751275 -0.001905 -0.659986
0.765582 -0.198231 -0.612037
0.000000 -0.932545 -0.361053
0.000000 -0.932545 -0.361053
0.000000 -0.911414 -0.411490
0.000000 -0.911414 -0.411490
0.000000 -0.932545 -0.361053
0.000000 -0.887482 -0.460842
0.000000 -0.911414 -0.411490
0.000000 -0.887482 -0.460842
0.000000 -0.848505 -0.529188
0.000000 -0.848505 -0.529188
0.000000 -0.887482 -0.460842
0.000000 -0.835549 -0.549415
0.000000 -0.848505 -0.529188
0.000000 -0.835549 -0.549415
0.000000 -0.779357 -0.626580
0.000000 -0.779357 -0.626580
0.000000 -0.835549 -0.549415
0.000000 -0.732363 -0.680915
0.000000 -0.779357 -0.626580
0.000000 -0.732363 -0.680915
0.000000 -0.610045 -0.792367
0.000000 -0.610045 -0.792367
0.000000 -0.732363 -0.680915
0.000000 -0.532106 -0.846678
0.000000 -0.610045 -0.792367
0.000000 -0.532106 -0.846678
0.000000 -0.309280 -0.950971
0.000000 -0.309280 -0.950971
0.000000 -0.532106 -0.846678
0.000000 -0.157612 -0.987501
0.000000 -0.309280 -0.950971
0.000000 -0.157612 -0.987501
0.000000 -0.005804 -0.999983
0.000000 -0.005804 -0.999983
0.000000 -0.157612 -0.987501
0.000000 -0.005804 -0.999983
0.000000 -0.307082 -0.951683
0.000000 0.000000 -1.000000
0.000000 -0.153541 -0.988142
0.000000 -0.153541 -0.988142
0.000000 0.000000 -1.000000
0.000000 0.000000 -1.000000
-0.000000 -0.609945 -0.792444
0.000000 -0.307082 -0.951683
0.000000 -0.531784 -0.846880
0.000000 -0.531784 -0.846880
0.000000 -0.307082 -0.951683
0.000000 -0.153541 -0.988142
0.000000 -0.941162 -0.337956
0.000000 -0.917316 -0.398159
0.000000 -0.941162 -0.337956
0.000000 -0.941162 -0.337956
0.000000 -0.917316 -0.398159
0.000000 -0.889500 -0.456936
0.000000 -0.850264 -0.526357
-0.000000 -0.788251 -0.615354
-0.000000 -0.842272 -0.539052
-0.000000 -0.842272 -0.539052
-0.000000 -0.788251 -0.615354
-0.000000 -0.737220 -0.675653
-0.000000 -0.788251 -0.615354
-0.000000 -0.609945 -0.792444
-0.000000 -0.737220 -0.675653
-0.000000 -0.737220 -0.675653
-0.000000 -0.609945 -0.792444
0.000000 -0.531784 -0.846880
-0.000000 -0.842272 -0.539052
0.000000 -0.889500 -0.456936
0.000000 -0.850264 -0.526357
0.000000 -0.850264 -0.526357
0.000000 -0.889500 -0.456936
0.000000 -0.917316 -0.398159
0.000000 -0.932545 -0.361053
-0.000000 -0.932545 -0.361053
-0.000000 -0.911414 -0.411490
-0.000000 -0.911414 -0.411490
-0.000000 -0.932545 -0.361053
-0.000000 -0.887482 -0.460842
-0.000000 -0.911414 -0.411490
-0.000000 -0.887482 -0.460842
-0.000000 -0.848505 -0.529188
-0.000000 -0.848505 -0.529188
-0.000000 -0.887482 -0.460842
0.000000 -0.835549 -0.549415
-0.000000 -0.848505 -0.529188
0.000000 -0.835549 -0.549415
0.000000 -0.779357 -0.626580
0.000000 -0.779357 -0.626580
0.000000 -0.835549 -0.549415
0.000000 -0.732363 -0.680914
0.000000 -0.779357 -0.626580
0.000000 -0.732363 -0.680914
0.000001 -0.610045 -0.792367
0.000001 -0.610045 -0.792367
0.000000 -0.732363 -0.680914
0.000001 -0.532105 -0.846678
0.000001 -0.610045 -0.792367
0.000001 -0.532105 -0.846678
-0.000000 -0.309279 -0.950971
-0.000000 -0.309279 -0.950971
0.000001 -0.532105 -0.846678
-0.000001 -0.157611 -0.987501
-0.000000 -0.309279 -0.950971
-0.000001 -0.157611 -0.987501
-0.000000 -0.005804 -0.999983
-0.000000 -0.005804 -0.999983
-0.000001 -0.157611 -0.987501
0.000000 -0.005804 -0.999983
-0.812422 -0.548764 -0.197052
-0.814078 -0.544134 -0.202966
-0.813904 -0.530963 -0.235879
-0.813904 -0.530963 -0.235879
-0.814078 -0.544134 -0.202966
-0.812694 -0.516479 -0.269772
-0.813904 -0.530963 -0.235879
-0.812694 -0.516479 -0.269772
-0.809470 -0.499815 -0.308129
-0.809470 -0.499815 -0.308129
-0.812694 -0.516479 -0.269772
-0.810751 -0.491437 -0.318076
-0.809470 -0.499815 -0.308129
-0.810751 -0.491437 -0.318076
-0.812835 -0.442598 -0.378690
-0.812835 -0.442598 -0.378690
-0.810751 -0.491437 -0.318076
-0.814083 -0.439083 -0.380098
-0.815121 -0.308361 -0.490399
-0.812835 -0.442598 -0.378690
-0.814236 -0.354362 -0.459834
-0.814236 -0.354362 -0.459834
-0.812835 -0.442598 -0.378690
-0.814083 -0.439083 -0.380098
-0.817378 -0.131958 -0.560786
-0.815121 -0.308361 -0.490399
-0.816353 -0.132886 -0.562057
-0.816353 -0.132886 -0.562057
-0.815121 -0.308361 -0.490399
-0.814236 -0.354362 -0.459834
-0.817378 -0.131958 -0.560786
-0.816353 -0.132886 -0.562057
-0.804152 -0.001731 -0.594421
-0.804152 -0.001731 -0.594421
-0.816353 -0.132886 -0.562057
-0.802112 -0.003463 -0.597164
0.812422 -0.548764 -0.197052
0.813904 -0.530963 -0.235879
0.814078 -0.544134 -0.202966
0.814078 -0.544134 -0.202966
0.813904 -0.530963 -0.235879
0.812695 -0.516479 -0.269772
0.813904 -0.530963 -0.235879
0.809470 -0.499815 -0.308128
0.812695 -0.516479 -0.269772
0.812695 -0.516479 -0.269772
0.809470 -0.499815 -0.308128
0.810751 -0.491437 -0.318075
0.809470 -0.499815 -0.308128
0.812834 -0.442600 -0.378689
0.810751 -0.491437 -0.318075
0.810751 -0.491437 -0.318075
0.812834 -0.442600 -0.378689
0.814084 -0.439085 -0.380095
0.815119 -0.308360 -0.490404
0.814234 -0.354363 -0.459837
0.812834 -0.442600 -0.378689
0.812834 -0.442600 -0.378689
0.814234 -0.354363 -0.459837
0.814084 -0.439085 -0.380095
0.817378 -0.131958 -0.560786
0.816352 -0.132885 -0.562060
0.815119 -0.308360 -0.490404
0.815119 -0.308360 -0.490404
0.816352 -0.132885 -0.562060
0.814234 -0.354363 -0.459837
0.817378 -0.131958 -0.560786
0.804151 -0.001732 -0.594422
0.816352 -0.132885 -0.562060
0.816352 -0.132885 -0.562060
0.804151 -0.001732 -0.594422
0.802110 -0.003465 -0.597166
0.000000 -0.941163 -0.337952
0.000000 -0.917319 -0.398154
0.000000 -0.941163 -0.337952
0.000000 -0.941163 -0.337952
0.000000 -0.917319 -0.398154
0.000000 -0.889503 -0.456930
0.000000 -0.842269 -0.539057
0.000000 -0.889503 -0.456930
0.000000 -0.850264 -0.526356
0.000000 -0.850264 -0.526356
0.000000 -0.889503 -0.456930
0.000000 -0.917319 -0.398154
0.000000 -0.850264 -0.526356
0.000000 -0.788248 -0.615358
0.000000 -0.842269 -0.539057
0.000000 -0.842269 -0.539057
0.000000 -0.788248 -0.615358
0.000000 -0.737221 -0.675652
0.000000 -0.788248 -0.615358
0.000000 -0.609943 -0.792445
0.000000 -0.737221 -0.675652
0.000000 -0.737221 -0.675652
0.000000 -0.609943 -0.792445
0.000000 -0.531774 -0.846886
0.000000 -0.609943 -0.792445
0.000000 -0.307068 -0.951688
0.000000 -0.531774 -0.846886
0.000000 -0.531774 -0.846886
0.000000 -0.307068 -0.951688
0.000000 -0.153534 -0.988143
0.000000 -0.307068 -0.951688
0.000000 0.000000 -1.000000
0.000000 -0.153534 -0.988143
0.000000 -0.153534 -0.988143
0.000000 0.000000 -1.000000
0.000000 0.000000 -1.000000
-0.000002 -0.932545 -0.361053
-0.000001 -0.932546 -0.361052
-0.000001 -0.911415 -0.411489
-0.000001 -0.911415 -0.411489
-0.000001 -0.932546 -0.361052
-0.000000 -0.887483 -0.460840
-0.000001 -0.911415 -0.411489
-0.000000 -0.887483 -0.460840
-0.000000 -0.848505 -0.529187
-0.000000 -0.848505 -0.529187
-0.000000 -0.887483 -0.460840
0.000000 -0.835550 -0.549415
-0.000000 -0.848505 -0.529187
0.000000 -0.835550 -0.549415
0.000000 -0.779357 -0.626580
0.000000 -0.779357 -0.626580
0.000000 -0.835550 -0.549415
-0.000000 -0.732363 -0.680915
0.000000 -0.779357 -0.626580
-0.000000 -0.732363 -0.680915
-0.000001 -0.610045 -0.792367
-0.000001 -0.610045 -0.792367
-0.000000 -0.732363 -0.680915
-0.000001 -0.532105 -0.846678
-0.000001 -0.610045 -0.792367
-0.000001 -0.532105 -0.846678
-0.000000 -0.309279 -0.950971
-0.000000 -0.309279 -0.950971
-0.000001 -0.532105 -0.846678
0.000000 -0.157612 -0.987501
-0.000000 -0.309279 -0.950971
0.000000 -0.157612 -0.987501
0.000000 -0.005804 -0.999983
0.000000 -0.005804 -0.999983
0.000000 -0.157612 -0.987501
0.000000 -0.005804 -0.999983
-0.675924 -0.693611 -0.249061
-0.679424 -0.687479 -0.256429
-0.681189 -0.669182 -0.296947
-0.681189 -0.669182 -0.296947
-0.679424 -0.687479 -0.256429
-0.681775 -0.648557 -0.338462
-0.681189 -0.669182 -0.296947
-0.681775 -0.648557 -0.338462
-0.681325 -0.617946 -0.392350
-0.681325 -0.617946 -0.392350
-0.681775 -0.648557 -0.338462
-0.678241 -0.618793 -0.396340
-0.687961 -0.534905 -0.490496
-0.681325 -0.617946 -0.392350
-0.685447 -0.570738 -0.452129
-0.685447 -0.570738 -0.452129
-0.681325 -0.617946 -0.392350
-0.678241 -0.618793 -0.396340
-0.690755 -0.384868 -0.612155
-0.687961 -0.534905 -0.490496
-0.689334 -0.442177 -0.573845
-0.689334 -0.442177 -0.573845
-0.687961 -0.534905 -0.490496
-0.685447 -0.570738 -0.452129
-0.691219 -0.111448 -0.714000
-0.690755 -0.384868 -0.612155
-0.695502 -0.221519 -0.683525
-0.695502 -0.221519 -0.683525
-0.690755 -0.384868 -0.612155
-0.689334 -0.442177 -0.573845
-0.675922 0.000000 -0.736973
-0.691219 -0.111448 -0.714000
-0.679407 -0.002120 -0.733758
-0.679407 -0.002120 -0.733758
-0.691219 -0.111448 -0.714000
-0.695502 -0.221519 -0.683525
0.675929 -0.693606 -0.249060
0.681193 -0.669178 -0.296945
0.679428 -0.687476 -0.256426
0.679428 -0.687476 -0.256426
0.681193 -0.669178 -0.296945
0.681779 -0.648554 -0.338460
0.681193 -0.669178 -0.296945
0.681329 -0.617943 -0.392347
0.681779 -0.648554 -0.338460
0.681779 -0.648554 -0.338460
0.681329 -0.617943 -0.392347
0.678245 -0.618790 -0.396337
0.687965 -0.534902 -0.490494
0.685451 -0.570735 -0.452127
0.681329 -0.617943 -0.392347
0.681329 -0.617943 -0.392347
0.685451 -0.570735 -0.452127
0.678245 -0.618790 -0.396337
0.690760 -0.384866 -0.612151
0.689338 -0.442175 -0.573842
0.687965 -0.534902 -0.490494
0.687965 -0.534902 -0.490494
0.689338 -0.442175 -0.573842
0.685451 -0.570735 -0.452127
0.691223 -0.111447 -0.713996
0.695507 -0.221518 -0.683521
0.690760 -0.384866 -0.612151
0.690760 -0.384866 -0.612151
0.695507 -0.221518 -0.683521
0.689338 -0.442175 -0.573842
0.675927 0.000000 -0.736969
0.679411 -0.002120 -0.733755
0.691223 -0.111447 -0.713996
0.691223 -0.111447 -0.713996
0.679411 -0.002120 -0.733755
0.695507 -0.221518 -0.683521
0.000000 -0.941167 -0.337942
0.000000 -0.941167 -0.337942
0.000000 -0.941167 -0.337942
0.000000 -0.941167 -0.337942
0.000000 -0.941167 -0.337942
0.000000 -0.941167 -0.337942
0.000000 -0.348521 -0.937301
0.000000 -0.160224 -0.987081
0.000000 -0.255138 -0.966905
0.000000 -0.255138 -0.966905
0.000000 -0.160224 -0.987081
0.000000 -0.160224 -0.987081
0.000000 -0.255138 -0.966905
0.000000 -0.524271 -0.851551
0.000000 -0.348521 -0.937301
0.000000 -0.348521 -0.937301
0.000000 -0.524271 -0.851551
0.000000 -0.606487 -0.795094
0.000000 -0.524271 -0.851551
0.000000 -0.609943 -0.792445
0.000000 -0.606487 -0.795094
0.000000 -0.606487 -0.795094
0.000000 -0.609943 -0.792445
0.000000 -0.531774 -0.846886
0.000000 -0.609943 -0.792445
0.000000 -0.307068 -0.951688
0.000000 -0.531774 -0.846886
0.000000 -0.531774 -0.846886
0.000000 -0.307068 -0.951688
0.000000 -0.153534 -0.988143
0.000000 -0.307068 -0.951688
0.000000 0.000000 -1.000000
0.000000 -0.153534 -0.988143
0.000000 -0.153534 -0.988143
0.000000 0.000000 -1.000000
0.000000 0.000000 -1.000000
-0.000002 -0.932545 -0.361053
-0.000001 -0.932546 -0.361052
-0.000001 -0.911415 -0.411489
-0.000001 -0.911415 -0.411489
-0.000001 -0.932546 -0.361052
-0.000000 -0.887483 -0.460840
-0.000001 -0.911415 -0.411489
-0.000000 -0.887483 -0.460840
-0.000000 -0.848505 -0.529187
-0.000000 -0.848505 -0.529187
-0.000000 -0.887483 -0.460840
0.000000 -0.835550 -0.549415
-0.000000 -0.848505 -0.529187
0.000000 -0.835550 -0.549415
0.000000 -0.779357 -0.626580
0.000000 -0.779357 -0.626580
0.000000 -0.835550 -0.549415
-0.000000 -0.732363 -0.680915
0.000000 -0.779357 -0.626580
-0.000000 -0.732363 -0.680915
-0.000001 -0.610045 -0.792367
-0.000001 -0.610045 -0.792367
-0.000000 -0.732363 -0.680915
-0.000001 -0.532105 -0.846678
-0.000001 -0.610045 -0.792367
-0.000001 -0.532105 -0.846678
-0.000000 -0.309279 -0.950971
-0.000000 -0.309279 -0.950971
-0.000001 -0.532105 -0.846678
0.000000 -0.157612 -0.987501
-0.000000 -0.309279 -0.950971
0.000000 -0.157612 -0.987501
0.000000 -0.005804 -0.999983
0.000000 -0.005804 -0.999983
0.000000 -0.157612 -0.987501
0.000000 -0.005804 -0.999983
-0.991541 -0.122159 -0.043863
-0.991495 -0.121937 -0.045494
-0.972419 -0.111662 -0.204774
-0.972419 -0.111662 -0.204774
-0.991495 -0.121937 -0.045494
-0.947447 -0.187395 -0.259281
-0.972419 -0.111662 -0.204774
-0.947447 -0.187395 -0.259281
-0.882885 -0.227151 -0.410995
-0.882885 -0.227151 -0.410995
-0.947447 -0.187395 -0.259281
-0.834266 -0.400472 -0.378975
-0.882885 -0.227151 -0.410995
-0.834266 -0.400472 -0.378975
-0.738732 -0.457460 -0.494980
-0.738732 -0.457460 -0.494980
-0.834266 -0.400472 -0.378975
-0.700504 -0.539633 -0.467001
-0.702620 -0.378742 -0.602394
-0.738732 -0.457460 -0.494980
-0.701220 -0.435167 -0.564731
-0.701220 -0.435167 -0.564731
-0.738732 -0.457460 -0.494980
-0.700504 -0.539633 -0.467001
-0.703073 -0.109640 -0.702615
-0.702620 -0.378742 -0.602394
-0.707295 -0.217923 -0.672491
-0.707295 -0.217923 -0.672491
-0.702620 -0.378742 -0.602394
-0.701220 -0.435167 -0.564731
-0.687991 0.000000 -0.725720
-0.703073 -0.109640 -0.702615
-0.691431 -0.002088 -0.722440
-0.691431 -0.002088 -0.722440
-0.703073 -0.109640 -0.702615
-0.707295 -0.217923 -0.672491
0.991541 -0.122159 -0.043863
0.972419 -0.111661 -0.204774
0.991495 -0.121937 -0.045494
0.991495 -0.121937 -0.045494
0.972419 -0.111661 -0.204774
0.947447 -0.187393 -0.259284
0.972419 -0.111661 -0.204774
0.882886 -0.227148 -0.410995
0.947447 -0.187393 -0.259284
0.947447 -0.187393 -0.259284
0.882886 -0.227148 -0.410995
0.834267 -0.400471 -0.378974
0.882886 -0.227148 -0.410995
0.738733 -0.457461 -0.494978
0.834267 -0.400471 -0.378974
0.834267 -0.400471 -0.378974
0.738733 -0.457461 -0.494978
0.700504 -0.539635 -0.466998
0.702621 -0.378742 -0.602394
0.701220 -0.435166 -0.564731
0.738733 -0.457461 -0.494978
0.738733 -0.457461 -0.494978
0.701220 -0.435166 -0.564731
0.700504 -0.539635 -0.466998
0.703075 -0.109639 -0.702613
0.707295 -0.217922 -0.672491
0.702621 -0.378742 -0.602394
0.702621 -0.378742 -0.602394
0.707295 -0.217922 -0.672491
0.701220 -0.435166 -0.564731
0.687995 0.000000 -0.725716
0.691433 -0.002087 -0.722438
0.703075 -0.109639 -0.702613
0.703075 -0.109639 -0.702613
0.691433 -0.002087 -0.722438
0.707295 -0.217922 -0.672491
0.000000 -0.941167 -0.337942
0.000000 -0.941167 -0.337942
0.000000 -0.941167 -0.337942
0.000000 -0.941167 -0.337942
0.000000 -0.941167 -0.337942
0.000000 -0.941167 -0.337942
0.000000 -0.348521 -0.937301
0.000000 -0.160224 -0.987081
0.000000 -0.255138 -0.966905
0.000000 -0.255138 -0.966905
0.000000 -0.160224 -0.987081
0.000000 -0.160224 -0.987081
0.000000 -0.255138 -0.966905
0.000000 -0.524271 -0.851551
0.000000 -0.348521 -0.937301
0.000000 -0.348521 -0.937301
0.000000 -0.524271 -0.851551
0.000000 -0.606487 -0.795094
0.000000 -0.524271 -0.851551
0.000000 -0.609943 -0.792445
0.000000 -0.606487 -0.795094
0.000000 -0.606487 -0.795094
0.000000 -0.609943 -0.792445
0.000000 -0.531774 -0.846886
0.000000 -0.609943 -0.792445
0.000000 -0.307068 -0.951688
0.000000 -0.531774 -0.846886
0.000000 -0.531774 -0.846886
0.000000 -0.307068 -0.951688
0.000000 -0.153534 -0.988143
0.000000 -0.307068 -0.951688
0.000000 0.000000 -1.000000
0.000000 -0.153534 -0.988143
0.000000 -0.153534 -0.988143
0.000000 0.000000 -1.000000
0.000000 0.000000 -1.000000
-0.991541 -0.122160 -0.043864
-0.991494 -0.121939 -0.045495
-0.972419 -0.111663 -0.204776
-0.972419 -0.111663 -0.204776
-0.991494 -0.121939 -0.045495
-0.947446 -0.187395 -0.259286
-0.972419 -0.111663 -0.204776
-0.947446 -0.187395 -0.259286
-0.882883 -0.227150 -0.410999
-0.882883 -0.227150 -0.410999
-0.947446 -0.187395 -0.259286
-0.834264 -0.400474 -0.378977
-0.882883 -0.227150 -0.410999
-0.834264 -0.400474 -0.378977
-0.738730 -0.457462 -0.494981
-0.738730 -0.457462 -0.494981
-0.834264 -0.400474 -0.378977
-0.700500 -0.539637 -0.467003
-0.702620 -0.378742 -0.602394
-0.738730 -0.457462 -0.494981
-0.701218 -0.435166 -0.564734
-0.701218 -0.435166 -0.564734
-0.738730 -0.457462 -0.494981
-0.700500 -0.539637 -0.467003
-0.703073 -0.109640 -0.702615
-0.702620 -0.378742 -0.602394
-0.707295 -0.217923 -0.672490
-0.707295 -0.217923 -0.672490
-0.702620 -0.378742 -0.602394
-0.701218 -0.435166 -0.564734
-0.687991 0.000000 -0.725720
-0.703073 -0.109640 -0.702615
-0.691431 -0.002089 -0.722439
-0.691431 -0.002089 -0.722439
-0.703073 -0.109640 -0.702615
-0.707295 -0.217923 -0.672490
0.993998 -0.102962 -0.036970
0.979663 -0.094402 -0.177055
0.993965 -0.102776 -0.038345
0.993965 -0.102776 -0.038345
0.979663 -0.094402 -0.177055
0.961400 -0.159910 -0.223917
0.979663 -0.094402 -0.177055
0.912520 -0.196944 -0.358498
0.961400 -0.159910 -0.223917
0.961400 -0.159910 -0.223917
0.912520 -0.196944 -0.358498
0.872422 -0.355307 -0.335615
0.912520 -0.196944 -0.358498
0.792629 -0.414705 -0.446944
0.872422 -0.355307 -0.335615
0.872422 -0.355307 -0.335615
0.792629 -0.414705 -0.446944
0.759481 -0.491886 -0.425719
0.761387 -0.345103 -0.548812
0.760124 -0.396645 -0.514669
0.792629 -0.414705 -0.446944
0.792629 -0.414705 -0.446944
0.760124 -0.396645 -0.514669
0.759481 -0.491886 -0.425719
0.761782 -0.099734 -0.640111
0.765586 -0.198231 -0.612031
0.761387 -0.345103 -0.548812
0.761387 -0.345103 -0.548812
0.765586 -0.198231 -0.612031
0.760124 -0.396645 -0.514669
0.748156 0.000000 -0.663523
0.751278 -0.001907 -0.659983
0.761782 -0.099734 -0.640111
0.761782 -0.099734 -0.640111
0.751278 -0.001907 -0.659983
0.765586 -0.198231 -0.612031
0.000000 -0.932545 -0.361053
0.000000 -0.932545 -0.361053
0.000000 -0.911414 -0.411490
0.000000 -0.911414 -0.411490
0.000000 -0.932545 -0.361053
0.000000 -0.887482 -0.460842
0.000000 -0.911414 -0.411490
0.000000 -0.887482 -0.460842
0.000000 -0.848505 -0.529188
0.000000 -0.848505 -0.529188
0.000000 -0.887482 -0.460842
0.000000 -0.835549 -0.549415
0.000000 -0.848505 -0.529188
0.000000 -0.835549 -0.549415
0.000000 -0.779357 -0.626580
0.000000 -0.779357 -0.626580
0.000000 -0.835549 -0.549415
0.000000 -0.732363 -0.680915
0.000000 -0.779357 -0.626580
0.000000 -0.732363 -0.680915
0.000000 -0.610045 -0.792367
0.000000 -0.610045 -0.792367
0.000000 -0.732363 -0.680915
0.000000 -0.532106 -0.846678
0.000000 -0.610045 -0.792367
0.000000 -0.532106 -0.846678
0.000000 -0.309280 -0.950971
0.000000 -0.309280 -0.950971
0.000000 -0.532106 -0.846678
0.000000 -0.157612 -0.987501
0.000000 -0.309280 -0.950971
0.000000 -0.157612 -0.987501
0.000000 -0.005804 -0.999983
0.000000 -0.005804 -0.999983
0.000000 -0.157612 -0.987501
0.000000 -0.005804 -0.999983
0.000000 0.000000 -1.000000
0.000000 0.000000 -1.000000
0.000000 0.000000 -1.000000
0.000000 0.000000 -1.000000
0.000000 0.000000 -1.000000
0.000000 0.000000 -1.000000
0.000000 0.945054 -0.326915
0.000000 0.945054 -0.326915
0.000000 0.945054 -0.326915
0.000000 0.945054 -0.326915
0.000000 0.945054 -0.326915
0.000000 0.945054 -0.326915
0.000000 0.945054 -0.326915
0.000000 0.945054 -0.326915
0.000000 0.945054 -0.326915
0.000000 0.945054 -0.326915
0.000000 0.945054 -0.326915
0.000000 0.945054 -0.326915
0.000000 0.000000 -1.000000
0.000000 0.000000 -1.000000
0.000000 0.000000 -1.000000
0.000000 0.000000 -1.000000
0.000000 0.000000 -1.000000
0.000000 0.000000 -1.000000
0.000000 0.945054 -0.326915
0.000000 0.945054 -0.326915
0.000000 0.945054 -0.326915
0.000000 0.945054 -0.326915
0.000000 0.945054 -0.326915
0.000000 0.945054 -0.326915
0.000000 0.000000 -1.000000
0.000000 0.000000 -1.000000
0.000000 0.000000 -1.000000
0.000000 0.000000 -1.000000
0.000000 0.000000 -1.000000
0.000000 0.000000 -1.000000
0.000000 0.000000 -1.000000
0.000000 0.000000 -1.000000
0.000000 0.000000 -1.000000
0.000000 0.000000 -1.000000
0.000000 0.000000 -1.000000
0.000000 0.000000 -1.000000
0.000000 0.945054 -0.326915
0.000000 0.945054 -0.326915
0.000000 0.945054 -0.326915
0.000000 0.945054 -0.326915
0.000000 0.945054 -0.326915
0.000000 0.945054 -0.326915
0.000000 0.945054 -0.326915
0.000000 0.945054 -0.326915
0.000000 0.945054 -0.326915
0.000000 0.945054 -0.326915
0.000000 0.945054 -0.326915
0.000000 0.945054 -0.326915
0.000000 0.000000 -1.000000
0.000000 0.000000 -1.000000
0.000000 0.000000 -1.000000
0.000000 0.000000 -1.000000
0.000000 0.000000 -1.000000
0.000000 0.000000 -1.000000
0.000000 0.000000 -1.000000
0.000000 0.000000 -1.000000
0.000000 0.000000 -1.000000
0.000000 0.000000 -1.000000
0.000000 0.000000 -1.000000
0.000000 0.000000 -1.000000
0.000000 0.945054 -0.326915
0.000000 0.945054 -0.326915
0.000000 0.945054 -0.326915
0.000000 0.945054 -0.326915
0.000000 0.945054 -0.326915
0.000000 0.945054 -0.326915
0.000000 0.945054 -0.326915
0.000000 0.945054 -0.326915
0.000000 0.945054 -0.326915
0.000000 0.945054 -0.326915
0.000000 0.945054 -0.326915
0.000000 0.945054 -0.326915
0.000000 0.000000 -1.000000
0.000000 0.000000 -1.000000
0.000000 0.000000 -1.000000
0.000000 0.000000 -1.000000
0.000000 0.000000 -1.000000
0.000000 0.000000 -1.000000
0.000000 0.000000 -1.000000
0.000000 0.000000 -1.000000
0.000000 0.000000 -1.000000
0.000000 0.000000 -1.000000
0.000000 0.000000 -1.000000
0.000000 0.000000 -1.000000
0.000000 0.945054 -0.326915
0.000000 0.945054 -0.326915
0.000000 0.945054 -0.326915
0.000000 0.945054 -0.326915
0.000000 0.945054 -0.326915
0.000000 0.945054 -0.326915
0.000000 -0.307082 -0.951683
0.000000 0.000000 -1.000000
0.000000 -0.153541 -0.988142
0.000000 -0.153541 -0.988142
0.000000 0.000000 -1.000000
0.000000 0.000000 -1.000000
-0.000000 -0.609945 -0.792444
0.000000 -0.307082 -0.951683
0.000000 -0.531784 -0.846880
0.000000 -0.531784 -0.846880
0.000000 -0.307082 -0.951683
0.000000 -0.153541 -0.988142
0.000000 -0.941162 -0.337956
0.000000 -0.917316 -0.398159
0.000000 -0.941162 -0.337956
0.000000 -0.941162 -0.337956
0.000000 -0.917316 -0.398159
0.000000 -0.895366 -0.445331
0.000000 -0.850264 -0.526357
-0.000000 -0.788251 -0.615354
-0.000000 -0.844575 -0.535437
-0.000000 -0.844575 -0.535437
-0.000000 -0.788251 -0.615354
-0.000000 -0.737220 -0.675653
-0.000000 -0.788251 -0.615354
-0.000000 -0.609945 -0.792444
-0.000000 -0.737220 -0.675653
-0.000000 -0.737220 -0.675653
-0.000000 -0.609945 -0.792444
0.000000 -0.531784 -0.846880
-0.000000 -0.844575 -0.535437
0.000000 -0.895366 -0.445331
0.000000 -0.850264 -0.526357
0.000000 -0.850264 -0.526357
0.000000 -0.895366 -0.445331
0.000000 -0.917316 -0.398159
0.000000 -0.895366 -0.445331
0.000000 -0.903886 -0.427774
0.000000 -0.941162 -0.337956
0.000000 -0.941162 -0.337956
0.000000 -0.903886 -0.427774
0.000000 -0.941162 -0.337956
0.000000 -0.846292 -0.532719
0.000000 -0.903886 -0.427774
-0.000000 -0.844575 -0.535437
-0.000000 -0.844575 -0.535437
0.000000 -0.903886 -0.427774
0.000000 -0.895366 -0.445331
-0.000000 -0.737220 -0.675653
0.000000 -0.788251 -0.615354
-0.000000 -0.844575 -0.535437
-0.000000 -0.844575 -0.535437
0.000000 -0.788251 -0.615354
0.000000 -0.846292 -0.532719
0.000000 -0.531784 -0.846880
0.000000 -0.609945 -0.792444
-0.000000 -0.737220 -0.675653
-0.000000 -0.737220 -0.675653
0.000000 -0.609945 -0.792444
0.000000 -0.788251 -0.615354
0.000000 -0.153541 -0.988142
0.000000 -0.307082 -0.951683
0.000000 -0.531784 -0.846880
0.000000 -0.531784 -0.846880
0.000000 -0.307082 -0.951683
0.000000 -0.609945 -0.792444
0.000000 0.000000 -1.000000
0.000000 0.000000 -1.000000
0.000000 -0.153541 -0.988142
0.000000 -0.153541 -0.988142
0.000000 0.000000 -1.000000
0.000000 -0.307082 -0.951683
0.000000 0.000000 -1.000000
0.000000 0.000000 -1.000000
0.000000 0.000000 -1.000000
0.000000 0.000000 -1.000000
0.000000 0.000000 -1.000000
0.000000 0.000000 -1.000000
0.000000 0.000000 -1.000000
0.000000 0.000000 -1.000000
0.000000 0.000000 -1.000000
0.000000 0.000000 -1.000000
0.000000 0.000000 -1.000000
0.000000 0.000000 -1.000000
0.000000 0.000000 -1.000000
0.000000 0.000000 -1.000000
0.000000 0.000000 -1.000000
0.000000 0.000000 -1.000000
0.000000 0.000000 -1.000000
0.000000 0.000000 -1.000000
0.000000 1.000000 0.000000
0.000000 1.000000 0.000000
0.000000 1.000000 0.000000
0.000000 1.000000 0.000000
0.000000 1.000000 0.000000
0.000000 1.000000 0.000000
0.000000 1.000000 0.000000
0.000000 1.000000 0.000000
0.000000 1.000000 0.000000
0.000000 1.000000 0.000000
0.000000 1.000000 0.000000
0.000000 1.000000 0.000000
0.000000 1.000000 0.000000
0.000000 1.000000 0.000000
0.000000 1.000000 0.000000
0.000000 1.000000 0.000000
0.000000 1.000000 0.000000
0.000000 1.000000 0.000000
0.000000 1.000000 0.000000
0.000000 1.000000 0.000000
0.000000 1.000000 0.000000
0.000000 1.000000 0.000000
0.000000 1.000000 0.000000
0.000000 1.000000 0.000000
0.000000 1.000000 0.000000
0.000000 1.000000 0.000000
0.000000 1.000000 0.000000
0.000000 1.000000 0.000000
0.000000 1.000000 0.000000
0.000000 1.000000 0.000000
0.000000 1.000000 0.000000
0.000000 1.000000 0.000000
0.000000 1.000000 0.000000
0.000000 1.000000 0.000000
0.000000 1.000000 0.000000
0.000000 1.000000 0.000000
0.000000 1.000000 0.000000
0.000000 1.000000 0.000000
0.000000 1.000000 0.000000
0.000000 1.000000 0.000000
0.000000 1.000000 0.000000
0.000000 1.000000 0.000000
0.000000 1.000000 0.000000
0.000000 1.000000 0.000000
0.000000 1.000000 0.000000
0.000000 1.000000 0.000000
0.000000 1.000000 0.000000
0.000000 1.000000 0.000000
0.000000 1.000000 0.000000
0.000000 1.000000 0.000000
0.000000 1.000000 0.000000
0.000000 1.000000 0.000000
0.000000 1.000000 0.000000
0.000000 1.000000 0.000000
0.000000 1.000000 0.000000
0.000000 1.000000 0.000000
0.000000 1.000000 0.000000
0.000000 1.000000 0.000000
0.000000 1.000000 0.000000
0.000000 1.000000 0.000000
0.000000 1.000000 0.000000
0.000000 1.000000 0.000000
0.000000 1.000000 0.000000
0.000000 1.000000 0.000000
0.000000 1.000000 0.000000
0.000000 1.000000 0.000000
0.000000 1.000000 0.000000
0.000000 1.000000 0.000000
0.000000 1.000000 0.000000
0.000000 1.000000 0.000000
0.000000 1.000000 0.000000
0.000000 1.000000 0.000000
0.000000 1.000000 0.000000
0.000000 1.000000 0.000000
0.000000 1.000000 0.000000
0.000000 1.000000 0.000000
0.000000 1.000000 0.000000
0.000000 1.000000 0.000000
0.000000 1.000000 0.000000
0.000000 1.000000 0.000000
0.000000 1.000000 0.000000
0.000000 1.000000 0.000000
0.000000 1.000000 0.000000
0.000000 1.000000 0.000000
0.000000 1.000000 0.000000
0.000000 1.000000 0.000000
0.000000 1.000000 0.000000
0.000000 1.000000 0.000000
0.000000 1.000000 0.000000
0.000000 1.000000 0.000000
0.000000 1.000000 0.000000
0.000000 1.000000 0.000000
0.000000 1.000000 0.000000
0.000000 1.000000 0.000000
0.000000 1.000000 0.000000
0.000000 1.000000 0.000000
0.000000 1.000000 0.000000
0.000000 1.000000 0.000000
0.000000 1.000000 0.000000
0.000000 1.000000 0.000000
0.000000 1.000000 0.000000
0.000000 1.000000 0.000000
0.000000 1.000000 0.000000
0.000000 1.000000 0.000000
0.000000 1.000000 0.000000
0.000000 1.000000 0.000000
0.000000 1.000000 0.000000
0.000000 1.000000 0.000000
0.000000 1.000000 0.000000
0.000000 1.000000 0.000000
0.000000 1.000000 0.000000
0.000000 1.000000 0.000000
0.000000 1.000000 0.000000
0.000000 1.000000 0.000000
0.000000 1.000000 0.000000
0.000000 1.000000 0.000000
0.000000 1.000000 0.000000
0.000000 1.000000 0.000000
0.000000 1.000000 0.000000
0.000000 1.000000 0.000000
0.000000 1.000000 0.000000
0.000000 1.000000 0.000000
0.000000 1.000000 0.000000
0.000000 1.000000 0.000000
0.000000 1.000000 0.000000
0.000000 1.000000 0.000000
0.000000 1.000000 0.000000
0.000000 1.000000 0.000000
0.000000 1.000000 0.000000
0.000000 1.000000 0.000000
0.000000 1.000000 0.000000
0.000000 1.000000 0.000000
0.000000 1.000000 0.000000
0.000000 1.000000 0.000000
0.000000 1.000000 0.000000
0.000000 1.000000 0.000000
0.000000 1.000000 0.000000
0.000000 1.000000 0.000000
0.000000 1.000000 0.000000
0.000000 1.000000 0.000000
0.000000 1.000000 0.000000
0.000000 1.000000 0.000000
0.000000 1.000000 0.000000
0.000000 1.000000 0.000000
0.000000 1.000000 0.000000
0.000000 1.000000 0.000000
0.000000 1.000000 0.000000
0.000000 1.000000 0.000000
0.000000 1.000000 0.000000
0.000000 1.000000 0.000000
0.000000 1.000000 0.000000
0.000000 1.000000 0.000000
0.000000 1.000000 0.000000
0.000000 1.000000 0.000000
0.000000 1.000000 0.000000
0.000000 1.000000 0.000000
0.000000 1.000000 0.000000
0.000000 1.000000 0.000000
0.000000 1.000000 0.000000
0.000000 1.000000 0.000000
0.000000 1.000000 0.000000
0.000000 1.000000 0.000000
0.000000 1.000000 0.000000
0.000000 1.000000 0.000000
0.000000 1.000000 0.000000
0.000000 1.000000 0.000000
0.000000 1.000000 0.000000
0.000000 1.000000 0.000000
0.000000 1.000000 0.000000
0.000000 1.000000 0.000000
0.000000 1.000000 0.000000
0.000000 1.000000 0.000000
0.000000 1.000000 0.000000
0.000000 1.000000 0.000000
0.000000 1.000000 0.000000
0.000000 1.000000 0.000000
0.000000 1.000000 0.000000
0.000000 1.000000 0.000000
0.000000 1.000000 0.000000
0.000000 1.000000 0.000000
0.000000 1.000000 0.000000
0.000000 1.000000 0.000000
0.000000 1.000000 0.000000
0.000000 1.000000 0.000000
0.000000 1.000000 0.000000
0.000000 1.000000 0.000000
0.000000 1.000000 0.000000
0.000000 1.000000 0.000000
0.000000 1.000000 0.000000
0.000000 1.000000 0.000000
0.000000 1.000000 0.000000
0.000000 1.000000 0.000000
0.000000 1.000000 0.000000
0.000000 1.000000 0.000000
0.000000 1.000000 0.000000
0.000000 1.000000 0.000000
0.000000 1.000000 0.000000
0.000000 1.000000 0.000000
0.000000 1.000000 0.000000
0.000000 1.000000 0.000000
0.000000 1.000000 0.000000
0.000000 1.000000 0.000000
0.000000 1.000000 0.000000
0.000000 1.000000 0.000000
</float_array>
          <technique_common>
            <accessor source="#lab_flat-Normal0-array" count="1542" stride="3">
              <param name="X" type="float"/>
              <param name="Y" type="float"/>
              <param name="Z" type="float"/>
            </accessor>
          </technique_common>
        </source>
        <source id="lab_flat-UV0">
          <float_array id="lab_flat-UV0-array" count="1912">
0.535484 0.902996
0.505062 0.902996
0.535484 0.909170
0.505062 0.909170
0.505062 0.895558
0.535483 0.895558
0.535483 0.887106
0.505062 0.887106
0.535483 0.876620
0.505062 0.876621
0.535484 0.868481
0.505062 0.868481
0.535484 0.847094
0.505062 0.847094
0.497687 0.903201
0.500205 0.903908
0.497687 0.899118
0.500205 0.899764
0.497687 0.892668
0.500205 0.893182
0.497687 0.884992
0.500205 0.885315
0.497687 0.876470
0.500205 0.876454
0.497687 0.870124
0.500205 0.869667
0.497687 0.852263
0.500205 0.851638
0.565905 0.909170
0.570762 0.903909
0.565905 0.902996
0.570762 0.899764
0.565905 0.895558
0.570762 0.893182
0.565904 0.887106
0.570762 0.885315
0.565905 0.876620
0.570762 0.876454
0.565905 0.868481
0.570762 0.869667
0.565905 0.847094
0.570762 0.851638
0.583290 0.907761
0.583290 0.901748
0.728126 0.907759
0.728126 0.901745
0.728126 0.894616
0.583290 0.894623
0.583290 0.886372
0.728126 0.886365
0.583290 0.876164
0.728126 0.876160
0.583290 0.868185
0.728126 0.868182
0.583290 0.846668
0.728126 0.846668
0.735922 0.905510
0.732624 0.905647
0.735922 0.901023
0.732624 0.901052
0.735922 0.893940
0.732624 0.894057
0.735922 0.885493
0.732624 0.885550
0.735922 0.876084
0.732625 0.876078
0.735922 0.869089
0.732625 0.868808
0.735922 0.849521
0.732624 0.849521
0.578769 0.905651
0.578821 0.901054
0.578841 0.894044
0.578857 0.885583
0.578882 0.876065
0.578878 0.868813
0.578703 0.849521
0.523836 0.915533
0.522880 0.919637
0.502083 0.915433
0.503028 0.919568
0.501842 0.949411
0.523986 0.949533
0.523832 0.962881
0.501964 0.962771
0.523527 0.971194
0.502251 0.971105
0.523451 0.977554
0.502311 0.977466
0.523688 0.994810
0.502044 0.994714
0.575479 0.905513
0.575515 0.901019
0.575555 0.893951
0.575582 0.885472
0.575626 0.876078
0.575571 0.869099
0.575379 0.849521
0.530722 0.953371
0.529365 0.955597
0.528131 0.959737
0.527128 0.965218
0.526827 0.972035
0.526765 0.977522
0.527102 0.992485
0.495095 0.953181
0.496444 0.955420
0.497670 0.959577
0.498664 0.965077
0.498949 0.971904
0.499000 0.977402
0.498633 0.992370
0.522880 0.919637
0.502083 0.915433
0.523986 0.949533
0.523832 0.962881
0.523527 0.971194
0.502251 0.971105
0.523451 0.977554
0.502311 0.977466
0.502044 0.994714
0.526827 0.972035
0.526765 0.977522
0.527102 0.992485
0.495095 0.953181
0.498949 0.971904
0.499000 0.977402
0.573280 0.903201
0.573280 0.899118
0.573280 0.892668
0.573280 0.884992
0.573280 0.876470
0.573280 0.870124
0.573280 0.852263
0.535483 0.868481
0.535483 0.847094
0.535483 0.909170
0.535483 0.902996
0.535483 0.887106
0.498601 0.098697
0.439191 0.098697
0.498601 0.000184
0.439191 0.000184
0.498601 0.112894
0.439191 0.112784
0.498601 0.098585
0.439191 0.098585
0.439191 0.113028
0.379781 0.112918
0.379781 0.098697
0.439191 0.000184
0.439191 0.098585
0.379781 0.000184
0.379781 0.098585
0.735906 0.098697
0.676496 0.098697
0.735906 0.000184
0.676496 0.000184
0.735906 0.112894
0.676496 0.112784
0.735906 0.098585
0.676496 0.098585
0.676496 0.113028
0.617086 0.112918
0.617086 0.098697
0.676496 0.098585
0.617086 0.000184
0.617086 0.098585
0.498761 0.112587
0.721549 0.112587
0.736402 0.112587
0.515567 0.112587
0.523836 0.915533
0.503028 0.919568
0.501842 0.949411
0.503028 0.919568
0.503028 0.919568
0.501842 0.949411
0.501842 0.949411
0.501964 0.962771
0.501964 0.962771
0.501964 0.962771
0.523688 0.994810
0.523688 0.994810
0.523836 0.915533
0.530722 0.953371
0.530722 0.953371
0.529365 0.955597
0.529365 0.955597
0.529365 0.955597
0.528131 0.959737
0.528131 0.959737
0.528131 0.959737
0.527128 0.965218
0.527128 0.965218
0.523688 0.994810
0.503028 0.919568
0.503028 0.919568
0.496444 0.955420
0.503028 0.919568
0.501842 0.949411
0.496444 0.955420
0.496444 0.955420
0.501842 0.949411
0.497670 0.959577
0.501842 0.949411
0.501964 0.962771
0.497670 0.959577
0.497670 0.959577
0.501964 0.962771
0.498664 0.965077
0.501964 0.962771
0.501964 0.962771
0.498664 0.965077
0.498633 0.992370
0.498633 0.992370
0.565905 0.868481
0.565905 0.847094
0.565905 0.847094
0.565905 0.876620
0.565905 0.868481
0.535483 0.876620
0.535483 0.876620
0.565905 0.868481
0.565905 0.909170
0.565905 0.902996
0.565905 0.902996
0.565905 0.895558
0.565904 0.887106
0.535483 0.895558
0.535483 0.895558
0.565904 0.887106
0.565904 0.887106
0.565905 0.876620
0.565905 0.876620
0.535483 0.876620
0.535483 0.895558
0.565905 0.895558
0.565905 0.895558
0.565905 0.902996
0.497687 0.903201
0.500205 0.903908
0.497687 0.899118
0.497687 0.899118
0.500205 0.903908
0.500205 0.899764
0.497687 0.899118
0.500205 0.899764
0.497687 0.892668
0.497687 0.892668
0.500205 0.899764
0.500205 0.893182
0.497687 0.892668
0.500205 0.893182
0.497687 0.884992
0.497687 0.884992
0.500205 0.893182
0.500205 0.885315
0.497687 0.884992
0.500205 0.885315
0.497687 0.876470
0.497687 0.876470
0.500205 0.885315
0.500205 0.876454
0.497687 0.876470
0.500205 0.876454
0.497687 0.870124
0.497687 0.870124
0.500205 0.876454
0.500205 0.869667
0.497687 0.870124
0.500205 0.869667
0.497687 0.852263
0.497687 0.852263
0.500205 0.869667
0.500205 0.851638
0.565905 0.909170
0.570762 0.903909
0.565905 0.902996
0.565905 0.902996
0.570762 0.903909
0.570762 0.899764
0.565905 0.902996
0.570762 0.899764
0.565905 0.895558
0.565905 0.895558
0.570762 0.899764
0.570762 0.893182
0.565905 0.895558
0.570762 0.893182
0.565904 0.887106
0.565904 0.887106
0.570762 0.893182
0.570762 0.885315
0.565905 0.876620
0.565904 0.887106
0.570762 0.876454
0.570762 0.876454
0.565904 0.887106
0.570762 0.885315
0.565905 0.868481
0.565905 0.876620
0.570762 0.869667
0.570762 0.869667
0.565905 0.876620
0.570762 0.876454
0.565905 0.868481
0.570762 0.869667
0.565905 0.847094
0.565905 0.847094
0.570762 0.869667
0.570762 0.851638
0.505062 0.909170
0.505062 0.902996
0.500205 0.903908
0.500205 0.903908
0.505062 0.902996
0.500205 0.899764
0.505062 0.902996
0.505062 0.895558
0.500205 0.899764
0.500205 0.899764
0.505062 0.895558
0.500205 0.893182
0.505062 0.895558
0.505062 0.887106
0.500205 0.893182
0.500205 0.893182
0.505062 0.887106
0.500205 0.885315
0.505062 0.876621
0.500205 0.876454
0.505062 0.887106
0.505062 0.887106
0.500205 0.876454
0.500205 0.885315
0.505062 0.868481
0.500205 0.869667
0.505062 0.876621
0.505062 0.876621
0.500205 0.869667
0.500205 0.876454
0.505062 0.868481
0.505062 0.847094
0.500205 0.869667
0.500205 0.869667
0.505062 0.847094
0.500205 0.851638
0.583290 0.907761
0.583290 0.901748
0.728126 0.907759
0.728126 0.907759
0.583290 0.901748
0.728126 0.901745
0.728126 0.894616
0.728126 0.901745
0.583290 0.894623
0.583290 0.894623
0.728126 0.901745
0.583290 0.901748
0.583290 0.894623
0.583290 0.886372
0.728126 0.894616
0.728126 0.894616
0.583290 0.886372
0.728126 0.886365
0.583290 0.886372
0.583290 0.876164
0.728126 0.886365
0.728126 0.886365
0.583290 0.876164
0.728126 0.876160
0.583290 0.876164
0.583290 0.868185
0.728126 0.876160
0.728126 0.876160
0.583290 0.868185
0.728126 0.868182
0.583290 0.868185
0.583290 0.846668
0.728126 0.868182
0.728126 0.868182
0.583290 0.846668
0.728126 0.846668
0.735922 0.905510
0.732624 0.905647
0.735922 0.901023
0.735922 0.901023
0.732624 0.905647
0.732624 0.901052
0.735922 0.901023
0.732624 0.901052
0.735922 0.893940
0.735922 0.893940
0.732624 0.901052
0.732624 0.894057
0.735922 0.893940
0.732624 0.894057
0.735922 0.885493
0.735922 0.885493
0.732624 0.894057
0.732624 0.885550
0.735922 0.885493
0.732624 0.885550
0.735922 0.876084
0.735922 0.876084
0.732624 0.885550
0.732625 0.876078
0.735922 0.876084
0.732625 0.876078
0.735922 0.869089
0.735922 0.869089
0.732625 0.876078
0.732625 0.868808
0.735922 0.869089
0.732625 0.868808
0.735922 0.849521
0.735922 0.849521
0.732625 0.868808
0.732624 0.849521
0.583290 0.907761
0.578769 0.905651
0.583290 0.901748
0.583290 0.901748
0.578769 0.905651
0.578821 0.901054
0.583290 0.901748
0.578821 0.901054
0.583290 0.894623
0.583290 0.894623
0.578821 0.901054
0.578841 0.894044
0.583290 0.886372
0.583290 0.894623
0.578857 0.885583
0.578857 0.885583
0.583290 0.894623
0.578841 0.894044
0.583290 0.876164
0.583290 0.886372
0.578882 0.876065
0.578882 0.876065
0.583290 0.886372
0.578857 0.885583
0.583290 0.868185
0.583290 0.876164
0.578878 0.868813
0.578878 0.868813
0.583290 0.876164
0.578882 0.876065
0.583290 0.846668
0.583290 0.868185
0.578703 0.849521
0.578703 0.849521
0.583290 0.868185
0.578878 0.868813
0.728126 0.907759
0.728126 0.901745
0.732624 0.905647
0.732624 0.905647
0.728126 0.901745
0.732624 0.901052
0.728126 0.901745
0.728126 0.894616
0.732624 0.901052
0.732624 0.901052
0.728126 0.894616
0.732624 0.894057
0.728126 0.886365
0.732624 0.885550
0.728126 0.894616
0.728126 0.894616
0.732624 0.885550
0.732624 0.894057
0.728126 0.876160
0.732625 0.876078
0.728126 0.886365
0.728126 0.886365
0.732625 0.876078
0.732624 0.885550
0.728126 0.868182
0.732625 0.868808
0.728126 0.876160
0.728126 0.876160
0.732625 0.868808
0.732625 0.876078
0.728126 0.846668
0.732624 0.849521
0.728126 0.868182
0.728126 0.868182
0.732624 0.849521
0.732625 0.868808
0.523836 0.915533
0.522880 0.919637
0.502083 0.915433
0.502083 0.915433
0.522880 0.919637
0.503028 0.919568
0.501842 0.949411
0.503028 0.919568
0.523986 0.949533
0.523986 0.949533
0.503028 0.919568
0.522880 0.919637
0.523986 0.949533
0.523832 0.962881
0.501842 0.949411
0.501842 0.949411
0.523832 0.962881
0.501964 0.962771
0.523832 0.962881
0.523527 0.971194
0.501964 0.962771
0.501964 0.962771
0.523527 0.971194
0.502251 0.971105
0.523527 0.971194
0.523451 0.977554
0.502251 0.971105
0.502251 0.971105
0.523451 0.977554
0.502311 0.977466
0.523451 0.977554
0.523688 0.994810
0.502311 0.977466
0.502311 0.977466
0.523688 0.994810
0.502044 0.994714
0.578769 0.905651
0.575479 0.905513
0.578821 0.901054
0.578821 0.901054
0.575479 0.905513
0.575515 0.901019
0.578821 0.901054
0.575515 0.901019
0.578841 0.894044
0.578841 0.894044
0.575515 0.901019
0.575555 0.893951
0.578841 0.894044
0.575555 0.893951
0.578857 0.885583
0.578857 0.885583
0.575555 0.893951
0.575582 0.885472
0.578857 0.885583
0.575582 0.885472
0.578882 0.876065
0.578882 0.876065
0.575582 0.885472
0.575626 0.876078
0.578882 0.876065
0.575626 0.876078
0.578878 0.868813
0.578878 0.868813
0.575626 0.876078
0.575571 0.869099
0.578878 0.868813
0.575571 0.869099
0.578703 0.849521
0.578703 0.849521
0.575571 0.869099
0.575379 0.849521
0.523836 0.915533
0.530722 0.953371
0.522880 0.919637
0.522880 0.919637
0.530722 0.953371
0.529365 0.955597
0.522880 0.919637
0.529365 0.955597
0.523986 0.949533
0.523986 0.949533
0.529365 0.955597
0.528131 0.959737
0.523986 0.949533
0.528131 0.959737
0.523832 0.962881
0.523832 0.962881
0.528131 0.959737
0.527128 0.965218
0.523527 0.971194
0.523832 0.962881
0.526827 0.972035
0.526827 0.972035
0.523832 0.962881
0.527128 0.965218
0.523451 0.977554
0.523527 0.971194
0.526765 0.977522
0.526765 0.977522
0.523527 0.971194
0.526827 0.972035
0.523688 0.994810
0.523451 0.977554
0.527102 0.992485
0.527102 0.992485
0.523451 0.977554
0.526765 0.977522
0.502083 0.915433
0.503028 0.919568
0.495095 0.953181
0.495095 0.953181
0.503028 0.919568
0.496444 0.955420
0.503028 0.919568
0.501842 0.949411
0.496444 0.955420
0.496444 0.955420
0.501842 0.949411
0.497670 0.959577
0.501842 0.949411
0.501964 0.962771
0.497670 0.959577
0.497670 0.959577
0.501964 0.962771
0.498664 0.965077
0.502251 0.971105
0.498949 0.971904
0.501964 0.962771
0.501964 0.962771
0.498949 0.971904
0.498664 0.965077
0.502311 0.977466
0.499000 0.977402
0.502251 0.971105
0.502251 0.971105
0.499000 0.977402
0.498949 0.971904
0.502044 0.994714
0.498633 0.992370
0.502311 0.977466
0.502311 0.977466
0.498633 0.992370
0.499000 0.977402
0.523836 0.915533
0.522880 0.919637
0.502083 0.915433
0.502083 0.915433
0.522880 0.919637
0.503028 0.919568
0.501842 0.949411
0.503028 0.919568
0.523986 0.949533
0.523986 0.949533
0.503028 0.919568
0.522880 0.919637
0.523986 0.949533
0.523832 0.962881
0.501842 0.949411
0.501842 0.949411
0.523832 0.962881
0.501964 0.962771
0.523832 0.962881
0.523527 0.971194
0.501964 0.962771
0.501964 0.962771
0.523527 0.971194
0.502251 0.971105
0.523527 0.971194
0.523451 0.977554
0.502251 0.971105
0.502251 0.971105
0.523451 0.977554
0.502311 0.977466
0.523451 0.977554
0.523688 0.994810
0.502311 0.977466
0.502311 0.977466
0.523688 0.994810
0.502044 0.994714
0.523836 0.915533
0.530722 0.953371
0.522880 0.919637
0.522880 0.919637
0.530722 0.953371
0.529365 0.955597
0.522880 0.919637
0.529365 0.955597
0.523986 0.949533
0.523986 0.949533
0.529365 0.955597
0.528131 0.959737
0.523986 0.949533
0.528131 0.959737
0.523832 0.962881
0.523832 0.962881
0.528131 0.959737
0.527128 0.965218
0.523527 0.971194
0.523832 0.962881
0.526827 0.972035
0.526827 0.972035
0.523832 0.962881
0.527128 0.965218
0.523451 0.977554
0.523527 0.971194
0.526765 0.977522
0.526765 0.977522
0.523527 0.971194
0.526827 0.972035
0.523688 0.994810
0.523451 0.977554
0.527102 0.992485
0.527102 0.992485
0.523451 0.977554
0.526765 0.977522
0.502083 0.915433
0.503028 0.919568
0.495095 0.953181
0.495095 0.953181
0.503028 0.919568
0.496444 0.955420
0.503028 0.919568
0.501842 0.949411
0.496444 0.955420
0.496444 0.955420
0.501842 0.949411
0.497670 0.959577
0.501842 0.949411
0.501964 0.962771
0.497670 0.959577
0.497670 0.959577
0.501964 0.962771
0.498664 0.965077
0.502251 0.971105
0.498949 0.971904
0.501964 0.962771
0.501964 0.962771
0.498949 0.971904
0.498664 0.965077
0.502311 0.977466
0.499000 0.977402
0.502251 0.971105
0.502251 0.971105
0.499000 0.977402
0.498949 0.971904
0.502044 0.994714
0.498633 0.992370
0.502311 0.977466
0.502311 0.977466
0.498633 0.992370
0.499000 0.977402
0.570762 0.903909
0.573280 0.903201
0.570762 0.899764
0.570762 0.899764
0.573280 0.903201
0.573280 0.899118
0.570762 0.899764
0.573280 0.899118
0.570762 0.893182
0.570762 0.893182
0.573280 0.899118
0.573280 0.892668
0.570762 0.893182
0.573280 0.892668
0.570762 0.885315
0.570762 0.885315
0.573280 0.892668
0.573280 0.884992
0.570762 0.885315
0.573280 0.884992
0.570762 0.876454
0.570762 0.876454
0.573280 0.884992
0.573280 0.876470
0.570762 0.876454
0.573280 0.876470
0.570762 0.869667
0.570762 0.869667
0.573280 0.876470
0.573280 0.870124
0.570762 0.869667
0.573280 0.870124
0.570762 0.851638
0.570762 0.851638
0.573280 0.870124
0.573280 0.852263
0.439191 0.098697
0.439191 0.098697
0.439191 0.113028
0.379781 0.112918
0.379781 0.112918
0.379781 0.098697
0.439191 0.098585
0.379781 0.000184
0.379781 0.000184
0.439191 0.098585
0.379781 0.098585
0.498601 0.098697
0.439191 0.098697
0.498601 0.000184
0.498601 0.000184
0.439191 0.098697
0.439191 0.000184
0.498601 0.112894
0.439191 0.112784
0.498601 0.098585
0.498601 0.098585
0.439191 0.112784
0.439191 0.098585
0.439191 0.113028
0.379781 0.112918
0.439191 0.098697
0.439191 0.098697
0.379781 0.112918
0.379781 0.098697
0.439191 0.000184
0.439191 0.098585
0.379781 0.000184
0.379781 0.000184
0.439191 0.098585
0.379781 0.098585
0.498601 0.098697
0.439191 0.098697
0.498601 0.000184
0.498601 0.000184
0.439191 0.098697
0.498601 0.112894
0.439191 0.112784
0.498601 0.098585
0.498601 0.098585
0.439191 0.112784
0.439191 0.098585
0.535483 0.868481
0.535483 0.868481
0.535483 0.847094
0.535483 0.876620
0.535483 0.876620
0.535483 0.868481
0.535483 0.909170
0.535483 0.909170
0.535483 0.902996
0.535483 0.895558
0.535483 0.895558
0.535483 0.887106
0.535483 0.887106
0.535483 0.887106
0.535483 0.876620
0.535483 0.895558
0.535483 0.902996
0.535483 0.902996
0.535483 0.902996
0.505062 0.902996
0.535484 0.909170
0.535484 0.909170
0.505062 0.902996
0.505062 0.909170
0.505062 0.895558
0.505062 0.902996
0.535483 0.895558
0.535483 0.895558
0.505062 0.902996
0.535483 0.902996
0.535483 0.887106
0.505062 0.887106
0.535483 0.895558
0.535483 0.895558
0.505062 0.887106
0.505062 0.895558
0.535483 0.876620
0.505062 0.876621
0.535483 0.887106
0.535483 0.887106
0.505062 0.876621
0.505062 0.887106
0.535484 0.868481
0.505062 0.868481
0.535483 0.876620
0.535483 0.876620
0.505062 0.868481
0.505062 0.876621
0.535483 0.847094
0.505062 0.847094
0.535484 0.868481
0.535484 0.868481
0.505062 0.847094
0.505062 0.868481
0.498761 0.293620
0.686115 0.227758
0.721549 0.227758
0.515567 0.227758
0.701279 0.227758
0.736402 0.227758
0.984053 0.976053
0.999922 0.976053
0.999923 0.999899
0.984053 0.999899
0.982766 0.976053
0.982766 0.999899
0.981617 0.976053
0.981617 0.999899
0.980296 0.976053
0.980296 0.999899
0.968568 0.976053
0.968568 0.999899
0.967244 0.976053
0.967244 0.999899
0.965866 0.976053
0.965866 0.999899
0.964498 0.976053
0.964498 0.999899
0.894801 0.976053
0.894801 0.999899
0.893433 0.976053
0.893433 0.999899
0.892055 0.976053
0.892055 0.999899
0.890731 0.976053
0.890731 0.999899
0.878793 0.976053
0.878793 0.999899
0.877679 0.976053
0.877679 0.999899
0.876533 0.976053
0.876533 0.999899
0.875246 0.976053
0.875246 0.999899
0.868609 0.976053
0.868609 0.999899
0.861972 0.976053
0.861972 0.999899
0.860688 0.976053
0.860688 0.999899
0.859536 0.976053
0.859536 0.999899
0.858215 0.976053
0.858215 0.999899
0.846487 0.976053
0.846487 0.999899
0.845163 0.976053
0.845163 0.999899
0.843785 0.976053
0.843785 0.999899
0.842417 0.976053
0.842417 0.999899
0.770779 0.976053
0.770779 0.999899
0.769411 0.976053
0.769411 0.999899
0.768033 0.976053
0.768033 0.999899
0.766709 0.976053
0.766709 0.999899
0.754768 0.976053
0.754768 0.999899
0.753657 0.976053
0.753657 0.999899
0.752508 0.976053
0.752508 0.999899
0.751224 0.976053
0.751224 0.999899
0.737296 0.976053
0.737296 0.999899
</float_array>
          <technique_common>
            <accessor source="#lab_flat-UV0-array" count="956" stride="2">
              <param name="S" type="float"/>
              <param name="T" type="float"/>
            </accessor>
          </technique_common>
        </source>
        <vertices id="lab_flat-VERTEX">
          <input semantic="POSITION" source="#lab_flat-POSITION"/>
        </vertices>
        <triangles count="514" material="lab_set"><input semantic="VERTEX" offset="0" source="#lab_flat-VERTEX"/><input semantic="NORMAL" offset="1" source="#lab_flat-Normal0"/><input semantic="TEXCOORD" offset="2" set="0" source="#lab_flat-UV0"/><p> 8 0 0 17 1 1 3 2 2 3 3 2 17 4 1 16 5 3 18 6 4 17 7 1 7 8 5 7 9 5 17 10 1 8 11 0 5 12 6 19 13 7 7 14 5 7 15 5 19 16 7 18 17 4 6 18 8 20 19 9 5 20 6 5 21 6 20 22 9 19 23 7 4 24 10 21 25 11 6 26 8 6 27 8 21 28 11 20 29 9 2 30 12 22 31 13 4 32 10 4 33 10 22 34 13 21 35 11 30 36 14 31 37 15 33 38 16 33 39 16 31 40 15 32 41 17 33 42 16 32 43 17 35 44 18 35 45 18 32 46 17 34 47 19 35 48 18 34 49 19 37 50 20 37 51 20 34 52 19 36 53 21 37 54 20 36 55 21 39 56 22 39 57 22 36 58 21 38 59 23 39 60 22 38 61 23 41 62 24 41 63 24 38 64 23 40 65 25 41 66 24 40 67 25 43 68 26 43 69 26 40 70 25 42 71 27 9 72 28 23 73 29 10 74 30 10 75 30 23 76 29 24 77 31 10 78 30 24 79 31 11 80 32 11 81 32 24 82 31 25 83 33 11 84 32 25 85 33 12 86 34 12 87 34 25 88 33 26 89 35 13 90 36 12 91 34 27 92 37 27 93 37 12 94 34 26 95 35 14 96 38 13 97 36 28 98 39 28 99 39 13 100 36 27 101 37 14 102 38 28 103 39 15 104 40 15 105 40 28 106 39 29 107 41 16 108 3 17 109 1 31 110 15 31 111 15 17 112 1 32 113 17 17 114 1 18 115 4 32 116 17 32 117 17 18 118 4 34 119 19 18 120 4 19 121 7 34 122 19 34 123 19 19 124 7 36 125 21 20 126 9 38 127 23 19 128 7 19 129 7 38 130 23 36 131 21 21 132 11 40 133 25 20 134 9 20 135 9 40 136 25 38 137 23 21 138 11 22 139 13 40 140 25 40 141 25 22 142 13 42 143 27 44 144 42 45 145 43 51 146 44 51 147 44 45 148 43 52 149 45 53 150 46 52 151 45 46 152 47 46 153 47 52 154 45 45 155 43 46 156 47 47 157 48 53 158 46 53 159 46 47 160 48 54 161 49 47 162 48 48 163 50 54 164 49 54 165 49 48 166 50 55 167 51 48 168 50 49 169 52 55 170 51 55 171 51 49 172 52 56 173 53 49 174 52 50 175 54 56 176 53 56 177 53 50 178 54 57 179 55 65 180 56 66 181 57 68 182 58 68 183 58 66 184 57 67 185 59 68 186 58 67 187 59 70 188 60 70 189 60 67 190 59 69 191 61 70 192 60 69 193 61 72 194 62 72 195 62 69 196 61 71 197 63 72 198 62 71 199 63 74 200 64 74 201 64 71 202 63 73 203 65 74 204 64 73 205 65 76 206 66 76 207 66 73 208 65 75 209 67 76 210 66 75 211 67 78 212 68 78 213 68 75 214 67 77 215 69 44 216 42 58 217 70 45 218 43 45 219 43 58 220 70 59 221 71 45 222 43 59 223 71 46 224 47 46 225 47 59 226 71 60 227 72 47 228 48 46 229 47 61 230 73 61 231 73 46 232 47 60 233 72 48 234 50 47 235 48 62 236 74 62 237 74 47 238 48 61 239 73 49 240 52 48 241 50 63 242 75 63 243 75 48 244 50 62 245 74 50 246 54 49 247 52 64 248 76 64 249 76 49 250 52 63 251 75 51 252 44 52 253 45 66 254 57 66 255 57 52 256 45 67 257 59 52 258 45 53 259 46 67 260 59 67 261 59 53 262 46 69 263 61 54 264 49 71 265 63 53 266 46 53 267 46 71 268 63 69 269 61 55 270 51 73 271 65 54 272 49 54 273 49 73 274 65 71 275 63 56 276 53 75 277 67 55 278 51 55 279 51 75 280 67 73 281 65 57 282 55 77 283 69 56 284 53 56 285 53 77 286 69 75 287 67 79 288 77 80 289 78 86 290 79 86 291 79 80 292 78 87 293 80 88 294 81 87 295 80 81 296 82 81 297 82 87 298 80 80 299 78 81 300 82 82 301 83 88 302 81 88 303 81 82 304 83 89 305 84 82 306 83 83 307 85 89 308 84 89 309 84 83 310 85 90 311 86 83 312 85 84 313 87 90 314 86 90 315 86 84 316 87 91 317 88 84 318 87 85 319 89 91 320 88 91 321 88 85 322 89 92 323 90 58 324 70 93 325 91 59 326 71 59 327 71 93 328 91 94 329 92 59 330 71 94 331 92 60 332 72 60 333 72 94 334 92 95 335 93 60 336 72 95 337 93 61 338 73 61 339 73 95 340 93 96 341 94 61 342 73 96 343 94 62 344 74 62 345 74 96 346 94 97 347 95 62 348 74 97 349 95 63 350 75 63 351 75 97 352 95 98 353 96 63 354 75 98 355 96 64 356 76 64 357 76 98 358 96 99 359 97 79 360 77 30 361 98 80 362 78 80 363 78 30 364 98 33 365 99 80 366 78 33 367 99 81 368 82 81 369 82 33 370 99 35 371 100 81 372 82 35 373 100 82 374 83 82 375 83 35 376 100 37 377 101 83 378 85 82 379 83 39 380 102 39 381 102 82 382 83 37 383 101 84 384 87 83 385 85 41 386 103 41 387 103 83 388 85 39 389 102 85 390 89 84 391 87 43 392 104 43 393 104 84 394 87 41 395 103 86 396 79 87 397 80 93 398 105 93 399 105 87 400 80 94 401 106 87 402 80 88 403 81 94 404 106 94 405 106 88 406 81 95 407 107 88 408 81 89 409 84 95 410 107 95 411 107 89 412 84 96 413 108 90 414 86 97 415 109 89 416 84 89 417 84 97 418 109 96 419 108 91 420 88 98 421 110 90 422 86 90 423 86 98 424 110 97 425 109 92 426 90 99 427 111 91 428 88 91 429 88 99 430 111 98 431 110 100 432 172 101 433 112 107 434 113 107 435 113 101 436 112 108 437 173 109 438 174 108 439 175 102 440 114 102 441 114 108 442 176 101 443 112 102 444 114 103 445 115 109 446 177 109 447 178 103 448 115 110 449 179 103 450 115 104 451 116 110 452 180 110 453 181 104 454 116 111 455 117 104 456 116 105 457 118 111 458 117 111 459 117 105 460 118 112 461 119 105 462 118 106 463 182 112 464 119 112 465 119 106 466 183 113 467 120 100 468 184 65 469 185 101 470 112 101 471 112 65 472 186 68 473 187 101 474 112 68 475 188 102 476 114 102 477 114 68 478 189 70 479 190 102 480 114 70 481 191 103 482 115 103 483 115 70 484 192 72 485 193 104 486 116 103 487 115 74 488 121 74 489 121 103 490 115 72 491 194 105 492 118 104 493 116 76 494 122 76 495 122 104 496 116 74 497 121 106 498 195 105 499 118 78 500 123 78 501 123 105 502 118 76 503 122 107 504 113 108 505 196 114 506 124 114 507 124 108 508 197 115 509 198 108 510 199 109 511 200 115 512 201 115 513 202 109 514 203 116 515 204 109 516 205 110 517 206 116 518 207 116 519 208 110 520 209 117 521 210 111 522 117 118 523 125 110 524 211 110 525 212 118 526 125 117 527 213 112 528 119 119 529 126 111 530 117 111 531 117 119 532 126 118 533 125 113 534 120 120 535 214 112 536 119 112 537 119 120 538 215 119 539 126 23 540 29 114 541 127 24 542 31 24 543 31 114 544 127 115 545 128 24 546 31 115 547 128 25 548 33 25 549 33 115 550 128 116 551 129 25 552 33 116 553 129 26 554 35 26 555 35 116 556 129 117 557 130 26 558 35 117 559 130 27 560 37 27 561 37 117 562 130 118 563 131 27 564 37 118 565 131 28 566 39 28 567 39 118 568 131 119 569 132 28 570 39 119 571 132 29 572 41 29 573 41 119 574 132 120 575 133 133 576 216 134 577 217 123 578 134 123 579 134 134 580 218 121 581 135 132 582 219 133 583 220 125 584 221 125 585 222 133 586 223 123 587 134 128 588 224 129 589 225 122 590 136 122 591 136 129 592 226 127 593 137 130 594 227 131 595 228 126 596 229 126 597 230 131 598 231 124 599 138 131 600 232 132 601 233 124 602 138 124 603 138 132 604 234 125 605 235 126 606 236 127 607 137 130 608 237 130 609 238 127 610 137 129 611 239 149 612 240 150 613 241 152 614 242 152 615 243 150 616 244 151 617 245 152 618 246 151 619 247 154 620 248 154 621 249 151 622 250 153 623 251 154 624 252 153 625 253 156 626 254 156 627 255 153 628 256 155 629 257 156 630 258 155 631 259 158 632 260 158 633 261 155 634 262 157 635 263 158 636 264 157 637 265 160 638 266 160 639 267 157 640 268 159 641 269 160 642 270 159 643 271 162 644 272 162 645 273 159 646 274 161 647 275 128 648 276 142 649 277 129 650 278 129 651 279 142 652 280 143 653 281 129 654 282 143 655 283 130 656 284 130 657 285 143 658 286 144 659 287 130 660 288 144 661 289 131 662 290 131 663 291 144 664 292 145 665 293 132 666 294 131 667 295 146 668 296 146 669 297 131 670 298 145 671 299 133 672 300 132 673 301 147 674 302 147 675 303 132 676 304 146 677 305 133 678 306 147 679 307 134 680 308 134 681 309 147 682 310 148 683 311 135 684 312 136 685 313 150 686 314 150 687 315 136 688 316 151 689 317 136 690 318 137 691 319 151 692 320 151 693 321 137 694 322 153 695 323 137 696 324 138 697 325 153 698 326 153 699 327 138 700 328 155 701 329 139 702 330 157 703 331 138 704 332 138 705 333 157 706 334 155 707 335 140 708 336 159 709 337 139 710 338 139 711 339 159 712 340 157 713 341 140 714 342 141 715 343 159 716 344 159 717 345 141 718 346 161 719 347 163 720 348 164 721 349 170 722 350 170 723 351 164 724 352 171 725 353 172 726 354 171 727 355 165 728 356 165 729 357 171 730 358 164 731 359 165 732 360 166 733 361 172 734 362 172 735 363 166 736 364 173 737 365 166 738 366 167 739 367 173 740 368 173 741 369 167 742 370 174 743 371 167 744 372 168 745 373 174 746 374 174 747 375 168 748 376 175 749 377 168 750 378 169 751 379 175 752 380 175 753 381 169 754 382 176 755 383 184 756 384 185 757 385 187 758 386 187 759 387 185 760 388 186 761 389 187 762 390 186 763 391 189 764 392 189 765 393 186 766 394 188 767 395 189 768 396 188 769 397 191 770 398 191 771 399 188 772 400 190 773 401 191 774 402 190 775 403 193 776 404 193 777 405 190 778 406 192 779 407 193 780 408 192 781 409 195 782 410 195 783 411 192 784 412 194 785 413 195 786 414 194 787 415 197 788 416 197 789 417 194 790 418 196 791 419 163 792 420 177 793 421 164 794 422 164 795 423 177 796 424 178 797 425 164 798 426 178 799 427 165 800 428 165 801 429 178 802 430 179 803 431 166 804 432 165 805 433 180 806 434 180 807 435 165 808 436 179 809 437 167 810 438 166 811 439 181 812 440 181 813 441 166 814 442 180 815 443 168 816 444 167 817 445 182 818 446 182 819 447 167 820 448 181 821 449 169 822 450 168 823 451 183 824 452 183 825 453 168 826 454 182 827 455 170 828 456 171 829 457 185 830 458 185 831 459 171 832 460 186 833 461 171 834 462 172 835 463 186 836 464 186 837 465 172 838 466 188 839 467 173 840 468 190 841 469 172 842 470 172 843 471 190 844 472 188 845 473 174 846 474 192 847 475 173 848 476 173 849 477 192 850 478 190 851 479 175 852 480 194 853 481 174 854 482 174 855 483 194 856 484 192 857 485 176 858 486 196 859 487 175 860 488 175 861 489 196 862 490 194 863 491 198 864 492 199 865 493 205 866 494 205 867 495 199 868 496 206 869 497 207 870 498 206 871 499 200 872 500 200 873 501 206 874 502 199 875 503 200 876 504 201 877 505 207 878 506 207 879 507 201 880 508 208 881 509 201 882 510 202 883 511 208 884 512 208 885 513 202 886 514 209 887 515 202 888 516 203 889 517 209 890 518 209 891 519 203 892 520 210 893 521 203 894 522 204 895 523 210 896 524 210 897 525 204 898 526 211 899 527 177 900 528 212 901 529 178 902 530 178 903 531 212 904 532 213 905 533 178 906 534 213 907 535 179 908 536 179 909 537 213 910 538 214 911 539 179 912 540 214 913 541 180 914 542 180 915 543 214 916 544 215 917 545 180 918 546 215 919 547 181 920 548 181 921 549 215 922 550 216 923 551 181 924 552 216 925 553 182 926 554 182 927 555 216 928 556 217 929 557 182 930 558 217 931 559 183 932 560 183 933 561 217 934 562 218 935 563 198 936 564 149 937 565 199 938 566 199 939 567 149 940 568 152 941 569 199 942 570 152 943 571 200 944 572 200 945 573 152 946 574 154 947 575 200 948 576 154 949 577 201 950 578 201 951 579 154 952 580 156 953 581 202 954 582 201 955 583 158 956 584 158 957 585 201 958 586 156 959 587 203 960 588 202 961 589 160 962 590 160 963 591 202 964 592 158 965 593 204 966 594 203 967 595 162 968 596 162 969 597 203 970 598 160 971 599 205 972 600 206 973 601 212 974 602 212 975 603 206 976 604 213 977 605 206 978 606 207 979 607 213 980 608 213 981 609 207 982 610 214 983 611 207 984 612 208 985 613 214 986 614 214 987 615 208 988 616 215 989 617 209 990 618 216 991 619 208 992 620 208 993 621 216 994 622 215 995 623 210 996 624 217 997 625 209 998 626 209 999 627 217 1000 628 216 1001 629 211 1002 630 218 1003 631 210 1004 632 210 1005 633 218 1006 634 217 1007 635 219 1008 636 220 1009 637 226 1010 638 226 1011 639 220 1012 640 227 1013 641 228 1014 642 227 1015 643 221 1016 644 221 1017 645 227 1018 646 220 1019 647 221 1020 648 222 1021 649 228 1022 650 228 1023 651 222 1024 652 229 1025 653 222 1026 654 223 1027 655 229 1028 656 229 1029 657 223 1030 658 230 1031 659 223 1032 660 224 1033 661 230 1034 662 230 1035 663 224 1036 664 231 1037 665 224 1038 666 225 1039 667 231 1040 668 231 1041 669 225 1042 670 232 1043 671 219 1044 672 184 1045 673 220 1046 674 220 1047 675 184 1048 676 187 1049 677 220 1050 678 187 1051 679 221 1052 680 221 1053 681 187 1054 682 189 1055 683 221 1056 684 189 1057 685 222 1058 686 222 1059 687 189 1060 688 191 1061 689 223 1062 690 222 1063 691 193 1064 692 193 1065 693 222 1066 694 191 1067 695 224 1068 696 223 1069 697 195 1070 698 195 1071 699 223 1072 700 193 1073 701 225 1074 702 224 1075 703 197 1076 704 197 1077 705 224 1078 706 195 1079 707 226 1080 708 227 1081 709 233 1082 710 233 1083 711 227 1084 712 234 1085 713 227 1086 714 228 1087 715 234 1088 716 234 1089 717 228 1090 718 235 1091 719 228 1092 720 229 1093 721 235 1094 722 235 1095 723 229 1096 724 236 1097 725 230 1098 726 237 1099 727 229 1100 728 229 1101 729 237 1102 730 236 1103 731 231 1104 732 238 1105 733 230 1106 734 230 1107 735 238 1108 736 237 1109 737 232 1110 738 239 1111 739 231 1112 740 231 1113 741 239 1114 742 238 1115 743 142 1116 744 233 1117 745 143 1118 746 143 1119 747 233 1120 748 234 1121 749 143 1122 750 234 1123 751 144 1124 752 144 1125 753 234 1126 754 235 1127 755 144 1128 756 235 1129 757 145 1130 758 145 1131 759 235 1132 760 236 1133 761 145 1134 762 236 1135 763 146 1136 764 146 1137 765 236 1138 766 237 1139 767 146 1140 768 237 1141 769 147 1142 770 147 1143 771 237 1144 772 238 1145 773 147 1146 774 238 1147 775 148 1148 776 148 1149 777 238 1150 778 239 1151 779 242 1152 139 244 1153 140 240 1154 141 240 1155 141 244 1156 140 245 1157 142 241 1158 143 243 1159 144 242 1160 145 242 1161 145 243 1162 144 244 1163 146 255 1164 147 252 1165 148 256 1166 780 256 1167 781 252 1168 148 253 1169 149 257 1170 150 256 1171 151 254 1172 152 254 1173 152 256 1174 151 253 1175 153 243 1176 782 258 1177 783 244 1178 140 244 1179 140 258 1180 784 259 1181 785 245 1182 142 244 1183 786 260 1184 787 260 1185 788 244 1186 789 259 1187 790 259 1188 791 247 1189 792 260 1190 793 260 1191 794 247 1192 795 248 1193 796 258 1194 797 246 1195 798 259 1196 799 259 1197 800 246 1198 801 247 1199 802 246 1200 803 261 1201 804 247 1202 805 247 1203 806 261 1204 807 262 1205 808 248 1206 809 247 1207 810 263 1208 811 263 1209 812 247 1210 813 262 1211 814 262 1212 154 250 1213 155 263 1214 156 263 1215 156 250 1216 155 251 1217 157 261 1218 158 249 1219 159 262 1220 160 262 1221 160 249 1222 159 250 1223 161 249 1224 162 264 1225 163 250 1226 155 250 1227 155 264 1228 163 265 1229 164 251 1230 157 250 1231 165 266 1232 166 266 1233 166 250 1234 165 265 1235 167 265 1236 815 256 1237 816 266 1238 817 266 1239 818 256 1240 819 257 1241 150 264 1242 820 255 1243 821 265 1244 822 265 1245 823 255 1246 824 256 1247 825 14 1248 38 15 1249 40 271 1250 826 271 1251 827 15 1252 40 270 1253 828 13 1254 36 14 1255 38 273 1256 829 273 1257 830 14 1258 38 271 1259 831 9 1260 28 10 1261 30 268 1262 832 268 1263 833 10 1264 30 269 1265 834 11 1266 32 12 1267 34 274 1268 835 274 1269 836 12 1270 34 272 1271 837 12 1272 34 13 1273 36 272 1274 838 272 1275 839 13 1276 36 273 1277 840 274 1278 841 269 1279 842 11 1280 32 11 1281 32 269 1282 843 10 1283 30 269 1284 844 136 1285 845 268 1286 846 268 1287 847 136 1288 848 135 1289 849 137 1290 850 136 1291 851 274 1292 852 274 1293 853 136 1294 854 269 1295 855 272 1296 856 138 1297 857 274 1298 858 274 1299 859 138 1300 860 137 1301 861 273 1302 862 139 1303 863 272 1304 864 272 1305 865 139 1306 866 138 1307 867 271 1308 868 140 1309 869 273 1310 870 273 1311 871 140 1312 872 139 1313 873 270 1314 874 141 1315 875 271 1316 876 271 1317 877 141 1318 878 140 1319 879 1 1320 168 267 1321 169 276 1322 881 1 1323 168 276 1324 881 275 1325 880 277 1326 882 276 1327 881 267 1328 169 267 1329 171 0 1330 170 278 1331 884 267 1332 171 278 1333 884 277 1334 883 279 1335 885 278 1336 884 0 1337 170 280 1338 888 281 1339 889 22 1340 886 280 1341 888 22 1342 886 2 1343 887 283 1344 893 43 1345 892 282 1346 891 282 1347 891 43 1348 892 42 1349 890 285 1350 919 29 1351 916 284 1352 917 29 1353 916 285 1354 919 15 1355 918 282 1356 891 42 1357 890 281 1358 889 281 1359 889 42 1360 890 22 1361 886 286 1362 903 287 1363 905 57 1364 904 286 1365 903 57 1366 904 50 1367 902 289 1368 909 78 1369 908 288 1370 907 288 1371 907 78 1372 908 77 1373 906 286 1374 903 50 1375 902 290 1376 901 290 1377 901 50 1378 902 64 1379 900 288 1380 907 57 1381 904 287 1382 905 57 1383 904 288 1384 907 77 1385 906 292 1386 897 85 1387 894 291 1388 895 85 1389 894 292 1390 897 92 1391 896 290 1392 901 64 1393 900 293 1394 899 293 1395 899 64 1396 900 99 1397 898 291 1398 895 85 1399 894 283 1400 893 283 1401 893 85 1402 894 43 1403 892 293 1404 899 92 1405 896 292 1406 897 92 1407 896 293 1408 899 99 1409 898 295 1410 913 106 1411 910 294 1412 911 106 1413 910 295 1414 913 113 1415 912 294 1416 911 106 1417 910 289 1418 909 289 1419 909 106 1420 910 78 1421 908 296 1422 915 113 1423 912 295 1424 913 113 1425 912 296 1426 915 120 1427 914 284 1428 917 29 1429 916 296 1430 915 296 1431 915 29 1432 916 120 1433 914 297 1434 953 298 1435 955 121 1436 954 297 1437 953 121 1438 954 134 1439 952 300 1440 927 162 1441 926 299 1442 925 299 1443 925 162 1444 926 161 1445 924 297 1446 953 148 1447 950 301 1448 951 148 1449 950 297 1450 953 134 1451 952 299 1452 925 161 1453 924 302 1454 923 302 1455 923 161 1456 924 141 1457 922 303 1458 937 304 1459 939 176 1460 938 303 1461 937 176 1462 938 169 1463 936 306 1464 943 197 1465 942 305 1466 941 305 1467 941 197 1468 942 196 1469 940 303 1470 937 169 1471 936 307 1472 935 307 1473 935 169 1474 936 183 1475 934 305 1476 941 176 1477 938 304 1478 939 176 1479 938 305 1480 941 196 1481 940 308 1482 929 309 1483 931 211 1484 930 308 1485 929 211 1486 930 204 1487 928 307 1488 935 183 1489 934 310 1490 933 310 1491 933 183 1492 934 218 1493 932 308 1494 929 204 1495 928 300 1496 927 300 1497 927 204 1498 928 162 1499 926 310 1500 933 211 1501 930 309 1502 931 211 1503 930 310 1504 933 218 1505 932 312 1506 947 225 1507 944 311 1508 945 225 1509 944 312 1510 947 232 1511 946 311 1512 945 225 1513 944 306 1514 943 306 1515 943 225 1516 944 197 1517 942 313 1518 949 232 1519 946 312 1520 947 232 1521 946 313 1522 949 239 1523 948 301 1524 951 148 1525 950 313 1526 949 313 1527 949 148 1528 950 239 1529 948 285 1530 919 314 1531 921 270 1532 920 285 1533 919 270 1534 920 15 1535 918 314 1536 921 302 1537 923 141 1538 922 314 1539 921 141 1540 922 270 1541 920</p></triangles>
      </mesh>
    </geometry>
  </library_geometries>
  <library_visual_scenes>
    <visual_scene id="lab_low" name="lab_low">
      <node name="lab_flat" id="lab_flat" sid="lab_flat"><matrix sid="matrix">100.000000 0.000000 0.000000 0.000000 0.000000 100.000000 0.000000 0.000000 0.000000 0.000000 100.000000 0.000000 0.000000 0.000000 0.000000 1.000000</matrix><instance_geometry url="#lab_flat-lib"><bind_material><technique_common><instance_material symbol="lab_set" target="#lab_set"/></technique_common></bind_material></instance_geometry><extra><technique profile="FCOLLADA"><visibility>1.000000</visibility></technique></extra></node>
      <extra><technique profile="MAX3D"><frame_rate>30.000000</frame_rate></technique><technique profile="FCOLLADA"><start_time>0.000000</start_time><end_time>1.000000</end_time></technique></extra>
    </visual_scene>
  </library_visual_scenes>
  <scene>
    <instance_visual_scene url="#lab_low"></instance_visual_scene>
  </scene>
</COLLADA>
