<?xml version="1.0" encoding="utf-8"?>
<COLLADA xmlns="http://www.collada.org/2005/11/COLLADASchema" version="1.4.1">
  <asset>
    <contributor>
      <author>Marc</author>
      <authoring_tool>OpenCOLLADA2008</authoring_tool>
      <comments>
			ColladaMaya export options: 
			bakeTransforms=1;relativePaths=1;copyTextures=0;exportTriangles=1;exportCgfxFileReferences=0;
			isSampling=0;curveConstrainSampling=1;removeStaticCurves=0;exportPolygonMeshes=1;exportLights=0;
			exportCameras=0;exportJointsAndSkin=1;exportAnimations=1;exportInvisibleNodes=0;exportDefaultCameras=0;
			exportTexCoords=1;exportNormals=1;exportNormalsPerVertex=0;exportVertexColors=1;exportVertexColorsPerVertex=0;
			exportTexTangents=0;exportTangents=0;exportReferencedMaterials=0;exportMaterialsOnly=0;
			exportXRefs=0;dereferenceXRefs=1;exportCameraAsLookat=0;cameraXFov=0;cameraYFov=0;doublePrecision=0
		</comments>
      <source_data>file:///F:/Dropbox/Team/depth_marc/models/rockwall/rockwall%20pieces.mb</source_data>
    </contributor>
    <created>2012-12-10T13:05:35</created>
    <modified>2012-12-10T13:05:35</modified>
    <unit name="meter" meter="1"/>
    <up_axis>Y_UP</up_axis>
  </asset>
  <library_materials>
    <material id="lambert3SG1" name="lambert3SG1">
      <instance_effect url="#lambert3SG1-fx"/>
    </material>
  </library_materials>
  <library_effects>
    <effect id="lambert3SG1-fx">
      <profile_COMMON>
        <newparam sid="file2-surface">
          <surface type="2D">
            <init_from>file2</init_from>
          </surface>
        </newparam>
        <newparam sid="file2-sampler">
          <sampler2D>
            <source>file2-surface</source>
          </sampler2D>
        </newparam>
        <technique sid="common">
          <lambert>
            <emission>
              <color>0 0 0 1</color>
            </emission>
            <ambient>
              <color>0 0 0 1</color>
            </ambient>
            <diffuse>
              <texture texture="file2-sampler" texcoord="TEX0">
                <extra>
                  <technique profile="OpenCOLLADAMaya">
                    <blend_mode>NONE</blend_mode>
                    <coverageU>1</coverageU>
                    <coverageV>1</coverageV>
                    <fast>0</fast>
                    <mirrorU>0</mirrorU>
                    <mirrorV>0</mirrorV>
                    <noiseU>0</noiseU>
                    <noiseV>0</noiseV>
                    <offsetU>0</offsetU>
                    <offsetV>0</offsetV>
                    <repeatU>1</repeatU>
                    <repeatV>1</repeatV>
                    <rotateFrame>0</rotateFrame>
                    <rotateUV>0</rotateUV>
                    <stagger>0</stagger>
                    <translateFrameU>0</translateFrameU>
                    <translateFrameV>0</translateFrameV>
                    <wrapU>1</wrapU>
                    <wrapV>1</wrapV>
                  </technique>
                </extra>
              </texture>
            </diffuse>
            <transparent opaque="RGB_ZERO">
              <color>0 0 0 1</color>
            </transparent>
            <transparency>
              <float>1</float>
            </transparency>
          </lambert>
        </technique>
      </profile_COMMON>
    </effect>
  </library_effects>
  <library_images>
    <image id="file2" name="file2">
      <init_from>./snow_rock_UV.dds</init_from>
      <extra>
        <technique profile="OpenCOLLADAMaya">
          <dgnode_type>kFile</dgnode_type>
          <image_sequence>0</image_sequence>
          <originalMayaNodeId>file2</originalMayaNodeId>
        </technique>
      </extra>
    </image>
  </library_images>
  <library_geometries>
    <geometry id="polySurfaceShape69" name="polySurfaceShape69">
      <mesh>
        <source id="polySurfaceShape69-positions" name="polySurfaceShape69-positions">
          <float_array id="polySurfaceShape69-positions-array" count="1041">-18.26361 0 0 -22.26361 8 0 -21.15943 4 0 -21.40249 12 0 -22.26361 10 0 -21.71221 6.002504 0 -19.71152 2 0 -21.39822 12.9459 0 -15.74658 7.337003 -16.86436 -12.1202 -4.82154e-5 -13.25819 -14.31363 4 -14.99145 -8.128555 8 -23.16023 -7.515273 3.186147 -21.36895 -6.577285 0 -18.62925 -22.53506 8 -9.491611 -21.20279 3.734371 -9.831973 -18.02533 0 -6.606055 -21.26389 8 -4.510059 -20.94416 4 -4.454922 -16.36857 0 -4.018096 -19.82232 8 -13.32693 -19.34221 4 -13.45299 -17.11014 0 -12.10143 -12.96275 7.337003 -19.122 -11.90687 4.828519 -16.98507 -9.407813 0 -14.47561 -4.223203 8 -22.44693 -4.636172 4 -21.24626 -3.921309 0 -17.71975 -22.03229 12 -4.642598 -21.95328 12 -9.26543 -19.05453 12 -12.83393 -15.72854 12 -16.24633 -12.33309 12 -18.69159 -8.041699 12 -22.90657 -4.855547 12 -22.32843 -22.03229 10 -4.642598 -4.855547 10 -22.32843 -22.42811 12 -2.765029 -2.54502 12 -21.13185 -7.715605 0 -18.03693 -10.13711 4 -20.10809 -10.97861 8 -20.91752 -10.63219 12 -21.09506 -22.24416 10 -9.378516 -19.82232 10 -13.32693 -15.38461 10 -16.48565 -12.66695 10 -18.68963 -10.63219 10 -21.09506 -7.6125 10 -23.30986 -16.0073 0 -12.68447 -17.52854 0 -9.157207 -16.7591 0 -5.440645 -16.61084 0 -2.371855 -17.79428 0 -1.48125 -18.29379 0 -8.28252 -11.3533 0 -14.59408 -8.306016 0 -15.8691 -8.44332 0 -17.29806 -2.611621 0 -17.9328 -1.533652 0 -18.84917 -18.05402 12 -14.84746 -17.41313 10 -15.99141 -15.82551 9.309032 -16.94693 -13.02768 9.309032 -19.21689 -12.24344 10 -20.06583 -11.86447 12 -20.00716 -17.89561 4 -14.26967 -17.59586 8 -15.99299 -12.39291 8 -20.13561 -10.71881 4.828676 -18.86257 -16.75104 12 -15.19205 -15.60639 11 -16.14109 -14.52393 12 -16.34682 -9.551367 12 -22.45333 -6.34916 12 -22.42373 -7.770938 9 -23.06112 -10.63219 9 -21.09506 -9.773457 10 -22.42535 -9.574395 9 -22.50816 -21.48891 6.002504 -4.548877 -22.02113 6.002504 -9.291807 -19.46541 6.002504 -14.00171 -18.42307 6.002504 -14.93571 -15.04807 6.69457 -15.57898 -12.37299 6.69457 -18.25994 -11.75176 6.002504 -19.99652 -10.82244 6.002504 -20.61915 -8.019473 6.002504 -22.84161 -4.129629 6.002504 -21.90354 -12.94135 12 -16.83547 -12.40283 12 -17.58233 -1.533105 12 -21.21216 -21.48002 12 -1.36792 -3.715762 12 -22.08852 -22.72188 12 -7.095996 -20.17561 12 -10.93688 -10.31818 8 -22.32126 -10.14379 6.002504 -22.03268 -5.789414 8 -22.97374 -5.686133 6.002504 -22.54184 -6.215684 9.069696 -22.89852 -7.797871 4.67255 -22.19434 -9.417285 4.959606 -21.95026 -6.366113 4.912284 -22.45107 -6.077578 11 -22.61335 -12.21734 3.133922 -15.28969 -10.05154 3.063729 -15.2458 -9.258437 2.955777 -16.90102 -9.756465 2.630896 -18.81752 -8.839941 1.630119 -19.97407 -7.29752 1.593073 -20.73291 -3.996582 2.46817 -18.09105 -17.17186 2 -4.276152 -19.79334 2 -7.796016 -17.25154 1.734854 -5.487187 -18.02273 2.943027 -9.205576 -16.19301 4 -14.33146 -16.63693 6.002504 -15.12084 -17.41646 7.498291 -15.44955 -19.59033 7.498291 -13.17797 -19.94945 6.002504 -12.32885 -19.52705 4 -11.98221 -17.8185 3.025702 -10.92613 -17.06625 0 -10.52018 -14.29268 0 -12.91795 -18.25998 2.279051 -12.79425 -16.92369 2.192054 -13.45851 -14.43109 2.275423 -12.70291 -12.49973 2.225668 -13.47118 -21.12785 10 -11.42155 -21.26693 8 -11.49233 -8.651113 0.7317493 -17.77098 -8.441055 0.9911486 -15.74107 -9.405508 1.073434 -14.2897 -11.22422 0.8959113 -14.17707 -2.750957 2.46817 -18.48637 -3.056738 4 -21.5034 -2.681699 6.002504 -22.50305 -2.411465 8 -23.0819 -2.697793 10 -22.65454 -1.726738 2 -20.01171 -5.325566 0 -18.65095 -5.715566 1.796537 -20.08843 -5.333594 0.5432871 -18.68054 -3.890156 0.5743804 -17.566 -2.608984 0.5117486 -17.79642 -1.570664 0.551931 -18.91853 -12.08184 0.7051773 -13.13211 -14.21498 0.6168394 -12.63972 -16.03287 0.5413255 -12.72221 -17.17877 0.554516 -12.12904 -16.99152 0.6029446 -10.47119 -17.47262 0.6454907 -9.089551 -13.77771 6.69457 -16.9749 -13.99326 7.337003 -17.54754 -14.06545 9.309032 -17.63656 -14.07066 10 -17.64298 -12.46697 9.154516 -20.2554 -17.50443 9 -15.99238 -18.90188 2 -1.505723 -17.73721 1.70073 -2.605049 -21.24033 4 -1.40624 -21.14865 4 -2.936055 -21.25666 3.856453 -7.303457 -21.14932 3.928226 -5.859238 -21.79346 6.002504 -1.396582 -21.6999 6.002504 -2.978398 -21.88568 6.002504 -6.863857 -21.71869 6.002504 -5.690488 -2.103477 3 -20.79152 -5.455605 2.898268 -20.61024 -2.847617 3.419703 -19.52339 -4.222051 3.419703 -19.20326 -22.34662 10 -1.312217 -22.34568 8 -1.362754 -22.3191 8 -6.21999 -21.37316 8 -2.924727 -22.26662 10 -6.969609 -21.02602 14.60431 -1.676152 -21.98973 14.60431 -3.063467 -22.12816 13.89181 -5.19583 -22.88326 13.89181 -7.513047 -22.40906 13.89181 -9.036123 -20.49029 13.89181 -10.69221 -19.05453 13.89181 -12.83393 -18.37807 13.89181 -14.42904 -16.94125 13.89181 -14.97256 -15.93303 13.89181 -16.04048 -14.67869 13.89181 -16.20479 -12.96617 13.89181 -16.81604 -12.35951 13.89181 -17.61315 -12.08287 13.89181 -18.85555 -11.68576 13.89181 -20.21201 -10.70947 13.89181 -21.24916 -9.651445 13.89181 -22.69178 -8.153398 13.89181 -23.23277 -6.570859 13.91622 -22.64822 -4.844824 13.89181 -21.68266 -3.591895 13.89181 -21.26889 -2.525684 13.89181 -20.9392 -1.522969 13.89181 -21.00936 0 14.60431 -21.45319 -22.44346 12.9459 -2.571309 -21.48305 12.9459 -1.182637 -3.153574 8 -22.60396 -3.182324 6.002504 -22.04479 -19.19521 2.83154 -5.703184 -19.05506 3.498089 -4.391035 -19.44293 3.348454 -2.770566 -19.2235 1.867427 -6.79916 0 16 -21.45319 -15.72854 16 -16.24633 -8.277852 16 -23.5963 -22.63275 16 -9.52959 -22.4383 16 -4.712627 -19.05453 16 -12.83393 -12.56609 16 -18.53436 -5.193242 16 -22.67881 -22.02014 16 -2.730898 -2.504141 16 -20.72451 -10.79561 16 -21.42088 -18.05402 16 -14.84746 -11.87807 16 -20.21091 -16.75104 16 -15.19205 -14.5066 16 -16.36256 -9.762988 16 -22.95749 -6.821875 16.05162 -22.89598 -12.99564 16 -16.79291 -12.52771 16 -17.49248 -1.51166 16 -20.78336 -21.05076 16 -1.358984 -3.715957 16 -22.08982 -23.27162 16 -7.248613 -20.50045 16 -11.10223 -18.7276 16 -13.95364 -20.95319 14.60431 0 -20.95319 16 0 -21.05076 19.24884 -1.358984 -15.72854 19.24884 -16.24633 -14.5066 19.24884 -16.36256 -8.277852 18.82348 -23.5963 -6.821875 19.24884 -22.89598 -22.63275 19.24884 -9.52959 -20.50045 19.24884 -11.10223 -22.4383 19.24884 -4.712627 -23.27162 19.24884 -7.248613 -19.05453 19.24884 -12.83393 -18.7276 19.24884 -13.95364 -12.56609 19.24884 -18.53436 -11.87807 19.64727 -20.21091 -5.193242 19.24884 -22.67881 -3.715957 19.24884 -20.57438 -22.02014 19.24884 -2.730898 -2.504141 19.24884 -20.06392 -1.51166 19.24884 -20.12277 -10.79561 19.64727 -21.42088 -9.762988 18.82348 -22.95749 -18.05402 19.24884 -14.84746 -16.75104 19.24884 -15.19205 -12.99564 19.24884 -16.79291 -12.52771 19.24884 -17.49248 -21.5235 19.66147 -1.194541 -16.01466 19.66147 -16.54434 -14.79272 19.66147 -16.66057 -8.396318 19.23611 -24.03068 -6.709199 19.66147 -23.25893 -22.98508 19.66147 -9.881934 -20.85277 19.66147 -11.45457 -22.91104 19.66147 -4.548184 -23.74436 19.66147 -7.08417 -19.33976 19.66147 -13.20305 -19.01282 19.66147 -14.32276 -12.97146 19.66147 -18.6774 -12.2335 20.0599 -20.50707 -5.080566 19.66147 -23.04176 -3.603281 19.66147 -20.93733 -22.49287 19.66147 -2.566455 -2.391465 19.66147 -20.42688 -1.549219 19.66147 -20.47322 -11.15104 20.0599 -21.71704 -10.1184 19.23611 -23.25365 -18.33925 19.66147 -15.21658 -17.03625 19.66147 -15.56117 -13.28178 19.66147 -17.09092 -12.93308 19.66147 -17.63552 0 19.66147 -21.58631 -27.86586 19.66147 -5.593838 -27.08899 19.66147 -7.915674 -28.44291 19.66147 -2.66249 -26.24721 19.66147 -11.35781 -23.2708 19.66147 -14.04469 -22.57053 19.66147 -14.70885 -22.30674 19.66147 -15.749 -21.30486 19.66147 -17.29729 -18.19067 19.50243 -19.36393 -16.606 19.66147 -20.47086 -20.00213 19.66147 -18.25071 -15.47127 19.66147 -20.70896 -3.229805 19.66147 -28.89065 0 19.39791 -29 -8.174395 19.66147 -27.87962 -5.485645 19.66147 -28.89065 -14.74955 19.66147 -23.88537 -13.44236 19.66147 -25.51612 -11.43291 19.23611 -27.61403 -20.85552 19.16155 0 -21.08631 19.66147 0 -28.5 19.39791 0 -2.504141 17.50563 -21.00815 -1.51166 17.87054 -21.067 -3.715957 17.59856 -22.08982 -5.193242 17.50187 -22.67881 -6.226318 17.5733 -23.36715 -8.156865 17.33322 -24.03211 -10.15708 17.33322 -23.17175 -11.30665 17.47082 -21.75538 -12.38911 17.62442 -20.54541 -12.91115 17.85684 -18.54713 -12.71092 18.00396 -17.7105 -13.17885 18.02491 -17.01093 -14.59767 17.93399 -17.00326 -16.27236 17.8999 -16.28569 -16.75104 17.76874 -14.76995 -18.05402 17.62442 -14.42536 -19.27759 17.62442 -13.95364 -19.60452 17.62442 -12.83393 -20.50045 18.41894 -11.10223 -22.63275 18.41894 -9.52959 -23.27162 17.62442 -7.248613 -22.4383 18.6756 -4.712627 -22.02014 18.51843 -2.730898 -21.05076 17.79245 -1.358984 -21.1093 17.33336 -11.50032 -23.2416 17.08152 -9.927686 -23.27162 16.93202 -7.248613 -21.85287 17.71702 -4.970215 -21.27078 17.78481 -2.988486 0 0 -18.76361 0 8 -22.76361 0 4 -21.65943 0 12 -21.90249 0 10 -22.76361 0 6.002504 -22.21221 0 2 -20.21152 0 12.9459 -21.89822 0 19.16155 -21.35552</float_array>
          <technique_common>
            <accessor source="#polySurfaceShape69-positions-array" count="347" stride="3">
              <param name="X" type="float"/>
              <param name="Y" type="float"/>
              <param name="Z" type="float"/>
            </accessor>
          </technique_common>
        </source>
        <source id="polySurfaceShape69-normals" name="polySurfaceShape69-normals">
          <float_array id="polySurfaceShape69-normals-array" count="1041">-0.3247033 -0.0676173 0.9433958 0.2692712 -0.1235173 0.9551107 0.2172677 0.03513441 0.9754795 -0.3771531 0.01822888 0.9259715 0.3989794 0.2463542 0.8832468 0.2990838 0.2837531 0.9110616 0.2631359 0.06646837 0.9624664 0.3686007 0.08650488 0.9255541 0.5322291 -0.003148792 0.8465945 0.4433112 -0.001545598 0.8963664 0.4351289 0.09073279 0.8957847 0.6384314 0.004151078 0.7696675 0.8505726 0.04235868 0.5241488 0.3769168 0.1817432 0.9082417 0.5472814 0.3936114 0.7386157 0.7875158 0.204244 0.5814664 0.726486 0.6149271 0.3067292 0.121952 0.460295 0.8793498 0.2268166 0.4455149 0.8660661 0.7611455 0.4824419 0.4334828 -0.3075761 0.5178388 0.798273 0.535696 0.5212412 0.6643323 0.457541 0.8043628 0.3790205 -0.3378842 0.7997726 0.4961835 0.9739423 0.03003001 0.2247994 0.8510929 0.0442437 0.5231475 0.830839 0.2333217 0.50524 0.9596049 0.1976795 0.2002032 0.7416238 0.5022342 0.4446963 0.6983377 0.2989093 0.6503673 0.7071823 0.01290961 0.7069133 0.6627762 0.1584767 0.7318557 0.8094564 0.5823177 0.07540971 0.8401711 0.5401424 0.04856678 0.8874989 0.4603294 0.02103833 0.9906373 0.1365188 -5.49764e-4 0.8239291 0.1464317 0.5474474 0.8040501 0.308315 0.5083749 0.9830931 0.1753059 -0.05287406 0.970423 0.111706 -0.2140118 0.9548249 0.2115639 -0.2086872 0.9585128 0.2730261 -0.08191391 0.694766 0.6784155 0.2388566 0.6691493 0.6700097 0.3214438 0.8691912 0.4874477 -0.08307519 0.9400524 -0.09224273 -0.3283182 0.9929833 0.02731332 -0.1150563 0.9537901 -0.07981152 -0.2896798 0.9321807 -0.1045693 -0.346561 0.9785682 0.07836518 0.1904286 0.9743583 0.2146444 0.06748093 0.9815817 0.1121121 0.1546878 0.9643794 0.1322177 0.2291089 0.7918422 0.5079644 0.3390549 0.7177956 0.4721663 0.5116917 0.6302534 0.657494 0.412895 0.7598576 0.5953388 0.2611285 0.7396767 0.08516999 0.667551 0.8932521 0.03851768 0.447903 0.8634793 0.1857415 0.4689385 0.6561716 0.2792689 0.7010332 0.8710431 0.1626034 0.4635128 0.7933992 0.5637138 0.2296618 0.7870551 0.6168638 -0.004810962 0.2122184 -0.002774136 0.9772183 0.207035 0.1358221 0.9688595 0.2433334 0.6605005 0.7103012 0.4923503 0.6657404 0.5606967 0.5652832 0.4907542 0.6630349 0.379329 0.5515633 0.7428915 -0.3131769 0.07719778 0.946552 -0.3340683 0.1872442 0.9237629 -0.284169 0.2535757 0.9246336 -0.2169766 0.2626953 0.9401661 -0.1119794 0.2838714 0.9523012 -0.09233173 0.07818986 0.9926536 -0.212221 0.03468867 0.9766058 0.02636597 0.6108704 0.7912914 -0.5475876 0.4610452 0.6982731 -0.5151126 0.5497878 0.6575655 0.04705044 0.5428341 0.8385209 0.9907584 -0.01352403 -0.1349627 0.9833922 0.174206 -0.05091099 0.9988447 0.03993594 -0.02672882 0.9992532 -0.002069931 -0.03858384 0.9543366 -0.08193582 0.2872771 0.8632594 -0.07428686 0.4992638 0.9968804 0.07891123 0.00156336 0.7964948 -0.245054 0.5527608 0.7845221 -0.1923766 0.5895051 0.8561394 -0.2033744 0.4750412 0.7495652 -0.211621 0.6271909 0.4766748 -0.1619887 0.864026 0.3857974 -0.08762149 0.9184132 0.4338819 0.05082873 0.8995348 0.3077291 -0.177396 0.9347907 0.8106474 -0.3780155 0.4471631 0.7471011 -0.2288905 0.6240587 0.8273053 -0.06966311 0.5574164 0.9706559 -0.1213582 0.2076033 -0.2038852 -0.02660863 0.9786331 -0.2554961 -0.1552039 0.9542712 -0.213296 -0.09266568 0.9725831 -0.2369517 -0.1217325 0.9638647 0.1714479 -0.3039415 0.9371366 0.9986792 -0.04991425 0.01218597 0.2848806 -0.2446638 0.9268132 0.1328953 -0.3735028 0.9180602 0.4032564 -0.1879846 0.8955703 0.9901872 -0.1284223 -0.05510927 0.9388714 -0.1257713 -0.3204714 0.9426525 0.04249738 -0.3310594 0.9967931 -0.005156377 -0.07985391 -0.5062963 0.1423402 0.8505312 0.6282668 0.6096262 0.4833599 0.7199183 0.5089407 0.4719076 0.6497741 -0.05047281 0.7584497 0.617773 0.3044002 0.7250497 0.1274084 0.2617182 0.9566978 0.1265846 0.03069352 0.9914808 0.5919883 0.03832861 0.8050346 0.6062173 0.008199434 0.7952569 -0.03647988 -0.07001071 0.996879 0.02085895 -0.0131736 0.9996957 0.6418674 0.2521797 0.7241627 0.5954348 0.1337626 0.7921898 -0.00673851 0.1390038 0.9902688 -0.01766921 0.2253793 0.9741108 0.9644794 0.08330017 0.2506802 0.7962445 0.1663606 0.5816519 0.7471958 0.2693378 0.6075817 0.4259982 -0.1743901 0.8877576 0.429664 -0.3396417 0.8366793 0.4905151 -0.2849682 0.8235217 0.6004693 -0.1083678 0.7922708 0.8270131 -0.1960757 0.526881 0.696848 -0.1295029 0.7054303 0.08359525 -0.02576065 0.9961668 0.6120324 -0.09201538 0.7854613 -0.2166454 -0.06993179 0.9737424 -0.2310182 -0.2576424 0.9382169 -0.4145889 -0.1099961 0.9033365 0.9327513 -0.1651296 -0.3204798 0.8919007 0.1291019 0.433412 0.6523298 -0.2331958 0.7211696 0.6240054 0.3580339 0.6945712 0.6646673 -0.09689553 0.7408296 0.6883598 -0.05049961 0.7236094 0.7295542 0.01018884 0.683847 0.7605941 0.08093237 0.6441634 0.7653519 0.2333024 0.5998387 0.09776788 0.5019572 0.8593489 0.04714749 0.4280068 0.9025449 0.4489172 0.5958457 0.6659139 0.3697467 0.6096061 0.7011903 0.1699736 0.480101 0.8605882 0.6189252 -0.1862944 0.7630373 0.7987693 0.4023828 0.4472756 0.3688656 0.676697 0.6371964 0.4940806 0.6492739 0.5782107 0.6997558 0.01735461 0.7141713 0.5304322 -0.02245983 0.8474298 0.9216886 -0.1653083 0.350946 0.9723684 0.1145189 0.2034332 0.9289325 0.02287557 0.3695417 0.8708104 0.4874165 0.06414357 0.8573326 0.5115658 0.05728339 0.9623026 0.2660876 -0.05631348 0.9231673 0.2731991 0.2704152 0.660978 0.6714431 0.3350706 0.5031348 0.5122818 0.6960046 0.1377154 0.4954395 0.8576561 -0.1798899 0.4194709 0.8897662 0.2967358 0.6108193 0.7340624 0.5882418 0.002783943 0.8086804 0.5606092 0.1054799 0.8213352 0.5606943 -0.3119223 0.7670243 0.5131474 -0.4406712 0.7365384 0.366589 -0.1514886 0.9179671 0.3257805 0.01540518 0.9453199 -0.3989566 0.009294702 0.9169228 -0.2999125 -0.008376227 0.9539298 -0.2146385 0.6389707 0.738679 0.3226259 0.6478695 0.6900562 0.4797617 0.1837116 0.8579503 0.4786291 0.1059715 0.8715987 0.45872 -0.3122012 0.8319293 0.4610627 -0.1859843 0.8676584 0.9636332 0.07282484 0.2571138 0.9471586 0.2643679 0.1816592 0.8794504 0.4595196 0.1241322 0.876769 0.4014341 0.2648142 0.5612255 0.6928715 0.4527195 -0.0104106 0.5801397 0.8144505 -0.2976066 -0.01231903 0.9546092 -0.4379341 0.2627369 0.8597574 -0.2575729 0.07468057 0.9633685 0.5060229 0.10209 0.8564569 0.9151768 0.4021851 0.02643081 0.8105131 0.284319 -0.5120854 0.6777526 0.5299889 -0.5096697 0.7906842 0.6122241 0 0.7379041 0.4240392 -0.5250603 0.6274964 0.5959657 -0.501072 0.8461143 0.06264685 0.5293071 0.8343565 0.2524414 0.490023 0.8572212 -0.1331221 0.4974437 0.5365713 0.6494893 0.5387531 0.9892844 -0.06765186 0.1293814 0.9890803 0.1353771 0.05825274 0.8601448 0.3052038 0.4086584 0.8728817 0.0528578 0.4850605 0.263099 -0.05839833 0.9629997 0.1930031 0.1616664 0.9677881 0.08576235 -0.04221235 0.995421 0.1170191 -0.2546716 0.9599214 0.5761183 0.02127298 0.8170894 0.5348301 -0.3047609 0.7880847 0.4254043 0.2923462 0.8564841 0.4745651 0.5617284 0.6776792 0.4370133 0.6858028 0.581974 0.02833795 0.5275299 0.8490637 -0.06812225 0.3210087 0.9446231 -0.07893722 0.08598083 0.9931647 0.02844358 0.3704228 0.9284276 0.08783394 0.5966858 0.7976535 -0.2300167 -0.1829273 0.9558398 0.4482323 -0.1487968 0.8814461 0.3491262 0.05352996 0.9355454 0.7530959 0.4596765 0.4706846 0.6890148 0.5884497 0.4230669 0.4511408 0.8008426 0.3938569 0.4848139 0.8724 -0.06224063 0.4575824 0.7592396 -0.4627885 0.7022691 0.674472 0.2278281 0.7375417 0.6721891 -0.0647603 0.9896252 0.1107111 -0.09157024 0.741963 0.6032793 -0.2924803 0.9775808 -0.2019836 -0.05948382 0.9779773 -0.1997513 -0.06049756 0.9890568 0.1348667 -0.05981334 0.9693177 0.14335 -0.1996851 0.9378454 -0.1352213 -0.3196265 0.9893397 -0.1332072 -0.05884737 0.9619601 -0.1210222 -0.2449211 0.4155825 -0.1145514 0.9023132 0.9635651 0.0462557 -0.263444 0.5756146 -0.06031525 0.8154936 0.2719136 -0.06203721 0.9603199 -0.114446 0.01931488 0.9932417 0.65663 -0.05967712 0.7518483 0.9196081 -0.03121072 0.3915954 0.9724055 -0.007973034 -0.2331609 0.7571626 0 0.6532264 0.8535561 -0.08211856 0.5144886 0.9025796 0.01772733 0.4301579 -0.5643577 -0.1944663 0.8022987 -0.4649377 0 0.8853433 0.9094594 0.1052049 -0.4022629 0.9669906 0.1777868 -0.1825403 -0.1904064 0.09837438 0.9767638 -0.2921375 -0.2277885 0.9288532 0.2843527 -0.1535351 0.9463459 0.3910015 0.03949394 0.9195422 0.772009 0.04164148 0.6342462 0.699652 -0.05093895 0.7126656 0.3079241 0.005680954 0.9513939 0.5396032 -0.05453264 0.8401515 0.6020724 0.01554991 0.7982902 -0.3469194 0.01325086 0.9378012 0.9838476 -0.03450999 0.1756497 0.9996257 -0.02691953 -0.004879903 0.4806815 -0.01496949 0.8767675 -0.6718801 0.08874515 0.735324 0.9668781 0.2075324 -0.148583 0.8564759 0.3806818 -0.348612 0.343731 0.9303725 -0.1274993 0.4093761 0.908195 -0.08713838 0.5543926 0.2718577 0.7866017 0.2029251 0.1036806 0.9736897 0.06263841 0.9063384 0.4178841 0.1461414 0.9284918 0.3413878 -0.04602125 0.2573458 0.9652229 -0.3008693 0.07853128 0.9504265 -0.1813466 0.9042733 0.3865273 -0.09764241 0.9208528 0.3774864 0.7484402 0.424853 0.5092514 0.7078298 0.2898097 0.6441951 0.2345742 0.9391827 0.2508202 0.2846041 0.9397316 0.1894862 0.8736176 0.4261612 -0.2349014 0.9062822 0.4223773 -0.0158076 0.3440787 0.9389341 -0.003550079 0.3268327 0.9409901 -0.08785231 0.8533024 0.2593271 0.4523545 0.8668721 0.2488324 0.4319897 0.3387917 0.9260031 0.1665487 0.3270392 0.9294268 0.1709126 0.9640042 0.1575311 0.2141959 0.7986643 0.2738379 0.535862 0.2351456 0.945841 0.2238108 0.3183224 0.941224 0.1129968 -0.4959238 0.09491107 0.8631637 -0.2641949 0.9102351 0.3188622 -0.2134966 0.9170137 0.3369047 0.8278404 0.4284711 -0.3620673 0.3061664 0.9446745 -0.117696 0.1833657 0.8932271 0.4105147 -0.08840507 0.8474726 0.5234258 0.7915585 0.2678005 0.5492886 0.6921173 0.1544857 0.7050588 0.3156272 0.9313446 0.1815947 0.369671 0.9243982 0.09397528 0.4702065 0.3831974 0.7950254 0.429395 0.5098729 0.745419 0.1850117 0.935669 0.3004897 0.1941515 0.9366568 0.2915118 0.5437391 0.2535659 0.8000326 0.219624 0.9265788 0.3053148 0.9672384 0.199712 0.1567328 0.4750203 0.8700967 0.1314815 0.346838 0.8519944 0.3921847 -0.02503472 0.9988559 0.04074363 0 0.9999999 0 0 0.9999999 0 -0.007265511 0.999387 0.03424725 0 1 0 0 0.9999999 0 0 0.9999999 0 0 0.9999999 0 0 0.9999999 0 -0.02655951 0.9996392 0.003999736 -0.01629653 0.9996667 -0.02002347 0.01027398 0.9996589 -0.02400851 -0.04162626 0.9990321 0.01421166 0.04947357 0.9985358 -0.02187565 0.01237173 0.9999084 -0.005470403 -0.04759565 0.9987526 0.01509217 -0.08365691 0.9954471 0.04567771 -0.09905559 0.9950365 -0.009502 0.07628576 0.9961687 -0.04275909 0.0754719 0.9916391 -0.1046693 0.8207165 -0.2557764 0.5108844 0.6938242 -0.2760004 0.6651555 0.9853795 0.02085245 -0.1690928 0.8976831 0.3170648 -0.3059984 0.881304 0.374655 -0.2879879</float_array>
          <technique_common>
            <accessor source="#polySurfaceShape69-normals-array" count="347" stride="3">
              <param name="X" type="float"/>
              <param name="Y" type="float"/>
              <param name="Z" type="float"/>
            </accessor>
          </technique_common>
        </source>
        <source id="polySurfaceShape69-map1" name="polySurfaceShape69-map1">
          <float_array id="polySurfaceShape69-map1-array" count="746">1.014989 0.48377 1.046081 0.478011 1.058188 0.541773 1.029801 0.547545 0.954446 0.229911 0.975076 0.230398 0.991421 0.290815 0.96487 0.294177 0.416376 0.504645 0.462284 0.506206 0.468611 0.571701 0.421834 0.570909 0.342946 0.253119 0.383286 0.252394 0.419671 0.295456 0.32091 0.29875 0.33801 0.128821 0.380972 0.118448 0.379711 0.186995 0.331119 0.193343 0.904579 0.063963 0.937166 0.064994 0.942541 0.104601 0.90439 0.104533 0.626992 0.507342 0.671248 0.505641 0.669266 0.571636 0.612743 0.573216 0.661846 0.257855 0.695886 0.259057 0.696555 0.322455 0.646394 0.320418 0.658895 0.198982 0.651781 0.105567 0.69974 0.134952 0.101006 0.488328 0.152176 0.492725 0.157589 0.559103 0.084418 0.553633 0.080851 0.299957 0.070838 0.232856 0.106065 0.239756 0.165393 0.103715 0.204328 0.189518 0.131295 0.173562 -0.04417 0.490588 0.025329 0.476735 0.003691 0.540844 -0.058048 0.532637 -0.074239 0.278726 -0.062929 0.216355 -0.014362 0.220946 -0.020649 0.282432 -0.091528 -0.003729 -0.044773 -0.012311 -0.041938 0.058806 -0.092327 0.07189 0.232159 0.496159 0.313152 0.500322 0.308477 0.564893 0.239986 0.56018 0.291797 0.251446 0.288036 0.186305 0.280882 0.118996 0.50135 0.507075 0.507366 0.571285 0.489388 0.249367 0.544585 0.258708 0.549844 0.290833 0.488696 0.296104 0.879121 0.497017 0.926775 0.56024 0.877011 0.563241 0.877111 0.248104 0.925759 0.233523 0.931984 0.300209 0.882727 0.310471 0.794885 0.119297 0.837428 0.099889 0.858764 0.136134 0.801873 0.170007 -0.042048 0.407937 0.023969 0.354031 0.017382 0.415959 0.097118 0.365029 0.172082 0.372108 0.16929 0.433761 0.095969 0.428138 0.244846 0.374633 0.317411 0.37657 0.315214 0.443039 0.246327 0.441274 0.429157 0.446627 0.477486 0.416599 0.473631 0.448012 0.510346 0.448328 0.603944 0.38576 0.649549 0.382877 0.660738 0.446166 0.61737 0.448603 0.879601 0.436607 0.885169 0.404338 0.922614 0.368014 0.925638 0.431191 0.99006 0.352287 -0.080009 0.340911 1.035181 0.421496 1.073114 0.339783 1.084202 0.406771 -0.146805 0.482114 -0.096355 0.488231 -0.108961 0.529581 -0.150421 0.525685 0.975526 0.555842 0.748082 0.12051 0.709293 0.193001 0.742806 0.324955 0.741477 0.267131 0.808431 0.262471 0.812789 0.321928 0.770208 0.445335 0.760266 0.384156 0.831964 0.378762 0.822948 0.44233 0.776604 0.570814 0.77382 0.504669 0.824984 0.502544 0.827161 0.569042 0.1775 0.313039 0.248029 0.314701 0.31961 0.3158 0.488471 0.356986 0.492034 0.384624 0.427718 0.378405 0.427714 0.34827 0.6093 0.358139 0.646879 0.355541 0.82502 0.349975 0.764619 0.35411 0.874226 0.345225 1.00562 0.426443 0.960747 0.427966 -0.093651 0.406253 0.344442 0.567464 0.386197 0.442237 0.42615 0.317653 0.709043 0.353969 0.710258 0.384514 0.71337 0.445884 0.716702 0.504423 0.719639 0.569642 0.42896 0.172825 0.449024 0.085672 0.506563 0.0737 0.490933 0.162997 0.436192 0.242762 0.548758 0.356805 0.61097 0.295723 0.602826 0.091682 0.589369 0.185788 0.367938 0.502486 0.379221 0.568982 0.584638 0.452324 0.58083 0.57282 0.587862 0.50886 -0.097408 0.146814 -0.055109 0.152735 -0.105781 0.20991 0.179273 0.25394 0.602382 0.257447 0.758611 0.235895 0.805853 0.219386 0.850018 0.221021 0.953289 0.16491 0.557045 0.509134 0.555365 0.572664 0.558463 0.453459 0.547623 0.379943 1.098312 0.488962 1.106749 0.530821 0.940165 0.490458 0.980501 0.487005 0.897898 0.169144 0.547132 0.11931 0.604585 0.024665 0.548826 0.031089 0.547989 -0.001775 0.609327 -0.005553 0.669786 0.005855 0.655362 0.032162 0.712465 0.058906 0.711725 0.030304 0.745868 0.036734 0.79439 0.035981 0.83428 0.021435 0.840082 0.038074 0.891734 0.01057 0.933577 0.004601 0.05248 -0.034256 0.101784 -0.019408 0.085635 0.031587 0.051513 0.030728 0.147026 0.014156 0.135285 0.083642 0.240809 0.037807 0.19885 0.027658 0.24167 0.019131 0.237741 0.103436 0.29316 0.024959 0.289084 0.041936 0.341035 0.060563 0.342468 0.042457 0.380768 0.038606 0.383975 0.055096 0.439034 0.037768 0.432414 0.018978 0.505954 0.026349 0.502208 0.006016 0.980967 0.018426 0.98914 0.076891 0.981971 0.12102 1.049003 0.152845 1.05659 0.216213 1.064686 0.279669 1.028248 -0.003026 1.040917 0.073815 0.886018 -0.004456 0.934843 -0.00981 0.98107 4.76e-4 -0.002686 -0.033273 -8.34e-4 0.029626 -0.002144 0.102292 0.047005 0.101906 0.090992 0.098643 -0.007869 0.157264 0.042087 0.160873 0.035411 0.226147 0.087912 0.16662 -0.12087 0.334758 -0.134501 0.399967 -0.115009 0.273574 0.024216 0.287425 -0.101603 0.434341 -0.138401 0.429293 -0.049901 0.435982 1.091964 0.436257 -0.113675 0.585268 0.456786 0.630664 0.510674 0.632735 0.834185 0.611452 0.233351 0.605656 0.157134 0.595085 0.080047 0.583066 0.332317 0.619152 0.295243 0.617244 0.670816 0.624689 0.982592 0.603808 0.933199 0.606715 -0.002903 0.596808 -0.06397 0.59084 1.053139 0.654794 1.035261 0.595495 1.07185 0.598168 1.078814 0.648548 0.718397 0.61902 0.411485 0.626264 0.37193 0.620783 0.55385 0.636062 0.771622 0.614288 0.895836 0.612599 0.581654 0.635782 0.609048 0.631886 1.130122 0.623189 1.017284 0.661816 -0.162213 0.621491 -0.122218 0.629483 -0.12525 0.648448 -0.163788 0.638271 0.465423 0.674843 0.506133 0.676711 0.499552 0.692984 0.460928 0.692846 0.833628 0.659279 0.887008 0.668054 0.888243 0.683841 0.83153 0.677753 0.150459 0.664623 0.234063 0.668057 0.23304 0.687401 0.152337 0.684372 -0.009402 0.648263 0.074124 0.658121 0.067425 0.67677 -0.012601 0.667606 0.302197 0.669811 0.338337 0.671528 0.342796 0.690486 0.306719 0.687681 0.610805 0.677315 0.669434 0.688718 0.671251 0.707756 0.611088 0.696308 0.938478 0.66104 1.014917 0.677744 0.936754 0.678507 -0.072653 0.643549 -0.074994 0.663573 1.086473 0.662307 1.058305 0.670977 0.720471 0.687842 0.778993 0.661991 0.778276 0.680923 0.722043 0.705953 0.375157 0.673569 0.418306 0.671215 0.416624 0.689224 0.375014 0.693108 0.553898 0.67516 0.552214 0.692265 0.577839 0.675301 0.577286 0.692814 1.141231 0.636554 0.996705 1.088149 0.976766 1.054565 1.140725 0.911758 0.923664 0.9566 0.87925 0.887535 0.92461 0.791951 0.994865 0.818406 0.962895 1.004948 1.075865 0.861393 0.797681 0.850863 0.826824 0.744881 0.717998 0.870078 0.705272 0.762047 0.646284 0.870486 0.613024 0.85525 0.647339 0.750541 0.676231 0.76524 0.577933 0.85219 0.591956 0.741866 0.497775 0.876539 0.468318 0.901188 0.423448 0.779676 0.481295 0.768362 0.542125 0.874389 0.543905 0.751501 0.425521 0.92509 0.394271 0.799148 0.064891 1.089242 0.006509 1.09296 -0.138107 0.917062 -0.059005 0.856724 0.104685 1.038216 0.08581 1.073944 0.09888 0.959441 0.405726 0.920852 0.383511 0.897279 0.159456 0.870552 0.133411 0.922408 -0.005449 0.812952 0.07743 0.784543 0.326204 0.873076 0.311568 0.744109 0.275798 0.868474 0.215474 0.854461 0.159745 0.726509 0.248561 0.734674 0.152192 0.6387 0.235595 0.644608 0.078183 0.607686 -0.007542 0.631167 -0.069656 0.621858</float_array>
          <technique_common>
            <accessor source="#polySurfaceShape69-map1-array" count="373" stride="2">
              <param name="S" type="float"/>
              <param name="T" type="float"/>
            </accessor>
          </technique_common>
        </source>
        <vertices id="polySurfaceShape69-vertices" name="polySurfaceShape69-vertices">
          <input semantic="POSITION" source="#polySurfaceShape69-positions"/>
        </vertices>
        <triangles material="temp_lambert3SG" count="626">
          <input semantic="VERTEX" source="#polySurfaceShape69-vertices" offset="0"/>
          <input semantic="NORMAL" source="#polySurfaceShape69-normals" offset="1"/>
          <input semantic="TEXCOORD" source="#polySurfaceShape69-map1" offset="2" set="0"/>
          <p>200 0 0 201 1 1 220 3 3 220 3 3 201 1 1 230 2 2 206 4 4 138 5 5 205 7 7 205 7 7 138 5 5 139 6 6 187 8 8 188 9 9 224 11 11 224 11 11 188 9 9 212 10 10 82 12 12 83 13 13 120 15 15 120 15 15 83 13 13 119 14 14 127 17 17 67 18 18 126 16 16 126 16 16 67 18 18 21 19 19 112 20 20 136 21 21 173 23 23 173 23 23 136 21 21 172 22 22 193 25 25 223 26 26 192 24 24 192 24 24 223 26 26 217 27 27 87 29 29 42 30 30 86 28 28 86 28 28 42 30 30 69 31 31 70 32 32 108 33 33 109 34 34 182 35 35 183 36 36 233 38 38 233 38 38 183 36 36 214 37 37 176 39 39 169 40 40 168 41 41 114 42 42 15 43 43 164 44 44 181 46 46 215 47 47 180 45 45 180 45 45 215 47 47 219 48 48 175 49 49 166 50 50 177 52 52 177 52 52 166 50 50 167 51 51 54 54 54 160 55 55 0 53 53 0 53 53 160 55 55 6 56 56 184 57 57 185 58 58 234 60 60 234 60 60 185 58 58 216 59 59 121 61 61 82 12 12 120 15 15 21 19 19 122 62 62 126 16 16 126 16 16 122 62 62 123 63 63 188 9 9 189 64 64 212 10 10 212 10 10 189 64 64 225 65 65 84 66 66 154 67 67 8 69 69 8 69 69 154 67 67 155 68 68 197 70 70 218 71 71 227 72 72 89 74 74 26 75 75 100 73 73 100 73 73 26 75 75 99 76 76 143 78 78 171 79 79 111 77 77 111 77 77 171 79 79 12 80 80 38 81 81 36 82 82 29 83 83 44 85 85 30 86 86 178 84 84 178 84 84 30 86 86 95 87 87 130 88 88 45 89 89 96 91 91 96 91 91 45 89 89 31 90 90 71 92 92 72 93 93 32 94 94 72 93 93 73 95 95 32 94 94 47 96 96 65 97 97 33 99 99 33 99 99 65 97 97 66 98 98 75 100 100 105 101 101 35 103 103 35 103 103 105 101 101 37 102 102 205 7 7 139 6 6 140 104 104 174 105 105 177 52 52 36 82 82 92 106 106 342 107 107 341 108 108 179 110 110 231 111 111 236 109 109 236 109 109 231 111 111 237 112 112 232 113 113 200 0 0 220 3 3 111 77 77 12 80 80 110 114 114 110 114 114 12 80 80 41 115 115 97 116 116 98 117 117 11 119 119 11 119 119 98 117 117 88 118 118 74 120 120 78 121 121 34 123 123 34 123 123 78 121 121 49 122 122 195 125 125 196 126 126 226 124 124 226 124 124 196 126 126 213 127 127 176 39 39 14 128 128 178 84 84 178 84 84 14 128 128 44 85 85 131 129 129 20 130 130 130 88 88 130 88 88 20 130 130 45 89 89 46 132 132 62 133 133 63 131 131 63 131 131 62 133 133 159 134 134 47 96 96 64 135 135 65 97 97 65 97 97 64 135 135 158 136 136 76 137 137 79 138 138 11 119 119 11 119 119 79 138 138 97 116 116 101 139 139 99 76 76 37 102 102 37 102 102 99 76 76 26 75 75 37 102 102 39 140 140 94 141 141 174 105 105 38 81 81 93 142 142 185 58 58 235 143 143 216 59 59 45 89 89 62 133 133 61 144 144 68 145 145 159 134 134 20 130 130 20 130 130 159 134 134 45 89 89 69 31 31 42 30 30 158 136 136 158 136 136 42 30 30 77 146 146 65 97 97 48 147 147 66 98 98 66 98 98 48 147 147 43 148 148 223 26 26 193 25 25 221 150 150 221 150 150 193 25 25 194 149 149 117 151 151 128 152 152 10 154 154 10 154 154 128 152 152 129 153 153 119 14 14 83 13 13 118 155 155 63 131 131 8 69 69 156 156 156 156 156 156 8 69 69 155 68 68 23 157 157 86 28 28 69 31 31 107 158 158 108 33 33 24 159 159 24 159 159 108 33 33 70 32 32 186 160 160 187 8 8 222 161 161 222 161 161 187 8 8 224 11 11 46 132 132 72 93 93 62 133 133 62 133 133 72 93 93 71 92 92 91 162 162 47 96 96 33 99 99 229 163 163 191 164 164 217 27 27 217 27 27 191 164 164 192 24 24 194 149 149 195 125 125 221 150 150 221 150 150 195 125 125 226 124 124 197 70 70 227 72 72 196 126 126 196 126 126 227 72 72 213 127 127 76 137 137 101 139 139 49 122 122 49 122 122 101 139 139 37 102 102 49 122 122 78 121 121 76 137 137 76 137 137 78 121 121 79 138 138 158 136 136 77 146 146 65 97 97 65 97 97 77 146 146 48 147 147 48 147 147 78 121 121 43 148 148 43 148 148 78 121 121 74 120 120 79 138 138 78 121 121 77 146 146 77 146 146 78 121 121 48 147 147 49 122 122 105 101 101 34 123 123 34 123 123 105 101 101 75 100 100 2 165 165 162 166 166 5 167 167 5 167 167 162 166 166 166 50 50 168 41 41 164 44 44 81 168 168 81 168 168 164 44 44 15 43 43 122 62 62 21 19 19 121 61 61 121 61 61 21 19 19 82 12 12 21 19 19 67 18 18 82 12 12 82 12 12 67 18 18 83 13 13 83 13 13 67 18 18 118 155 155 118 155 155 67 18 18 117 151 151 24 159 159 154 67 67 10 154 154 10 154 154 154 67 67 84 66 66 24 159 159 70 32 32 85 169 169 85 169 169 70 32 32 86 28 28 86 28 28 41 115 115 87 29 29 98 117 117 103 170 170 88 118 118 88 118 118 103 170 170 102 171 171 102 171 171 104 172 172 88 118 118 88 118 118 104 172 172 100 73 73 206 4 4 137 173 173 138 5 5 189 64 64 190 174 174 225 65 65 225 65 65 190 174 174 228 175 175 228 175 175 190 174 174 229 163 163 229 163 163 190 174 174 191 164 164 90 176 176 157 177 177 47 96 96 90 176 176 47 96 96 91 162 162 201 1 1 202 178 178 230 2 2 230 2 2 202 178 178 211 179 179 180 45 45 219 48 48 179 110 110 179 110 110 219 48 48 231 111 111 199 181 181 232 113 113 198 180 180 198 180 180 232 113 113 218 71 71 182 35 35 233 38 38 181 46 46 181 46 46 233 38 38 215 47 47 183 36 36 184 57 57 214 37 37 214 37 37 184 57 57 234 60 60 87 29 29 98 117 117 42 30 30 42 30 30 98 117 117 97 116 116 100 73 73 99 76 76 88 118 118 88 118 118 99 76 76 11 119 119 99 76 76 101 139 139 11 119 119 11 119 119 101 139 139 76 137 137 79 138 138 77 146 146 97 116 116 97 116 116 77 146 146 42 30 30 102 171 171 103 170 170 12 80 80 12 80 80 103 170 170 41 115 115 27 182 182 89 74 74 104 172 172 104 172 172 89 74 74 100 73 73 98 117 117 87 29 29 103 170 170 103 170 170 87 29 29 41 115 115 27 182 182 104 172 172 12 80 80 12 80 80 104 172 172 102 171 171 49 122 122 37 102 102 105 101 101 37 102 102 94 141 141 35 103 103 37 102 102 140 104 104 39 140 140 24 159 159 106 183 183 107 158 158 70 32 32 109 34 34 41 115 115 106 183 183 10 154 154 129 153 153 134 184 184 135 185 185 25 187 187 25 187 187 135 185 185 56 186 186 57 188 188 133 189 189 25 187 187 25 187 187 133 189 189 134 184 184 132 190 190 133 189 189 58 191 191 58 191 191 133 189 189 57 188 188 41 115 115 109 34 34 110 114 114 109 34 34 132 190 190 110 114 114 110 114 114 132 190 190 40 192 192 40 192 192 13 193 193 110 114 114 110 114 114 13 193 193 111 77 77 13 193 193 142 194 194 144 195 195 146 197 197 136 21 21 145 196 196 145 196 196 136 21 21 112 20 20 24 159 159 10 154 154 106 183 183 19 198 198 52 199 199 113 201 201 113 201 201 52 199 199 115 200 200 210 203 203 115 200 200 16 202 202 16 202 202 115 200 200 52 199 199 153 204 204 55 205 205 51 206 206 114 42 42 116 207 207 15 43 43 84 66 66 118 155 155 10 154 154 10 154 154 118 155 155 117 151 151 68 145 145 119 14 14 8 69 69 120 15 15 119 14 14 20 130 130 20 130 130 119 14 14 68 145 145 131 129 129 120 15 15 20 130 130 122 62 62 121 61 61 15 43 43 15 43 43 121 61 61 81 168 168 15 43 43 116 207 207 122 62 62 122 62 62 116 207 207 123 63 63 153 204 204 51 206 206 152 209 209 152 209 209 51 206 206 124 208 208 67 18 18 127 17 17 117 151 151 117 151 151 127 17 17 128 152 152 152 209 209 124 208 208 151 210 210 151 210 210 124 208 208 22 211 211 50 212 212 150 213 213 22 211 211 22 211 211 150 213 213 151 210 210 149 214 214 150 213 213 125 215 215 125 215 215 150 213 213 50 212 212 148 216 216 149 214 214 9 217 217 9 217 217 149 214 214 125 215 215 148 216 216 9 217 217 135 185 185 135 185 185 9 217 217 56 186 186 30 86 86 130 88 88 96 91 91 14 128 128 131 129 129 44 85 85 44 85 85 131 129 129 130 88 88 109 34 34 108 33 33 132 190 190 132 190 190 108 33 33 133 189 189 134 184 184 133 189 189 107 158 158 107 158 158 133 189 189 108 33 33 106 183 183 135 185 185 107 158 158 107 158 158 135 185 185 134 184 184 8 69 69 118 155 155 84 66 66 85 169 169 86 28 28 23 157 157 70 32 32 41 115 115 86 28 28 146 197 197 147 218 218 136 21 21 136 21 21 147 218 218 141 219 219 170 220 220 172 22 22 141 219 219 141 219 219 172 22 22 136 21 21 137 173 173 340 221 221 138 5 5 138 5 5 340 221 221 343 222 222 138 5 5 343 222 222 139 6 6 139 6 6 343 222 222 339 223 223 140 104 104 139 6 6 342 107 107 342 107 107 139 6 6 339 223 223 39 140 140 140 104 104 92 106 106 92 106 106 140 104 104 342 107 107 141 219 219 147 218 218 344 225 225 344 225 225 147 218 218 338 224 224 137 173 173 170 220 220 340 221 221 145 196 196 112 20 20 144 195 195 144 195 195 112 20 20 143 78 78 27 182 182 171 79 79 173 23 23 160 55 55 162 166 166 6 56 56 6 56 56 162 166 166 2 165 165 142 194 194 28 226 226 144 195 195 144 195 195 28 226 226 145 196 196 59 227 227 146 197 197 28 226 226 28 226 226 146 197 197 145 196 196 146 197 197 59 227 227 147 218 218 147 218 218 59 227 227 60 228 228 106 183 183 129 153 153 135 185 185 135 185 185 129 153 153 148 216 216 128 152 152 149 214 214 129 153 153 129 153 153 149 214 214 148 216 216 127 17 17 150 213 213 128 152 152 128 152 152 150 213 213 149 214 214 150 213 213 127 17 17 151 210 210 151 210 210 127 17 17 126 16 16 126 16 16 123 63 63 151 210 210 151 210 210 123 63 63 152 209 209 153 204 204 152 209 209 116 207 207 116 207 207 152 209 209 123 63 63 24 159 159 85 169 169 154 67 67 154 67 67 85 169 169 155 68 68 155 68 68 85 169 169 23 157 157 64 135 135 156 156 156 23 157 157 23 157 157 156 156 156 155 68 68 73 95 95 46 132 132 157 177 177 157 177 177 46 132 132 156 156 156 156 156 156 46 132 132 63 131 131 64 135 135 47 96 96 156 156 156 156 156 156 47 96 96 157 177 177 73 95 95 72 93 93 46 132 132 73 95 95 157 177 177 90 176 176 158 136 136 64 135 135 69 31 31 69 31 31 64 135 135 23 157 157 159 134 134 68 145 145 63 131 131 63 131 131 68 145 145 8 69 69 160 55 55 54 54 54 161 230 230 161 230 230 54 54 54 53 229 229 53 229 229 19 198 198 161 230 230 161 230 230 19 198 198 113 201 201 209 231 231 161 230 230 208 232 232 208 232 232 161 230 230 113 201 201 209 231 231 160 55 55 161 230 230 207 233 233 115 200 200 210 203 203 115 200 200 207 233 233 113 201 201 113 201 201 207 233 233 208 232 232 167 51 51 163 234 234 80 236 236 80 236 236 163 234 234 18 235 235 166 50 50 162 166 166 167 51 51 167 51 51 162 166 166 163 234 234 169 40 40 165 237 237 168 41 41 168 41 41 165 237 237 164 44 44 18 235 235 165 237 237 80 236 236 80 236 236 165 237 237 169 40 40 141 219 219 344 225 225 170 220 220 170 220 220 344 225 225 340 221 221 12 80 80 171 79 79 27 182 182 173 23 23 172 22 22 27 182 182 27 182 182 172 22 22 137 173 173 137 173 173 172 22 22 170 220 220 171 79 79 143 78 78 173 23 23 173 23 23 143 78 78 112 20 20 121 61 61 131 129 129 81 168 168 81 168 168 131 129 129 14 128 128 174 105 105 93 142 142 4 238 238 4 238 238 93 142 142 3 239 239 175 49 49 174 105 105 1 240 240 1 240 240 174 105 105 4 238 238 5 167 167 166 50 50 1 240 240 1 240 240 166 50 50 175 49 49 174 105 105 36 82 82 38 81 81 17 241 241 176 39 39 36 82 82 80 236 236 169 40 40 17 241 241 17 241 241 169 40 40 176 39 39 177 52 52 167 51 51 17 241 241 17 241 241 167 51 51 80 236 236 36 82 82 177 52 52 17 241 241 175 49 49 177 52 52 174 105 105 36 82 82 178 84 84 29 83 83 29 83 83 178 84 84 95 87 87 176 39 39 178 84 84 36 82 82 176 39 39 168 41 41 14 128 128 14 128 128 168 41 41 81 168 168 93 142 142 204 242 242 3 239 239 3 239 239 204 242 242 7 243 243 38 81 81 203 244 244 93 142 142 93 142 142 203 244 244 204 242 242 203 244 244 181 46 46 180 45 45 29 83 83 95 87 87 181 46 46 181 46 46 95 87 87 182 35 35 30 86 86 183 36 36 95 87 87 95 87 87 183 36 36 182 35 35 96 91 91 184 57 57 30 86 86 30 86 86 184 57 57 183 36 36 31 90 90 185 58 58 96 91 91 96 91 91 185 58 58 184 57 57 61 144 144 186 160 160 31 90 90 31 90 90 186 160 160 185 58 58 71 92 92 187 8 8 61 144 144 61 144 144 187 8 8 186 160 160 32 94 94 188 9 9 71 92 92 71 92 92 188 9 9 187 8 8 73 95 95 189 64 64 32 94 94 32 94 94 189 64 64 188 9 9 189 64 64 73 95 95 190 174 174 190 174 174 73 95 95 90 176 176 191 164 164 190 174 174 91 162 162 91 162 162 190 174 174 90 176 176 192 24 24 191 164 164 33 99 99 33 99 99 191 164 164 91 162 162 33 99 99 66 98 98 192 24 24 192 24 24 66 98 98 193 25 25 194 149 149 193 25 25 43 148 148 43 148 148 193 25 25 66 98 98 195 125 125 194 149 149 74 120 120 74 120 120 194 149 149 43 148 148 195 125 125 74 120 120 196 126 126 196 126 126 74 120 120 34 123 123 75 100 100 197 70 70 34 123 123 34 123 123 197 70 70 196 126 126 75 100 100 35 103 103 197 70 70 35 103 103 94 141 141 198 180 180 198 180 180 94 141 141 199 181 181 94 141 141 200 0 0 199 181 181 39 140 140 92 106 106 200 0 0 200 0 0 92 106 106 201 1 1 201 1 1 345 245 245 202 178 178 204 242 242 203 244 244 179 110 110 179 110 110 203 244 244 180 45 45 7 243 243 204 242 242 236 109 109 236 109 109 204 242 242 179 110 110 38 81 81 29 83 83 203 244 244 203 244 244 29 83 83 181 46 46 92 106 106 341 108 108 345 245 245 92 106 106 345 245 245 201 1 1 94 141 141 39 140 140 200 0 0 199 181 181 200 0 0 232 113 113 197 70 70 35 103 103 198 180 180 197 70 70 198 180 180 218 71 71 40 192 192 132 190 190 58 191 191 144 195 195 143 78 78 13 193 193 13 193 193 143 78 78 111 77 77 55 205 205 153 204 204 114 42 42 114 42 42 153 204 204 116 207 207 338 224 224 147 218 218 60 228 228 205 7 7 140 104 104 26 75 75 26 75 75 140 104 104 37 102 102 89 74 74 206 4 4 26 75 75 26 75 75 206 4 4 205 7 7 27 182 182 137 173 173 89 74 74 89 74 74 137 173 173 206 4 4 45 89 89 61 144 144 31 90 90 44 85 85 130 88 88 30 86 86 62 133 133 71 92 92 61 144 144 235 143 143 186 160 160 222 161 161 185 58 58 186 160 160 235 143 143 208 232 232 207 233 233 18 235 235 18 235 235 207 233 233 165 237 237 163 234 234 209 231 231 18 235 235 18 235 235 209 231 231 208 232 232 163 234 234 160 55 55 209 231 231 16 202 202 55 205 205 210 203 203 210 203 203 55 205 205 114 42 42 165 237 237 210 203 203 164 44 44 164 44 44 210 203 203 114 42 42 210 203 203 165 237 237 207 233 233 162 166 166 160 55 55 163 234 234 131 129 129 121 61 61 120 15 15 8 69 69 119 14 14 118 155 155 45 89 89 159 134 134 62 133 133 237 112 112 231 111 111 332 246 246 322 247 247 225 65 65 321 248 248 213 127 127 227 72 72 314 249 249 234 60 60 333 250 250 214 37 37 214 37 37 333 250 250 334 251 251 215 47 47 233 38 38 335 252 252 235 143 143 325 253 253 216 59 59 216 59 59 325 253 253 326 254 254 217 27 27 223 26 26 317 255 255 218 71 71 232 113 113 312 257 257 312 257 257 232 113 113 311 256 256 219 48 48 215 47 47 337 259 259 337 259 259 215 47 47 336 258 258 309 261 261 310 262 262 254 260 260 254 260 260 310 262 262 255 263 263 221 150 150 226 124 124 316 264 264 224 11 11 323 265 265 222 161 161 222 161 161 323 265 265 324 266 266 221 150 150 316 264 264 223 26 26 223 26 26 316 264 264 317 255 255 224 11 11 322 247 247 323 265 265 228 175 175 320 267 267 225 65 65 225 65 65 320 267 267 321 248 248 226 124 124 213 127 127 315 268 268 315 268 268 213 127 127 314 249 249 313 269 269 218 71 71 312 257 257 228 175 175 229 163 163 320 267 267 320 267 267 229 163 163 319 270 270 229 163 163 217 27 27 318 271 271 310 262 262 346 272 272 255 263 263 332 246 246 219 48 48 337 259 259 311 256 256 309 261 261 252 273 273 252 273 273 309 261 261 254 260 260 233 38 38 214 37 37 335 252 252 335 252 252 214 37 37 334 251 251 216 59 59 326 254 254 234 60 60 234 60 60 326 254 254 333 250 250 325 253 253 222 161 161 324 266 266 306 274 274 238 275 275 307 277 277 307 277 277 238 275 275 262 276 276 240 279 279 264 280 280 239 278 278 239 278 278 264 280 280 263 281 281 242 283 283 266 284 284 241 282 282 241 282 282 266 284 284 265 285 285 244 287 287 268 288 288 243 286 286 243 286 286 268 288 288 267 289 289 246 291 291 270 292 292 245 290 290 245 290 290 270 292 292 269 293 293 247 294 294 248 295 295 271 297 297 271 297 297 248 295 295 272 296 296 249 298 298 250 299 299 273 301 301 273 301 301 250 299 299 274 300 300 252 273 273 276 303 303 251 302 302 251 302 302 276 303 303 275 304 304 245 290 290 269 293 293 253 305 305 253 305 305 269 293 293 277 306 306 254 260 260 255 263 263 278 308 308 278 308 308 255 263 263 279 307 307 257 310 310 281 311 311 256 309 309 256 309 309 281 311 311 280 312 312 259 314 314 283 315 315 258 313 313 258 313 313 283 315 315 282 316 316 256 309 309 280 312 312 250 299 299 250 299 299 280 312 312 274 300 300 259 314 314 239 278 278 283 315 315 283 315 315 239 278 278 263 281 281 260 317 317 284 318 318 240 279 279 240 279 279 284 318 318 264 280 280 241 282 282 265 285 285 257 310 310 257 310 310 265 285 285 281 311 311 242 283 283 251 302 302 266 284 284 266 284 284 251 302 302 275 304 304 261 319 319 285 320 320 260 317 317 260 317 317 285 320 320 284 318 318 261 319 319 249 298 298 285 320 320 285 320 320 249 298 298 273 301 301 255 263 263 346 272 272 279 307 307 279 307 307 346 272 272 286 321 321 238 275 275 253 305 305 262 276 276 262 276 276 253 305 305 277 306 306 254 260 260 278 308 308 252 273 273 252 273 273 278 308 308 276 303 303 243 286 286 267 289 289 246 291 291 246 291 291 267 289 289 270 292 292 244 287 287 247 294 294 268 288 288 268 288 288 247 294 294 271 297 297 248 295 295 258 313 313 272 296 296 272 296 296 258 313 313 282 316 316 307 277 322 262 276 323 308 322 324 269 293 325 270 292 326 287 324 328 287 324 328 270 292 326 288 323 327 277 306 329 269 293 325 289 325 330 289 325 330 269 293 325 287 324 328 262 276 323 277 306 329 308 322 324 308 322 324 277 306 329 289 325 330 270 292 326 267 289 331 288 323 327 288 323 327 267 289 331 290 326 332 268 288 333 291 327 334 267 289 331 267 289 331 291 327 334 290 326 332 271 297 335 272 296 336 292 329 338 292 329 338 272 296 336 293 328 337 271 297 335 292 329 338 268 288 333 268 288 333 292 329 338 291 327 334 282 316 339 294 330 340 272 296 336 272 296 336 294 330 340 293 328 337 264 280 342 296 331 343 263 281 341 263 281 341 296 331 343 295 332 344 283 315 345 297 333 346 282 316 339 282 316 339 297 333 346 294 330 340 263 281 341 295 332 344 283 315 345 283 315 345 295 332 344 297 333 346 284 318 347 298 334 348 264 280 342 264 280 342 298 334 348 296 331 343 279 307 349 286 321 350 299 336 352 299 336 352 286 321 350 300 335 351 279 307 349 299 336 352 278 308 354 276 303 353 278 308 354 299 336 352 275 304 355 276 303 353 299 336 352 284 318 347 285 320 356 298 334 348 285 320 356 273 301 357 298 334 348 265 285 358 266 284 359 301 338 361 301 338 361 266 284 359 302 337 360 273 301 357 274 300 362 298 334 348 298 334 348 274 300 362 303 339 363 280 312 364 281 311 365 304 341 367 304 341 367 281 311 365 305 340 366 274 300 362 280 312 364 303 339 363 303 339 363 280 312 364 304 341 367 266 284 359 275 304 355 302 337 360 302 337 360 275 304 355 299 336 352 281 311 365 265 285 358 305 340 366 305 340 366 265 285 358 301 338 361 220 3 3 230 2 2 309 261 261 309 261 261 230 2 2 310 262 262 230 2 2 211 179 179 310 262 262 251 302 302 311 256 256 252 273 273 220 3 3 309 261 261 232 113 113 232 113 113 309 261 261 311 256 256 251 302 302 313 269 269 312 257 257 314 249 249 242 283 283 241 282 282 314 249 249 241 282 282 315 268 268 315 268 268 241 282 282 257 310 310 316 264 264 257 310 310 256 309 309 316 264 264 256 309 309 317 255 255 317 255 255 256 309 309 250 299 299 249 298 298 317 255 255 250 299 299 261 319 319 318 271 271 249 298 298 319 270 270 261 319 319 320 267 267 320 267 267 261 319 319 260 317 317 321 248 248 320 267 267 240 279 279 240 279 279 320 267 267 260 317 317 322 247 247 321 248 248 240 279 279 323 265 265 239 278 278 259 314 314 324 266 266 323 265 265 258 313 313 258 313 313 323 265 265 259 314 314 325 253 253 258 313 313 248 295 295 326 254 254 325 253 253 247 294 294 247 294 294 325 253 253 248 295 295 244 287 287 326 254 254 247 294 294 328 342 368 327 343 369 243 286 286 243 286 286 327 343 369 244 287 287 329 344 370 328 342 368 246 291 291 246 291 291 328 342 368 243 286 286 329 344 370 246 291 291 330 345 371 330 345 371 246 291 291 245 290 290 331 346 372 330 345 371 253 305 305 253 305 305 330 345 371 245 290 290 332 246 246 331 346 372 238 275 275 238 275 275 331 346 372 253 305 305 306 274 274 332 246 246 238 275 275 237 112 112 332 246 246 306 274 274 312 257 257 311 256 256 251 302 302 242 283 283 313 269 269 251 302 302 313 269 269 227 72 72 218 71 71 314 249 249 227 72 72 313 269 269 314 249 249 313 269 269 242 283 283 316 264 264 315 268 268 257 310 310 316 264 264 226 124 124 315 268 268 318 271 271 317 255 255 249 298 298 217 27 27 317 255 255 318 271 271 322 247 247 240 279 279 239 278 278 212 10 10 225 65 65 322 247 247 319 270 270 318 271 271 261 319 319 229 163 163 318 271 271 319 270 270 323 265 265 322 247 247 239 278 278 224 11 11 212 10 10 322 247 247 325 253 253 324 266 266 258 313 313 235 143 143 222 161 161 325 253 253 327 343 369 326 254 254 244 287 287 333 250 250 326 254 254 327 343 369 334 251 251 333 250 250 328 342 368 328 342 368 333 250 250 327 343 369 329 344 370 334 251 251 328 342 368 336 258 258 329 344 370 330 345 371 336 258 258 330 345 371 337 259 259 337 259 259 330 345 371 331 346 372 332 246 246 337 259 259 331 346 372 336 258 258 335 252 252 329 344 370 335 252 252 334 251 251 329 344 370 215 47 47 335 252 252 336 258 258 231 111 111 219 48 48 332 246 246 211 179 179 346 272 272 310 262 262</p>
        </triangles>
      </mesh>
      <extra>
        <technique profile="OpenCOLLADAMaya">
          <originalMayaNodeId>polySurfaceShape69</originalMayaNodeId>
          <double_sided>1</double_sided>
        </technique>
      </extra>
    </geometry>
  </library_geometries>
  <library_visual_scenes>
    <visual_scene id="VisualSceneNode" name="rockwall_pieces">
      <node id="polySurface47" name="polySurface47" type="NODE">
        <matrix sid="transform">1 0 0 0 0 1 0 0 0 0 1 0 0 0 0 1</matrix>
        <instance_geometry url="#polySurfaceShape69">
          <bind_material>
            <technique_common>
              <instance_material symbol="temp_lambert3SG" target="#lambert3SG1">
                <bind_vertex_input semantic="TEX0" input_semantic="TEXCOORD" input_set="0"/>
              </instance_material>
            </technique_common>
          </bind_material>
        </instance_geometry>
        <extra>
          <technique profile="OpenCOLLADAMaya">
            <originalMayaNodeId>polySurface47</originalMayaNodeId>
          </technique>
        </extra>
      </node>
    </visual_scene>
  </library_visual_scenes>
  <scene>
    <instance_visual_scene url="#VisualSceneNode"/>
  </scene>
</COLLADA>