<?xml version="1.0" encoding="utf-8"?>
<COLLADA xmlns="http://www.collada.org/2005/11/COLLADASchema" version="1.4.1">
  <asset>
    <contributor>
      <author>Marc</author>
      <authoring_tool>OpenCOLLADA2008</authoring_tool>
      <comments>
			ColladaMaya export options: 
			bakeTransforms=1;relativePaths=1;copyTextures=0;exportTriangles=1;exportCgfxFileReferences=0;
			isSampling=0;curveConstrainSampling=1;removeStaticCurves=0;exportPolygonMeshes=1;exportLights=0;
			exportCameras=0;exportJointsAndSkin=1;exportAnimations=1;exportInvisibleNodes=0;exportDefaultCameras=0;
			exportTexCoords=1;exportNormals=1;exportNormalsPerVertex=0;exportVertexColors=1;exportVertexColorsPerVertex=0;
			exportTexTangents=0;exportTangents=0;exportReferencedMaterials=0;exportMaterialsOnly=0;
			exportXRefs=0;dereferenceXRefs=1;exportCameraAsLookat=0;cameraXFov=0;cameraYFov=0;doublePrecision=0
		</comments>
      <source_data>file:///F:/Dropbox/Team/depth_marc/models/rockwall/rockwall%20pieces.mb</source_data>
    </contributor>
    <created>2012-12-10T13:10:02</created>
    <modified>2012-12-10T13:10:02</modified>
    <unit name="meter" meter="1"/>
    <up_axis>Y_UP</up_axis>
  </asset>
  <library_materials>
    <material id="lambert3SG1" name="lambert3SG1">
      <instance_effect url="#lambert3SG1-fx"/>
    </material>
  </library_materials>
  <library_effects>
    <effect id="lambert3SG1-fx">
      <profile_COMMON>
        <newparam sid="file2-surface">
          <surface type="2D">
            <init_from>file2</init_from>
          </surface>
        </newparam>
        <newparam sid="file2-sampler">
          <sampler2D>
            <source>file2-surface</source>
          </sampler2D>
        </newparam>
        <technique sid="common">
          <lambert>
            <emission>
              <color>0 0 0 1</color>
            </emission>
            <ambient>
              <color>0 0 0 1</color>
            </ambient>
            <diffuse>
              <texture texture="file2-sampler" texcoord="TEX0">
                <extra>
                  <technique profile="OpenCOLLADAMaya">
                    <blend_mode>NONE</blend_mode>
                    <coverageU>1</coverageU>
                    <coverageV>1</coverageV>
                    <fast>0</fast>
                    <mirrorU>0</mirrorU>
                    <mirrorV>0</mirrorV>
                    <noiseU>0</noiseU>
                    <noiseV>0</noiseV>
                    <offsetU>0</offsetU>
                    <offsetV>0</offsetV>
                    <repeatU>1</repeatU>
                    <repeatV>1</repeatV>
                    <rotateFrame>0</rotateFrame>
                    <rotateUV>0</rotateUV>
                    <stagger>0</stagger>
                    <translateFrameU>0</translateFrameU>
                    <translateFrameV>0</translateFrameV>
                    <wrapU>1</wrapU>
                    <wrapV>1</wrapV>
                  </technique>
                </extra>
              </texture>
            </diffuse>
            <transparent opaque="RGB_ZERO">
              <color>0 0 0 1</color>
            </transparent>
            <transparency>
              <float>1</float>
            </transparency>
          </lambert>
        </technique>
      </profile_COMMON>
    </effect>
  </library_effects>
  <library_images>
    <image id="file2" name="file2">
      <init_from>./snow_rock_UV.dds</init_from>
      <extra>
        <technique profile="OpenCOLLADAMaya">
          <dgnode_type>kFile</dgnode_type>
          <image_sequence>0</image_sequence>
          <originalMayaNodeId>file2</originalMayaNodeId>
        </technique>
      </extra>
    </image>
  </library_images>
  <library_geometries>
    <geometry id="polySurfaceShape74" name="polySurfaceShape74">
      <mesh>
        <source id="polySurfaceShape74-positions" name="polySurfaceShape74-positions">
          <float_array id="polySurfaceShape74-positions-array" count="1002">-29.04836 0 0 -24.08359 16 0 -21.66462 8 0 -12.68977 6.787857 33.54223 -16.67095 -4.82178e-5 36.79449 -23.70286 4 0 -14.81259 4 34.29436 -8.825216 2.472092 44.81461 -10.09602 -1.51554e-5 47.04506 -15.01331 8 14.83213 -16.10346 3.734371 17.89984 -22.6228 0 15.84127 -19.03184 16 6.898926 -20.92463 8 7.431689 -21.43656 4 7.576719 -28.04208 0 10.6968 -13.8015 8 25.71078 -14.09866 4 26.2934 -17.17509 0 27.31772 -10.98228 6.402771 38.70355 -12.89684 4.774358 39.55035 -14.54525 -7.15901e-6 42.94432 -7.886985 2.926866 47.56578 -8.827037 -2.22834e-5 50.70051 -23.25419 12 0 -19.68839 12 7.083115 -15.86291 12 15.52145 -21.13841 16 4.087402 -21.66462 10 0 -19.68839 10 7.083115 -20.43649 12 3.983057 -11.05551 -1.24058e-5 45.635 -10.11675 3.524919 42.20982 -15.44031 10 15.18512 -13.8015 10 25.71078 -17.1065 0 29.52256 -20.09657 0 22.16328 -25.36588 0 14.36924 -30.19624 0 5.746484 -29.24295 0 2.81291 -20.32894 0 19.45489 -14.99333 0 39.33242 -13.01236 -1.10263e-5 44.92758 -11.93303 -1.04569e-5 44.63555 -7.724877 -2.42791e-5 51.72397 -14.34297 4 28.60424 -12.82466 7.601647 30.3735 -11.18086 4.381709 41.56186 -22.68246 6.002504 0 -20.56344 6.002504 7.329609 -15.76471 6.002504 15.44448 -13.48356 5.986689 26.6542 -13.35887 5.922983 28.55641 -14.09517 6.282828 33.69348 -11.7768 5.977496 39.26369 -10.29113 5.437859 40.31313 -9.769075 5.309051 41.37463 -22.83932 12 1.888662 -23.60727 16 1.937451 -16.70401 12 10.30084 -8.423091 4.099204 44.14266 -8.7741 4.622272 42.63145 -14.48248 3.133922 38.19277 -14.09256 2.722448 42.02742 -12.49802 2.44716 43.52789 -11.07619 2.256248 42.79418 -10.02224 1.331729 43.79914 -9.128999 1.20268 45.33242 -8.73382 1.360451 50.37045 -26.70697 2 10.64641 -19.59396 2 16.08629 -24.85259 1.734854 13.90395 -19.51965 2.943027 21.80549 -15.12294 4 30.86969 -14.10935 5.843862 30.91887 -13.43411 7.179158 30.19223 -14.14356 7.498291 25.7893 -14.58588 6.002504 24.58775 -15.31114 4 24.57094 -17.93231 3.025702 24.85744 -19.01873 0 25.06637 -17.31723 0 32.47867 -15.60866 2.279051 26.77355 -15.76193 2.192054 29.09363 -17.57815 2.275423 32.00426 -16.49119 2.225668 36.24055 -14.63691 10 20.68078 -14.45651 8 20.48664 -11.6299 0.5826992 44.30938 -13.16527 0.7725036 44.72752 -14.70089 0.9163931 42.89039 -15.35269 0.8949268 39.30016 -7.687211 1.2808 51.16842 -7.109573 2.687785 48.47254 -9.374666 -1.81333e-5 48.57223 -8.864297 1.210499 47.33895 -26.37561 2 0 -9.364399 0.3395126 48.54684 -8.865237 0.3057385 50.83717 -7.757996 0.251698 51.83727 -16.83026 0.7051773 36.76217 -17.69509 0.6168394 32.29826 -17.04958 0.5413254 29.52973 -17.09805 0.554516 27.26693 -19.1362 0.6029446 25.0733 -20.22625 0.6454907 22.08742 -12.88018 6.116964 36.71936 -12.30641 6.549575 36.73594 -12.87036 8.45767 30.49131 -27.29825 2 2.634072 -28.16021 1.70073 5.786992 -23.24624 4 1.995713 -22.42929 4 4.81 -18.45461 3.856453 12.90248 -19.87132 3.928226 10.0049 -22.26788 6.002504 1.891484 -21.50126 6.002504 4.633418 -18.02943 6.002504 11.09713 -19.19533 6.002504 8.919199 -8.50224 1.959745 47.28012 -7.486515 1.901628 50.2498 -8.446487 2.021671 49.3818 -21.31744 10 1.669609 -21.29826 8 1.752402 -17.92652 8 9.194524 -22.07264 8 4.68791 -17.42921 10 10.7476 -24.08359 14.60431 0 -23.4773 14.60431 2.538145 -20.96923 14.60431 4.64377 -19.07101 13.89181 7.812803 -16.16814 13.89181 10.81703 -20.52504 12.9459 3.672656 -22.92079 12.9459 1.555176 -23.26207 12.9459 0 -22.53129 2.83154 12.08254 -24.1368 3.498089 9.029707 -25.30777 3.348454 5.298447 -21.28296 1.867427 14.615 -12.64119 7.554197 33.50471 -8.559085 4.806093 42.56445 -8.203179 4.317099 44.07543 -12.60175 8.55598 30.49692 -13.50948 10.12322 25.9807 -15.56706 12.08893 15.79941 -15.79423 13.97877 11.50086 -18.40587 16.10505 7.526602 -12.43664 7.665135 33.53471 -9.612671 5.387952 41.23791 -10.80424 6.482683 38.59508 -23.54365 18.62223 2.818086 -20.97369 17.86264 4.968047 -23.83783 19.66147 0 -22.76055 18.88314 2.956504 -20.45306 18.09452 4.947285 -24.26385 19.16155 0 -24.57568 17.05342 1.937441 -20.07505 16.6732 5.493164 -19.6091 17.15652 6.062061 -19.10591 16.75596 7.229922 -23.59675 19.57024 0.676748 -23.72202 19.66241 0.3375391 24.08359 16 0 23.60726 16 1.937451 23.72507 18.10599 1.937441 21.13842 16 4.087402 21.13842 17.3464 4.087402 19.03184 16 6.898926 23.83784 19.66147 0 22.72967 18.94763 3.111377 20.42481 18.15901 5.102158 18.40587 16.10505 7.526602 24.26386 19.16155 0 24.57568 17.05342 1.937441 23.42439 19.57077 1.22417 23.63129 19.65473 0.5769629 20.07504 16.6732 5.493164 19.58702 17.10549 6.223564 19.08808 16.65249 7.101191 29.04837 0 0 21.66463 8 0 10.86504 6.808004 33.27221 15.21888 -4.82178e-5 36.03834 23.70286 4 0 13.44337 4 33.31901 6.368677 2.405707 45.32981 7.776021 -1.58882e-5 47.4209 14.67884 8 14.33305 15.62603 3.734371 17.1883 22.33817 0 15.53768 20.92464 8 7.431689 21.43656 4 7.576719 28.02801 0 10.68203 12.97839 8 24.31305 13.23818 4 24.94494 16.21055 0 26.40613 8.693495 6.401836 38.7161 10.85845 4.825842 39.2867 12.57833 -6.549e-6 42.63149 5.59647 2.826128 48.13143 6.717396 -2.3143e-5 51.14133 23.2542 12 0 19.68839 12 7.083115 15.49682 12 14.98736 21.66463 10 0 19.68839 10 7.083115 20.43649 12 3.983057 8.653916 -1.3014e-5 45.94689 7.517856 3.456431 42.6332 15.08953 10 14.66715 12.97839 10 24.31305 16.01603 0 28.6501 19.39734 0 21.52566 25.24168 0 14.23553 30.19624 0 5.746484 29.24296 0 2.81291 19.78521 0 18.86045 13.28283 0 38.72098 10.75497 -1.10976e-5 44.96415 9.52351 -1.08795e-5 44.85229 5.672433 -2.53151e-5 52.25526 13.34674 4 27.3285 11.225 7.639615 29.97398 8.774357 4.347024 41.73948 22.68247 6.002504 0 20.56345 6.002504 7.329609 15.4021 6.002504 14.91391 12.60699 6.002504 25.22828 12.16887 5.956465 27.55668 12.64406 6.330821 32.81793 9.580534 5.982395 39.17432 7.806821 5.406383 40.57252 7.153146 5.256273 41.80957 22.83932 12 1.888662 16.61332 12 10.18166 5.925949 3.994828 44.69981 6.182662 4.531444 43.17571 12.76993 3.133922 37.57551 12.10367 2.759309 41.72993 10.21113 2.440515 43.58348 8.600996 2.226961 43.06944 7.503751 1.303673 44.22471 6.703927 1.171572 45.81526 6.605236 1.315137 50.82441 26.67216 2 10.61039 19.20542 2 15.63605 24.71393 1.734854 13.75648 18.85829 2.943027 21.08563 13.99324 4 29.74639 12.88627 5.879653 29.85018 12.07264 7.243243 29.38693 13.31276 7.498291 24.43871 13.82416 6.002504 23.27672 14.5424 4 23.3557 17.10376 3.025702 23.99545 18.15369 0 24.3535 16.062 0 31.70655 14.70217 2.279051 25.63785 14.7195 2.192054 28.02426 16.34188 2.275423 31.25795 15.06895 2.225668 35.44231 14.03075 10 19.68664 13.85735 8 19.5009 9.184675 0.5751017 44.56609 10.93626 0.7724715 44.72832 12.75765 0.9311042 42.55152 13.69572 0.8959113 38.63463 5.60377 1.226733 51.71008 4.874186 2.586593 49.09809 7.143226 -1.89512e-5 48.99165 6.559551 1.17553 47.82023 26.37561 2 0 7.131447 0.3302684 48.96754 6.763434 0.2956242 51.27256 5.711812 0.2407962 52.36398 15.37582 0.7051773 36.02945 16.4405 0.6168394 31.57625 15.95985 0.5413254 28.64948 16.13799 0.554516 26.34375 18.26799 0.6029446 24.37623 19.52903 0.6454907 21.46484 11.01824 6.142792 36.24817 10.35192 6.57739 36.36313 11.27757 8.51069 30.07002 27.29826 2 2.634072 28.16021 1.70073 5.786992 23.24624 4 1.995713 22.4293 4 4.81 18.22463 3.856453 12.61957 19.79797 3.928226 9.92625 22.26789 6.002504 1.891484 21.50126 6.002504 4.633418 17.89542 6.002504 10.93121 19.18357 6.002504 8.906025 6.194064 1.899477 47.7943 5.351678 1.822611 50.82115 6.261031 1.953443 49.87514 21.31745 10 1.669609 21.29826 8 1.752402 17.89889 8 9.160859 22.07264 8 4.68791 17.31408 10 10.60076 24.08359 14.60431 0 23.4773 14.60431 2.538145 20.96924 14.60431 4.64377 19.07101 13.89181 7.812803 16.0483 13.89181 10.65473 20.52504 12.9459 3.672656 22.9208 12.9459 1.555176 23.26207 12.9459 0 22.37926 2.83154 11.92861 24.12467 3.498089 9.017725 25.30778 3.348454 5.298447 20.98747 1.867427 14.30951 10.80213 7.579502 33.26369 5.963843 4.720486 43.12734 5.702379 4.218067 44.65202 10.90757 8.586533 30.26074 12.67252 10.12322 24.54791 15.18652 12.08893 15.23553 15.63631 13.97877 11.28184 10.53076 7.678647 33.41135 6.978916 5.335368 41.69391 8.479373 6.476649 38.67225 -3.977545 2.485678 49.83259 -4.057057 1.880771 51.59903 -4.084811 1.266321 52.51188 -4.123003 0.2487925 53.17606 -4.16783 -2.45507e-5 53.06164 1.225101 2.440466 50.37261 1.375618 1.846364 52.10835 1.485715 1.243003 53.00603 1.491762 0.2441163 53.66252 1.476336 -2.49997e-5 53.55246</float_array>
          <technique_common>
            <accessor source="#polySurfaceShape74-positions-array" count="334" stride="3">
              <param name="X" type="float"/>
              <param name="Y" type="float"/>
              <param name="Z" type="float"/>
            </accessor>
          </technique_common>
        </source>
        <source id="polySurfaceShape74-normals" name="polySurfaceShape74-normals">
          <float_array id="polySurfaceShape74-normals-array" count="1080">-0.9571856 0.05649164 0.2839089 -0.9660181 0.2272575 -0.1231387 -0.885057 0.4529888 0.1071226 -0.9484245 0.2401211 0.2069608 -0.6723103 0.6714436 0.3117085 -0.8053867 0.5548808 -0.2084694 -0.8302735 0.5269101 -0.1816914 -0.7972097 0.5430657 0.2636972 -0.7401587 0.5708585 0.3553669 -0.3524114 0.676527 0.6466201 -0.2062633 0.8763104 0.4353569 -0.6234127 0.7439305 0.2406738 -0.05495995 0.6796715 0.7314547 -0.03135115 0.658438 0.7519817 0.05758081 0.5899018 0.8054193 -0.7813166 0.1746887 0.5991896 -0.746058 0.3693694 0.5540432 -0.7854807 0.4659229 0.4073524 -0.6077769 0.7763392 0.1670465 -0.6325562 0.7611248 0.1433931 -0.6463255 0.6790093 0.3481519 -0.7603937 -0.1469682 0.632615 -0.8392495 0.0413126 0.5421748 -0.7914503 0.05787431 0.6084874 -0.7303061 -0.03513844 0.6822156 -0.9901814 0.1352884 0.03518203 -0.9192365 0.3596306 0.1602188 -0.9531907 0.1893687 0.2357263 -0.9646969 0.2223839 0.1410861 -0.6518382 0.7464795 -0.1336983 -0.6633779 0.733138 -0.1497945 -0.5151338 0.8517565 -0.0956465 -0.5857636 0.8051094 -0.09316555 -0.9432167 0.201729 0.2639086 -0.691279 0.6392323 0.3369204 -0.5597578 0.7016692 0.4408303 -0.6871831 0.7209936 0.08914856 -0.6061442 0.7467767 0.2737038 -0.6109587 0.7525111 0.2458792 -0.7861484 0.6050091 0.126233 -0.7549086 0.5841256 0.2981783 -0.8761145 0.4707885 0.1038353 -0.8868756 0.4512485 0.09912807 -0.8498109 0.4113927 0.329511 -0.8822941 -0.01833375 0.4703414 -0.8511736 0.2594261 0.4562911 -0.8834561 0.08752765 0.4602655 -0.8846201 -0.02408188 0.4656904 -0.9607497 -0.1273636 0.2464517 -0.934162 0.2581585 0.2463646 -0.8860728 0.1326827 0.4441514 -0.9654467 -0.08196319 0.2473758 -0.9500971 -0.2159539 0.225121 -0.8407078 -0.2006506 0.502941 -0.8174055 -0.2255226 0.530083 -0.9634645 -0.2583464 0.07066387 -0.4432841 0.6689667 0.5966429 -0.4857983 0.530952 0.6943271 -0.9524596 0.1095933 0.2842714 -0.9749801 0.1901805 0.1150885 -0.9327681 0.3193807 0.1671517 -0.9149724 0.3090538 0.259444 -0.9775412 -0.1560861 0.1415992 -0.8292729 -0.2600453 0.4946542 -0.900278 0.3957865 0.1812525 -0.8388103 0.4772782 0.261921 -0.8000206 0.585429 -0.1313009 -0.8511353 0.5120956 -0.1154409 -0.7610208 0.5891231 0.2716271 -0.7650872 0.62009 0.1735792 -0.8227366 0.5607523 -0.0930666 -0.6875938 0.6265225 0.3669938 -0.6549318 0.6676552 0.3539785 -0.7286326 0.6807045 0.07573538 -0.7077727 0.6932461 0.1358949 -0.8760472 0.4423369 0.1920399 -0.8783242 0.4007436 0.2606746 -0.4573734 0.6320634 0.625544 -0.3906512 0.8038364 0.4485963 -0.5829707 0.5762755 0.572758 -0.7181237 0.5873276 0.3732887 -0.5416915 0.6360379 0.5495689 -0.7741541 0.5842029 0.2437056 -0.8884103 0.1812978 0.4217323 -0.9320328 0.09317812 0.3501895 -0.904238 -0.2595093 0.3391291 -0.9015418 -0.1626364 0.4009636 -0.3113449 0.1672608 0.9354615 -0.2149644 0.4072425 0.8876619 -0.03446448 0.6133418 0.7890653 -0.1889402 0.5337304 0.8242774 -0.4204784 0.7549686 0.5032101 -0.754386 0.5718101 0.3223892 -0.9437809 -0.01125356 0.3303798 -0.9302657 0.2806673 0.2362868 -0.8695726 0.1017828 0.4832015 -0.5096657 0.05676601 0.8584979 -0.7413717 0.5537775 0.3790759 -0.5372247 0.5006872 0.6787503 -0.38468 0.7502917 0.537665 -0.5813366 0.7571383 0.2979752 -0.4230491 0.6613185 0.6194249 -0.2992899 0.8272828 0.4754246 -0.9760503 0.08458956 0.2004256 -0.931233 0.3236288 0.1675392 -0.9606988 -0.1771923 0.2136834 -0.6901151 0.7209957 0.06250094 -0.8566723 -0.08466386 0.508866 -0.8180956 0.1839812 0.5448583 -0.8583668 0.3442965 0.38035 -0.9291015 0.06437563 0.3641791 -0.9949259 -0.08268457 -0.05732151 -0.9692532 0.2051203 -0.1359191 -0.9983264 -0.04147062 -0.04030567 -0.9473035 -0.3201036 0.01223543 -0.9293922 0.01297977 0.3688652 -0.8877962 -0.3024432 0.3469092 -0.4060272 0.8109553 0.4212996 0.2505838 0.5433761 0.8012179 0.2505838 0.5433761 0.8012179 0.5181938 0.05106419 0.8537374 0.3539945 0.688623 0.6328399 0.1716186 0.8337225 0.5248368 0.1716186 0.8337225 0.5248368 0.2069573 0.8822736 0.4228024 -0.5502526 0.7827176 0.2908185 -0.8435232 -0.2454348 0.4777345 -0.4832525 -0.3911394 0.7832476 0.2671538 -0.4212028 0.8667277 0.2671538 -0.4212028 0.8667277 0.4834332 -0.4166819 0.7698498 -0.7112194 0.7018437 0.03977502 -0.6056053 0.7951842 0.03039977 -0.3632254 0.9303625 -0.04992859 -0.2756484 0.947365 0.1628418 -0.1555337 0.9326847 0.3254361 -0.5762798 0.8114789 0.09697316 -0.5352434 0.7875252 0.3054806 -0.8277172 0.1878383 0.528773 -0.4639919 0.7927275 0.3953413 -0.1048918 0.9395094 0.3260671 0.1017901 0.9321328 0.3475156 0.1017901 0.9321328 0.3475156 0.1045344 0.9417531 0.3196461 -0.9259831 -0.3230766 0.1953883 -0.9235668 -0.3267917 0.2005782 -0.9528465 0.2270807 0.2012905 -0.7561327 0.2183017 0.6169342 -0.8420025 -0.2158987 0.494388 -0.9510815 -0.222621 0.2142053 -0.8109513 -0.1791221 0.5570218 -0.81157 0.2743782 0.5158204 -0.7331776 0.6297989 0.2565228 -0.3114288 0.8760607 0.3681437 -0.2116784 0.8775198 0.430292 -0.2283086 0.9217772 0.3133716 -0.2633262 0.9198946 0.290608 -0.3109164 0.8951259 0.3195004 -0.4175723 0.7394772 0.5280216 -0.4970873 0.3664006 0.7865461 -0.1977923 0.9387065 0.2823267 -0.09304097 0.8908264 0.4447154 -0.1245698 0.932831 0.3380956 0.2579422 0.9188845 0.2985246 0.223107 0.9224243 0.3152093 0.4066612 0.728371 0.5514548 0.3059595 0.8872683 0.345172 0.1412847 0.9284022 0.3436685 0.1146618 0.8880469 0.4452251 0.2266765 0.8765289 0.4246348 0.3244928 0.8774772 0.3531831 -0.9765387 0.001620147 0.215336 -0.7512027 0.4977542 0.4335149 -0.820455 0.2749122 0.5012754 -0.768962 -0.02416101 0.6388378 -0.9335533 0.3302484 0.1393345 -0.4148963 0.8781926 0.2379891 -0.3949018 0.7813637 0.4832426 -0.3307442 0.8200992 0.4669532 -0.3284623 0.8144052 0.4783898 -0.4110654 0.6129064 0.6748118 -0.5210288 0.450853 0.7247486 -0.3512322 0.8735768 0.336897 0.9764791 -7.52557e-4 0.2156107 0.9005559 -0.353769 0.2526786 0.9609303 -0.2565899 -0.103801 0.7564697 0.493841 0.428806 0.8204557 0.274912 0.5012743 0.8133432 -0.03900766 0.580475 0.9514133 0 0.307917 0.9030775 -0.08314697 0.4213523 0.7342925 0.556837 0.3882618 0.4439557 0.8260673 0.3471542 -0.007525357 0.9046536 0.4260813 0 0.9250088 0.3799456 0.523647 0.4068291 0.7485211 0 0.9200683 0.3917581 0.4097813 0.8870637 0.2125964 0.4064204 0.9007762 0.1530509 0.5162444 0.5318711 0.671271 0.9294047 0.06494074 0.3633038 0.9288377 0.2508996 0.2725983 0.8482556 0.5031102 0.1653552 0.9558082 0.2881902 -0.0581121 0.6421073 0.6804091 0.3531877 0.7673465 0.5551982 0.3208336 0.8303865 0.5436203 -0.1222096 0.8241066 0.5455159 -0.1525145 0.7548707 0.5794858 0.3071913 0.6275425 0.7522476 0.2007835 0.1355229 0.6877793 0.7131572 0.04799697 0.60892 0.7917782 0.1100405 0.6655211 0.7382227 0.7506852 0.1750628 0.6370437 0.7574186 0.4533565 0.4698776 0.7241936 0.357187 0.5898823 0.5962837 0.7752553 0.2083872 0.6244949 0.6699618 0.4014442 0.623944 0.7592605 0.1849797 0.7603936 -0.1469686 0.632615 0.8294401 0.04305228 0.5569341 0.9901814 0.1352875 0.03518375 0.9646969 0.2223837 0.1410856 0.9531908 0.1893687 0.2357258 0.9192364 0.3596303 0.1602201 0.651837 0.7464803 -0.1336993 0.5857627 0.80511 -0.0931665 0.5151336 0.8517566 -0.09564653 0.6633775 0.7331384 -0.1497939 0.9248382 0.2040715 0.3209813 0.5170791 0.7121921 0.4747753 0.6618006 0.6468393 0.3789708 0.639962 0.7574747 0.1291535 0.7508209 0.636674 0.1758235 0.5984436 0.7533927 0.2725156 0.5743363 0.7623912 0.298157 0.7661969 0.5909554 0.2524164 0.8638626 0.4188803 0.279787 0.8842199 0.4645993 0.04798347 0.8744382 0.4822369 0.05296426 0.8822938 -0.01833363 0.470342 0.8744802 0.08425938 0.4776868 0.8439127 0.2625462 0.467847 0.855889 -0.0173133 0.5168697 0.8606244 0.1273255 0.4930656 0.9158174 0.2525125 0.3122755 0.9413266 -0.1267263 0.3128015 0.9654462 -0.08196365 0.2473773 0.9500979 -0.2159503 0.2251212 0.8407087 -0.2006484 0.5029403 0.4849622 0.6697882 0.5623124 0.534226 0.5295359 0.6589341 0.9302996 0.108863 0.3502735 0.966339 0.1925234 0.1706567 0.9668817 -0.1586074 0.1999583 0.8963798 0.3105245 0.3163506 0.9146367 0.3314488 0.2314765 0.8292725 -0.2600446 0.4946551 0.8189649 0.4813792 0.3123629 0.8743298 0.4163299 0.249433 0.7929928 0.6036541 -0.08224434 0.7407007 0.6363072 0.2155817 0.7417137 0.5974655 0.3047877 0.8606539 0.5054321 -0.06175195 0.7786184 0.6254686 -0.05042377 0.6712581 0.6356382 0.3812827 0.6329759 0.6785733 0.3726659 0.7286336 0.6807035 0.07573543 0.8760473 0.4423359 0.1920417 0.7077732 0.6932459 0.1358946 0.8602225 0.396226 0.3209707 0.3939784 0.8048891 0.4437731 0.48514 0.6243325 0.6122484 0.6016709 0.561569 0.5680073 0.7425173 0.5825154 0.3306718 0.5782547 0.6271744 0.5217987 0.7463882 0.6038148 0.2798435 0.8762864 0.1821301 0.4460388 0.8876172 -0.1729916 0.42686 0.8827015 -0.2730418 0.382474 0.9130933 0.09736758 0.3959547 0.2957768 0.4112055 0.8622216 0.3885729 0.1739978 0.9048403 0.1357666 0.6228654 0.7704583 0.2856174 0.5351868 0.7949829 0.4491172 0.7573233 0.4740835 0.7677112 0.5779078 0.2768432 0.9403647 0.2869026 0.1827598 0.9611468 -0.0117342 0.2757883 0.8978159 0.1047889 0.4277217 0.7298298 0.5581879 0.3946829 0.5724049 0.7586541 0.3111214 0.3580447 0.7470847 0.5600612 0.5026945 0.4997527 0.7053689 0.3798099 0.6554797 0.6527563 0.2727201 0.8191195 0.5046453 0.9628514 0.08589693 0.2560053 0.946489 -0.1771443 0.2697749 0.9185405 0.3247757 0.2253976 0.6844339 0.7224431 0.09811404 0.7773378 0.1903884 0.5995817 0.8209131 -0.08538943 0.5646328 0.8293207 0.3493659 0.4360856 0.9035833 0.0640704 0.4235942 0.9764762 0.2024126 -0.07431953 0.9968551 -0.07924526 2.86744e-4 0.9990108 -0.04145341 0.01608982 0.9467871 -0.3159571 0.0613634 0.9126166 0.01481349 0.4085481 0.8711314 -0.3053305 0.384582 0.4248172 0.7972474 0.4288672 0.5565384 0.7895576 0.2585806 0.8710895 -0.2487657 0.4234607 0.6049371 0.7956231 0.03216863 0.7097121 0.703263 0.04158986 0.3635305 0.9302961 -0.04893598 0.2725697 0.9467558 0.1713449 0.1454692 0.9280101 0.342981 0.8234305 0.1847994 0.5364805 0.5336795 0.7843853 0.3161108 0.5763257 0.8114325 0.09708702 0.4511739 0.7825987 0.4289305 0.9259825 -0.3230768 0.1953909 0.9235671 -0.3267902 0.2005794 0.9528459 0.2270806 0.2012933 0.7522826 0.21851 0.6215499 0.9510823 -0.2226183 0.2142044 0.8420027 -0.2158983 0.4943877 0.8109506 -0.1791242 0.5570221 0.7837055 0.2693332 0.5597009 0.7273386 0.6193388 0.2956318 0.1989633 0.9351423 0.2931253 -0.1130896 0.929747 0.3504015 -0.1130896 0.929747 0.3504015 -0.1991123 0.8237849 0.5307847 -0.1991123 0.8237849 0.5307847 -0.2929716 0.5327269 0.7939581 -0.2929716 0.5327269 0.7939581 -0.3219089 -0.3858159 0.8645927 -0.3219089 -0.3858159 0.8645927 -0.02491323 0.9456414 0.3242554 -0.02491323 0.9456414 0.3242554 -0.02491323 0.9456414 0.3242554 -0.02491323 0.9456414 0.3242554 -0.04663334 0.8278748 0.558971 -0.04663334 0.8278748 0.558971 -0.04663334 0.8278748 0.558971 -0.04663334 0.8278748 0.558971 -0.07173273 0.5472912 0.8338625 -0.07173273 0.5472912 0.8338625 -0.07173273 0.5472912 0.8338625 -0.07173273 0.5472912 0.8338625 -0.07922933 -0.4050912 0.9108369 -0.07922933 -0.4050912 0.9108369 -0.07922933 -0.4050912 0.9108369 -0.07922933 -0.4050912 0.9108369 -4.35867e-4 0.9913882 0.1309553 -4.35867e-4 0.9913882 0.1309553 -4.35867e-4 0.9913882 0.1309553 -4.35867e-4 0.9913882 0.1309553</float_array>
          <technique_common>
            <accessor source="#polySurfaceShape74-normals-array" count="360" stride="3">
              <param name="X" type="float"/>
              <param name="Y" type="float"/>
              <param name="Z" type="float"/>
            </accessor>
          </technique_common>
        </source>
        <source id="polySurfaceShape74-map1" name="polySurfaceShape74-map1">
          <float_array id="polySurfaceShape74-map1-array" count="756">0.867911 0.563918 0.870044 0.597768 0.849193 0.628552 0.839998 0.546313 0.945401 0.559617 0.951718 0.601023 0.908775 0.596091 0.903505 0.554938 0.280118 0.05591 0.300508 0.043774 0.303753 0.063917 0.285349 0.078541 0.881576 0.850277 0.928772 0.87895 0.903822 0.889476 0.830973 0.234082 0.872853 0.220646 0.869168 0.265728 0.963151 0.346267 0.90082 0.394691 0.911514 0.295848 0.712896 0.122338 0.724961 0.190917 0.685017 0.176435 0.68636 0.11272 0.842272 0.074505 0.881906 0.075654 0.882394 0.127818 0.846245 0.125954 1.034873 -3.33e-4 1.053326 0.047165 1.004238 0.060404 0.97737 0.018079 0.868369 0.521785 0.909054 0.517298 0.959481 0.507634 0.876024 0.692373 0.869451 0.750463 0.856039 0.7523 0.849522 0.692513 0.894549 0.948002 0.890613 0.983683 0.875104 0.980996 0.873232 0.934552 0.76567 0.119046 0.799364 0.179851 0.762142 0.177583 0.791592 0.260308 0.786873 0.350298 0.751319 0.354899 0.753556 0.257211 0.804486 0.074718 0.715504 0.016578 0.710204 0.06287 0.686615 0.051773 0.688966 0.013045 0.902452 0.918659 0.874856 0.877698 0.822196 0.347263 0.826249 0.449713 0.828432 0.546065 0.791589 0.545376 0.789575 0.452263 0.760528 0.061727 0.83595 0.633706 0.820097 0.635659 0.917694 0.638845 0.971951 0.656813 0.966576 0.732744 0.918929 0.702472 0.878068 0.642042 0.941269 0.843136 0.894532 0.802532 0.920589 0.035285 0.922461 0.07238 0.881982 0.040147 0.859123 0.354385 0.852638 0.832747 0.864763 0.800594 0.846896 0.853816 0.845807 0.91697 0.843773 0.886403 0.934721 0.774211 0.973735 0.860721 0.980068 0.79439 0.997216 0.799867 0.988509 0.867133 0.968055 0.912363 0.959819 0.9014 0.936014 0.918311 0.948426 0.924872 0.936706 0.947373 0.923212 0.978526 0.913907 1.008316 0.90789 1.006568 0.274043 0.035031 0.297507 0.021751 1.080842 0.194762 1.060553 0.278058 1.030738 0.265774 1.038049 0.200508 1.02622 0.324268 0.981036 0.307957 1.013861 0.451703 1.014487 0.400762 1.025112 0.453546 0.97294 0.450495 1.017791 0.513778 1.007649 0.51103 0.988737 0.563924 0.999203 0.565564 1.000446 0.606203 0.990721 0.606963 0.999801 0.658934 1.011984 0.661525 0.994203 0.742099 1.006671 0.744377 0.846536 0.795557 0.466524 0.015181 0.467254 -0.005953 0.544499 0.015569 0.541022 0.036639 0.46456 0.034222 0.536763 0.055955 0.900372 1.048606 0.88241 1.038012 0.853551 0.983807 0.870425 1.018888 0.906358 1.047474 0.270466 0.029956 0.295453 0.017354 0.46754 -0.010464 0.546296 0.011386 1.082591 0.095268 1.03683 0.109728 0.976974 0.119171 0.977892 0.18922 0.97642 0.252741 0.923083 0.126533 0.921307 0.182443 0.879916 0.1819 0.914809 0.236856 0.310175 0.099391 0.295872 0.116042 0.461805 0.067029 0.527946 0.090216 0.808143 0.042742 0.765661 0.028009 0.842536 0.042929 0.843411 0.17573 0.744382 0.055051 0.74864 0.025396 0.748089 0.113361 0.71823 0.267383 0.835468 0.692912 0.840215 0.915776 0.838656 0.885616 0.815163 0.637336 0.787571 0.551502 0.74735 0.361776 0.715093 0.281441 0.682701 0.19228 0.831356 0.694447 0.843105 0.852364 0.842481 0.794565 0.665645 0.558377 0.190544 0.529957 0.207703 0.443229 0.634385 0.450765 0.717817 0.811101 0.147341 0.803386 0.152068 0.718078 0.710227 0.731454 0.591556 0.292857 0.241528 0.291395 0.263578 0.239505 0.564806 0.233963 0.282918 0.213224 0.546621 0.205449 0.28965 0.184318 0.542151 0.176213 0.66526 0.042847 0.636714 0.063882 0.650483 0.125088 0.672461 0.144076 0.628181 0.010144 0.61655 0.019343 0.616502 0.012756 0.644461 0.131966 0.627089 0.074161 0.663126 0.156681 0.669664 0.180083 0.617868 0.026487 0.211887 0.032163 0.191233 0.041098 0.189002 0.002195 0.232415 0.040034 0.216582 0.102031 0.203832 0.134056 0.190683 0.166113 0.191326 0.102165 0.249538 9.06e-4 0.259417 0.027816 0.248811 0.066749 0.231803 0.123656 0.203796 0.168305 0.19283 0.182083 0.845548 0.987416 0.857984 1.023488 0.004432 1.028801 0.019822 0.98554 0.8039 0.948382 0.061896 0.946758 0.767515 0.889841 0.779817 0.902444 0.086544 0.897888 0.099341 0.884958 0.260984 0.014869 0.86168 1.035264 0.00213 1.035255 0.261187 0.003623 0.865378 1.045715 0 1.041423 0.212156 0.149748 0.788798 0.920388 0.077319 0.920298 0.004619 0.531411 0.03263 0.514538 0.022596 0.608375 0.002193 0.573579 -0.073473 0.528678 -0.031239 0.522603 -0.037941 0.564739 -0.081208 0.570891 0.560824 0.050278 0.554207 0.072201 -0.015376 0.851245 -0.040613 0.889705 -0.064896 0.874123 0.04325 0.220927 0.004947 0.250044 0.001271 0.206083 -0.088574 0.323425 -0.037343 0.277504 -0.026943 0.371579 0.164303 0.111347 0.15043 0.179597 0.036202 0.060759 0.030661 0.112069 -0.005483 0.112749 -0.003205 0.060596 -0.152269 -0.022014 -0.095694 -0.001045 -0.124338 0.040027 -0.172781 0.024585 0.004415 0.489908 -0.087202 0.47879 -0.036321 0.485812 -0.007579 0.669568 0.022453 0.684082 0.013813 0.74216 -5.61e-4 0.737338 -0.036694 0.951413 -0.014546 0.940816 -0.021638 0.986444 -0.036929 0.987103 0.111365 0.107105 0.113495 0.165632 0.076082 0.167183 0.082442 0.246533 0.120559 0.245055 0.121987 0.336437 0.086452 0.33235 0.07372 0.061967 0.162874 0.005553 0.167729 0.051921 -0.041287 0.921159 -0.009992 0.883773 0.051296 0.329892 0.046944 0.424306 0.083593 0.426715 0.081421 0.513558 0.044407 0.513983 0.117749 0.049925 0.052656 0.624299 0.036679 0.62272 -0.048723 0.609074 -0.051785 0.675706 -0.101187 0.70586 -0.10348 0.629719 -0.008223 0.615664 -0.077135 0.829342 -0.027163 0.792487 -0.039988 0.018736 -0.002004 0.025114 -0.043381 0.055721 0.014612 0.335253 0.003433 0.796514 0.01518 0.837235 0.02017 0.862488 0.014097 0.926838 0.019783 0.896738 -0.068994 0.75423 -0.111444 0.844049 -0.126784 0.85036 -0.133003 0.777095 -0.115734 0.770716 -0.097908 0.893295 -0.106845 0.9043 -0.07464 0.915651 -0.087646 0.920438 -0.07806 0.945072 -0.06822 0.977638 -0.056333 1.007325 -0.062343 1.008353 0.567632 0.030156 -0.2062 0.170455 -0.163365 0.177665 -0.157195 0.241881 -0.187551 0.253381 -0.152307 0.299938 -0.10628 0.285812 -0.140502 0.424117 -0.151773 0.425615 -0.140139 0.373829 -0.099603 0.422564 -0.135198 0.483143 -0.14538 0.48563 -0.117041 0.534184 -0.127485 0.535734 -0.120411 0.577748 -0.130106 0.576795 -0.131589 0.631418 -0.143809 0.633093 -0.128997 0.715203 -0.141542 0.716791 0.022646 0.794956 -0.035257 1.041484 -0.053666 1.04976 -0.001181 0.992037 -0.021528 1.024253 -0.059301 1.048002 0.57127 0.025342 -0.158934 0.087705 -0.20408 0.071257 -0.099509 0.099909 -0.103139 0.16963 -0.101783 0.231985 -0.004719 0.167013 -0.046368 0.165954 -0.046062 0.109814 -0.040858 0.220302 0.541006 0.108121 0.07085 0.029946 0.113258 0.016126 0.036891 0.029199 0.032063 0.161955 0.129997 0.013864 0.133828 0.04356 0.129133 0.101712 0.155849 0.255514 0.036362 0.68542 0.024991 0.896585 0.019849 0.926365 0.085495 0.519506 0.057688 0.630114 0.158823 0.269076 0.125875 0.343247 0.040628 0.689633 0.024126 0.86174 0.026848 0.795549 0.211143 0.385638 0.628008 0.391152 0.366573 0.042168 0.3674 0.075718 0.36631 0.022558 0.364721 8.65e-4 0.362872 -0.003559</float_array>
          <technique_common>
            <accessor source="#polySurfaceShape74-map1-array" count="378" stride="2">
              <param name="S" type="float"/>
              <param name="T" type="float"/>
            </accessor>
          </technique_common>
        </source>
        <vertices id="polySurfaceShape74-vertices" name="polySurfaceShape74-vertices">
          <input semantic="POSITION" source="#polySurfaceShape74-positions"/>
        </vertices>
        <triangles material="temp_lambert3SG" count="598">
          <input semantic="VERTEX" source="#polySurfaceShape74-vertices" offset="0"/>
          <input semantic="NORMAL" source="#polySurfaceShape74-normals" offset="1"/>
          <input semantic="TEXCOORD" source="#polySurfaceShape74-map1" offset="2" set="0"/>
          <p>51 0 0 52 1 1 76 3 3 76 3 3 52 1 1 75 2 2 83 5 5 45 6 6 82 4 4 82 4 4 45 6 6 17 7 7 92 9 9 120 10 10 68 8 8 68 8 8 120 10 10 121 11 11 47 12 12 64 13 13 65 14 14 124 15 15 118 16 16 117 17 17 70 18 18 10 19 19 113 20 20 130 22 22 12 23 23 129 21 21 129 21 21 12 23 23 27 24 24 123 25 25 115 26 26 125 28 28 125 28 28 115 26 26 116 27 27 39 30 30 109 31 31 0 29 29 0 29 29 109 31 31 96 32 32 77 33 33 51 0 0 76 3 3 17 7 7 78 34 34 82 4 4 82 4 4 78 34 34 79 35 35 53 36 36 106 37 37 3 39 39 3 39 39 106 37 37 107 38 38 95 41 41 119 42 42 67 40 40 67 40 40 119 42 42 7 43 43 30 44 44 29 45 45 25 46 46 33 48 48 26 49 49 126 47 47 126 47 47 26 49 49 59 50 50 122 51 51 125 28 28 29 45 45 128 53 53 58 54 54 127 52 52 127 52 52 58 54 54 1 55 55 67 40 40 7 43 43 66 56 56 66 56 56 7 43 43 32 57 57 124 15 15 9 58 58 126 47 47 126 47 47 9 58 58 33 48 48 87 59 59 16 60 60 86 62 62 86 62 62 16 60 60 34 61 61 122 51 51 30 44 44 57 63 63 46 64 64 108 65 65 16 60 60 16 60 60 108 65 65 34 61 61 73 66 66 84 67 67 6 69 69 6 69 69 84 67 67 85 68 68 75 2 2 52 1 1 74 70 70 64 13 13 47 12 12 63 71 71 63 71 71 47 12 12 20 72 72 5 73 73 111 74 74 48 75 75 48 75 75 111 74 74 115 26 26 117 17 17 113 20 20 50 76 76 50 76 76 113 20 20 10 19 19 78 34 34 17 7 7 77 33 33 77 33 33 17 7 7 51 0 0 17 7 7 45 6 6 51 0 0 51 0 0 45 6 6 52 1 1 52 1 1 45 6 6 74 70 70 74 70 70 45 6 6 73 66 66 20 72 72 106 37 37 6 69 69 6 69 69 106 37 37 53 36 36 47 12 12 55 77 77 20 72 72 20 72 72 55 77 77 54 78 78 55 77 77 32 57 57 56 79 79 129 21 21 27 24 24 128 53 53 128 53 53 27 24 24 58 54 54 61 81 81 32 57 57 60 80 80 60 80 80 32 57 57 7 43 43 20 72 72 62 82 82 63 71 71 47 12 12 65 14 14 32 57 57 62 82 82 6 69 69 85 68 68 91 84 84 41 85 85 90 83 83 90 83 83 41 85 85 21 86 86 42 87 87 89 88 88 21 86 86 21 86 86 89 88 88 90 83 83 88 89 89 89 88 88 43 90 90 43 90 90 89 88 88 42 87 87 32 57 57 65 14 14 66 56 56 65 14 14 88 89 89 66 56 56 66 56 56 88 89 89 31 91 91 8 92 92 67 40 40 31 91 91 31 91 91 67 40 40 66 56 56 8 92 92 94 93 93 97 94 94 99 96 96 92 9 9 98 95 95 98 95 95 92 9 9 68 8 8 20 72 72 6 69 69 62 82 82 15 97 97 37 98 98 69 100 100 69 100 100 37 98 98 71 99 99 138 102 102 71 99 99 11 101 101 11 101 101 71 99 99 37 98 98 105 103 103 40 104 104 36 105 105 70 18 18 72 106 106 10 19 19 74 70 70 73 66 66 53 36 36 53 36 36 73 66 66 6 69 69 46 64 64 75 2 2 3 39 39 76 3 3 75 2 2 16 60 60 16 60 60 75 2 2 46 64 64 87 59 59 76 3 3 16 60 60 78 34 34 77 33 33 10 19 19 10 19 19 77 33 33 50 76 76 10 19 19 72 106 106 78 34 34 78 34 34 72 106 106 79 35 35 105 103 103 36 105 105 104 108 108 104 108 108 36 105 105 80 107 107 45 6 6 83 5 5 73 66 66 73 66 66 83 5 5 84 67 67 104 108 108 80 107 107 103 109 109 103 109 109 80 107 107 18 110 110 35 111 111 102 112 112 18 110 110 18 110 110 102 112 112 103 109 109 102 112 112 35 111 111 101 113 113 101 113 113 35 111 111 81 114 114 101 113 113 81 114 114 100 115 115 100 115 115 81 114 114 4 116 116 100 115 115 4 116 116 91 84 84 91 84 84 4 116 116 41 85 85 9 58 58 87 59 59 33 48 48 33 48 48 87 59 59 86 62 62 65 14 14 64 13 13 88 89 89 88 89 89 64 13 13 89 88 88 89 88 88 64 13 13 90 83 83 90 83 83 64 13 13 63 71 71 62 82 82 91 84 84 63 71 71 63 71 71 91 84 84 90 83 83 3 39 39 74 70 70 53 36 36 54 78 78 55 77 77 19 117 117 47 12 12 32 57 57 55 77 77 332 119 119 274 120 120 331 118 118 331 118 118 274 120 120 267 121 121 331 123 118 267 121 121 330 122 122 330 122 122 267 121 121 295 124 123 98 95 124 68 8 125 97 94 94 97 94 94 68 8 125 95 41 41 22 125 126 119 42 42 121 11 127 109 31 31 111 74 74 96 32 32 96 32 32 111 74 74 5 73 73 94 93 93 23 126 128 97 94 94 97 94 94 23 126 128 98 95 124 23 126 129 44 127 130 98 95 95 98 95 95 44 127 130 99 96 96 332 128 119 333 129 131 274 120 120 274 120 120 333 129 131 220 130 132 62 82 82 85 68 68 91 84 84 91 84 84 85 68 68 100 115 115 84 67 67 101 113 113 85 68 68 85 68 68 101 113 113 100 115 115 83 5 5 102 112 112 84 67 67 84 67 67 102 112 112 101 113 113 102 112 112 83 5 5 103 109 109 103 109 109 83 5 5 82 4 4 82 4 4 79 35 35 103 109 109 103 109 109 79 35 35 104 108 108 105 103 103 104 108 108 72 106 106 72 106 106 104 108 108 79 35 35 20 72 72 54 78 78 106 37 37 106 37 37 54 78 78 107 38 38 107 38 38 54 78 78 19 117 117 109 31 31 39 30 30 110 132 134 110 132 134 39 30 30 38 131 133 38 131 133 15 97 97 110 132 134 110 132 134 15 97 97 69 100 100 137 133 135 110 132 134 136 134 136 136 134 136 110 132 134 69 100 100 137 133 135 109 31 31 110 132 134 135 135 137 71 99 99 138 102 102 71 99 99 135 135 137 69 100 100 69 100 100 135 135 137 136 134 136 112 136 138 14 137 139 116 27 27 116 27 27 14 137 139 49 138 140 111 74 74 112 136 138 115 26 26 115 26 26 112 136 138 116 27 27 118 16 16 114 139 141 117 17 17 117 17 17 114 139 141 113 20 20 114 139 141 118 16 16 14 137 139 14 137 139 118 16 16 49 138 140 7 43 43 119 42 42 22 125 126 120 10 10 93 140 142 121 11 11 121 11 11 93 140 142 22 125 143 330 142 122 295 124 123 329 141 144 329 141 144 295 124 123 268 143 145 119 42 42 95 41 41 121 11 127 121 11 127 95 41 41 68 8 125 77 33 33 87 59 59 50 76 76 50 76 76 87 59 59 9 58 58 122 51 51 57 63 63 28 144 146 28 144 146 57 63 63 24 145 147 123 25 25 122 51 51 2 146 148 2 146 148 122 51 51 28 144 146 48 75 75 115 26 26 2 146 148 2 146 148 115 26 26 123 25 25 122 51 51 29 45 45 30 44 44 13 147 149 124 15 15 29 45 45 49 138 140 118 16 16 13 147 149 13 147 149 118 16 16 124 15 15 125 28 28 116 27 27 13 147 149 13 147 149 116 27 27 49 138 140 29 45 45 125 28 28 13 147 149 123 25 25 125 28 28 122 51 51 29 45 45 126 47 47 25 46 46 25 46 46 126 47 47 59 50 50 124 15 15 126 47 47 29 45 45 124 15 15 117 17 17 9 58 58 9 58 58 117 17 17 50 76 76 57 63 63 133 148 150 24 145 147 24 145 147 133 148 150 134 149 151 30 44 44 132 150 152 57 63 63 57 63 63 132 150 152 133 148 150 132 150 152 130 22 22 129 21 21 25 46 46 59 50 50 130 22 22 130 22 22 59 50 50 131 151 153 59 50 50 26 49 49 131 151 153 133 148 150 132 150 152 128 53 53 128 53 53 132 150 152 129 21 21 134 149 151 133 148 150 127 52 52 127 52 52 133 148 150 128 53 53 30 44 44 25 46 46 132 150 152 132 150 152 25 46 46 130 22 22 31 91 91 88 89 89 43 90 90 97 94 94 95 41 41 8 92 92 8 92 92 95 41 41 67 40 40 70 18 18 40 104 104 72 106 106 72 106 106 40 104 104 105 103 103 33 48 48 86 62 62 26 49 49 135 135 137 114 139 141 136 134 136 136 134 136 114 139 141 14 137 139 112 136 138 137 133 135 14 137 139 14 137 139 137 133 135 136 134 136 112 136 138 109 31 31 137 133 135 40 104 104 70 18 18 11 101 101 11 101 101 70 18 18 138 102 102 114 139 141 138 102 102 113 20 20 113 20 20 138 102 102 70 18 18 138 102 102 114 139 141 135 135 137 111 74 74 109 31 31 112 136 138 87 59 59 77 33 33 76 3 3 3 39 39 75 2 2 74 70 70 130 22 22 131 151 153 12 23 23 108 65 65 46 64 64 139 152 154 139 152 154 46 64 64 3 39 39 107 38 38 139 152 154 3 39 39 26 49 49 86 62 62 34 61 61 61 81 81 56 79 79 32 57 57 7 43 43 22 125 126 60 80 80 139 152 154 107 38 38 19 117 117 19 117 117 55 77 77 56 79 79 60 80 80 141 153 155 61 81 81 61 81 81 141 153 155 140 154 156 34 61 61 108 65 65 143 156 158 143 156 158 108 65 65 142 155 157 131 151 153 26 49 49 145 158 160 145 158 160 26 49 49 144 157 159 12 23 23 131 151 153 146 159 161 146 159 161 131 151 153 145 158 160 108 65 65 139 152 154 142 155 157 142 155 157 139 152 154 147 160 162 26 49 49 34 61 61 144 157 159 144 157 159 34 61 61 143 156 158 61 81 81 140 154 156 56 79 79 56 79 79 140 154 156 148 161 163 60 80 80 22 125 126 141 153 155 139 152 154 19 117 117 147 160 162 147 160 162 19 117 117 149 162 164 56 79 79 148 161 163 19 117 117 19 117 117 148 161 163 149 162 164 318 163 165 143 156 166 317 164 168 317 164 168 143 156 166 142 155 167 320 165 169 145 158 170 319 166 172 319 166 172 145 158 170 144 157 171 323 167 173 149 162 174 322 168 176 322 168 176 149 162 174 148 161 175 148 161 175 140 154 177 322 168 176 322 168 176 140 154 177 315 169 178 140 154 177 141 153 179 315 169 178 315 169 178 141 153 179 316 170 180 156 171 181 1 55 55 58 54 54 150 172 182 156 171 181 151 173 183 151 173 183 27 24 24 157 174 184 155 175 185 161 176 186 152 177 187 150 172 182 151 173 183 153 179 189 153 179 189 151 173 183 154 178 188 151 173 183 157 174 184 154 178 188 154 178 188 157 174 184 158 180 190 58 54 54 27 24 24 156 171 181 156 171 181 27 24 24 151 173 183 155 175 185 1 55 55 156 171 181 155 175 185 156 171 181 150 172 182 157 174 184 27 24 24 12 23 23 158 180 190 157 174 184 159 181 191 157 174 184 12 23 23 159 181 191 159 181 191 12 23 23 146 159 161 155 175 185 150 172 182 160 182 192 160 182 192 150 172 182 153 179 189 155 175 185 160 182 192 161 176 186 173 183 193 163 184 194 162 185 195 164 186 196 166 187 197 173 183 193 176 188 198 167 189 199 165 190 200 172 191 201 174 192 202 164 186 196 164 186 196 174 192 202 169 193 203 164 186 196 169 193 203 166 187 197 166 187 197 169 193 203 170 194 204 176 188 198 178 195 205 167 189 199 167 189 199 178 195 205 171 196 206 173 183 193 166 187 197 163 184 194 163 184 194 166 187 197 165 190 200 172 191 201 173 183 193 162 185 195 172 191 201 164 186 196 173 183 193 169 193 207 174 192 208 153 179 210 153 179 210 174 192 208 160 182 209 170 194 211 169 193 207 154 178 212 154 178 212 169 193 207 153 179 210 171 196 213 178 195 214 146 159 216 146 159 216 178 195 214 159 181 215 172 191 201 175 197 217 174 192 202 175 197 218 161 176 219 174 192 208 174 192 208 161 176 219 160 182 209 172 191 201 168 198 220 175 197 217 168 198 221 152 177 222 175 197 218 175 197 218 152 177 222 161 176 219 166 187 197 176 188 198 165 190 200 166 187 197 170 194 204 176 188 198 176 188 198 170 194 204 177 199 223 177 199 224 170 194 211 158 180 225 158 180 225 170 194 211 154 178 212 176 188 198 177 199 223 178 195 205 178 195 214 177 199 224 159 181 215 159 181 215 177 199 224 158 180 225 227 200 226 251 201 227 228 203 229 228 203 229 251 201 227 250 202 228 194 205 231 221 206 232 257 204 230 257 204 230 221 206 232 258 207 233 296 209 235 295 124 123 243 208 234 243 208 234 295 124 123 267 121 121 223 210 236 240 211 237 239 212 238 299 213 239 292 214 240 293 215 241 245 216 242 288 217 243 188 218 244 165 190 200 167 189 199 304 219 245 304 219 245 167 189 199 305 220 246 298 221 247 300 222 248 290 224 250 290 224 250 300 222 248 291 223 249 271 226 252 284 227 253 179 225 251 179 225 251 284 227 253 215 228 254 252 229 255 251 201 227 227 200 226 194 205 231 257 204 230 253 231 257 253 231 257 257 204 230 254 230 256 229 232 258 181 233 259 281 235 261 281 235 261 181 233 259 282 234 260 185 237 263 294 238 264 242 236 262 242 236 262 294 238 264 270 239 265 206 240 266 202 241 267 205 242 268 301 243 269 234 244 270 209 246 272 209 246 272 234 244 270 203 245 271 297 247 273 205 242 268 300 222 248 162 185 195 163 184 194 302 248 274 302 248 274 163 184 194 303 249 275 208 251 277 185 237 263 241 250 276 241 250 276 185 237 263 242 236 262 299 213 239 301 243 269 187 252 278 187 252 278 301 243 269 209 246 272 262 253 279 261 254 280 193 256 282 193 256 282 261 254 280 210 255 281 297 247 273 233 257 283 206 240 266 210 255 281 283 258 284 193 256 282 193 256 282 283 258 284 222 259 285 248 260 286 184 261 287 259 263 289 259 263 289 184 261 287 260 262 288 250 202 228 249 264 290 228 203 229 197 266 292 223 210 236 238 265 291 238 265 291 223 210 236 239 212 238 183 267 293 224 268 294 286 269 295 286 269 295 224 268 294 290 224 250 292 214 240 226 270 296 288 217 243 288 217 243 226 270 296 188 218 244 253 231 257 252 229 255 194 205 231 194 205 231 252 229 255 227 200 226 194 205 231 227 200 226 221 206 232 221 206 232 227 200 226 228 203 229 248 260 286 221 206 232 249 264 290 249 264 290 221 206 232 228 203 229 197 266 292 184 261 287 281 235 261 281 235 261 184 261 287 229 232 258 197 266 292 230 271 297 223 210 236 223 210 236 230 271 297 231 272 298 231 272 298 232 273 299 208 251 277 163 184 194 165 190 200 303 249 275 303 249 275 165 190 200 304 219 245 185 237 263 208 251 277 235 274 300 235 274 300 208 251 277 236 275 301 197 266 292 238 265 291 237 276 302 223 210 236 208 251 277 240 211 237 237 276 302 260 262 288 184 261 287 198 278 304 217 279 305 265 277 303 265 277 303 217 279 305 266 280 306 265 277 303 264 281 307 198 278 304 198 278 304 264 281 307 218 282 308 263 283 309 219 284 310 264 281 307 264 281 307 219 284 310 218 282 308 208 251 277 241 250 276 240 211 237 207 285 311 263 283 309 241 250 276 241 250 276 263 283 309 240 211 237 241 250 276 242 236 262 207 285 311 207 285 311 242 236 262 186 286 312 186 286 312 272 287 313 269 288 314 243 208 234 267 121 121 273 289 315 273 289 315 267 121 121 274 120 120 197 266 292 237 276 302 184 261 287 192 290 316 244 291 317 213 293 319 213 293 319 244 291 317 246 292 318 213 293 319 246 292 318 189 294 320 189 294 320 246 292 318 313 295 321 280 296 322 212 297 323 216 298 324 245 216 242 188 218 244 247 299 325 229 232 258 184 261 287 249 264 290 249 264 290 184 261 287 248 260 286 222 259 285 181 233 259 250 202 228 251 201 227 193 256 282 250 202 228 250 202 228 193 256 282 222 259 285 262 253 279 193 256 282 251 201 227 226 270 296 252 229 255 188 218 244 188 218 244 252 229 255 253 231 257 188 218 244 253 231 257 247 299 325 247 299 325 253 231 257 254 230 256 280 296 322 279 300 326 212 297 323 212 297 323 279 300 326 255 301 327 221 206 232 248 260 286 258 207 233 258 207 233 248 260 286 259 263 289 195 303 329 255 301 327 278 302 328 278 302 328 255 301 327 279 300 326 278 302 328 277 304 330 195 303 329 195 303 329 277 304 330 211 305 331 256 307 333 211 305 331 276 306 332 276 306 332 211 305 331 277 304 330 182 309 335 256 307 333 275 308 334 275 308 334 256 307 333 276 306 332 217 279 305 182 309 335 266 280 306 266 280 306 182 309 335 275 308 334 187 252 278 209 246 272 262 253 279 262 253 279 209 246 272 261 254 280 240 211 237 263 283 309 239 212 238 239 212 238 263 283 309 264 281 307 238 265 291 239 212 238 265 277 303 265 277 303 239 212 238 264 281 307 265 277 303 266 280 306 238 265 291 238 265 291 266 280 306 237 276 302 181 233 259 229 232 258 249 264 290 230 271 297 196 310 336 231 272 298 223 210 236 231 272 298 208 251 277 270 239 265 243 208 337 272 287 313 272 287 313 243 208 337 273 289 338 199 311 339 296 209 340 294 238 264 183 267 293 286 269 295 271 226 252 271 226 252 286 269 295 284 227 253 269 288 314 272 287 313 200 312 341 200 312 341 272 287 313 273 289 338 200 312 342 273 289 315 220 130 132 220 130 132 273 289 315 274 120 120 237 276 302 266 280 306 260 262 288 260 262 288 266 280 306 275 308 334 275 308 334 276 306 332 260 262 288 260 262 288 276 306 332 259 263 289 276 306 332 277 304 330 259 263 289 259 263 289 277 304 330 258 207 233 257 204 230 258 207 233 278 302 328 278 302 328 258 207 233 277 304 330 257 204 230 278 302 328 254 230 256 254 230 256 278 302 328 279 300 326 254 230 256 279 300 326 247 299 325 247 299 325 279 300 326 280 296 322 197 266 292 281 235 261 230 271 297 196 310 336 230 271 297 282 234 260 282 234 260 230 271 297 281 235 261 284 227 253 285 313 343 215 228 254 215 228 254 285 313 343 214 314 344 244 291 317 192 290 316 285 313 343 285 313 343 192 290 316 214 314 344 312 315 345 311 316 346 285 313 343 285 313 343 311 316 346 244 291 317 312 315 345 285 313 343 284 227 253 310 317 347 313 295 321 246 292 318 246 292 318 244 291 317 310 317 347 310 317 347 244 291 317 311 316 346 225 318 348 191 319 349 291 223 249 291 223 249 191 319 349 287 320 350 291 223 249 287 320 350 290 224 250 290 224 250 287 320 350 286 269 295 293 215 241 292 214 240 289 321 351 289 321 351 292 214 240 288 217 243 225 318 348 293 215 241 191 319 349 191 319 349 293 215 241 289 321 351 185 237 263 199 311 339 294 238 264 199 311 352 268 143 145 296 209 235 296 209 235 268 143 145 295 124 123 243 208 337 270 239 265 296 209 340 296 209 340 270 239 265 294 238 264 187 252 278 262 253 279 226 270 296 226 270 296 262 253 279 252 229 255 201 323 354 233 257 283 204 322 353 204 322 353 233 257 283 297 247 273 204 322 353 297 247 273 180 324 355 180 324 355 297 247 273 298 221 247 224 268 294 180 324 355 290 224 250 290 224 250 180 324 355 298 221 247 297 247 273 206 240 266 205 242 268 190 325 356 205 242 268 299 213 239 225 318 348 190 325 356 293 215 241 293 215 241 190 325 356 299 213 239 300 222 248 190 325 356 291 223 249 291 223 249 190 325 356 225 318 348 205 242 268 190 325 356 300 222 248 298 221 247 297 247 273 300 222 248 205 242 268 202 241 267 301 243 269 301 243 269 202 241 267 234 244 270 299 213 239 205 242 268 301 243 269 299 213 239 187 252 278 292 214 240 292 214 240 187 252 278 226 270 296 309 326 357 308 327 358 201 323 354 201 323 354 308 327 358 233 257 283 308 327 358 307 328 359 233 257 283 233 257 283 307 328 359 206 240 266 307 328 359 304 219 245 305 220 246 202 241 267 305 220 246 234 244 270 234 244 270 305 220 246 306 329 360 234 244 270 306 329 360 203 245 271 308 327 358 303 249 275 307 328 359 307 328 359 303 249 275 304 219 245 309 326 357 302 248 274 308 327 358 308 327 358 302 248 274 303 249 275 206 240 266 307 328 359 202 241 267 202 241 267 307 328 359 305 220 246 207 285 311 219 284 310 263 283 309 242 236 262 270 239 265 186 286 312 186 286 312 270 239 265 272 287 313 245 216 242 247 299 325 216 298 324 216 298 324 247 299 325 280 296 322 209 246 272 203 245 271 261 254 280 191 319 349 289 321 351 311 316 346 311 316 346 289 321 351 310 317 347 287 320 350 191 319 349 312 315 345 312 315 345 191 319 349 311 316 346 287 320 350 312 315 345 284 227 253 313 295 321 245 216 242 189 294 320 189 294 320 245 216 242 216 298 324 245 216 242 313 295 321 288 217 243 288 217 243 313 295 321 289 321 351 313 295 321 310 317 347 289 321 351 286 269 295 287 320 350 284 227 253 262 253 279 251 201 227 252 229 255 181 233 259 249 264 290 250 202 228 305 220 246 167 189 199 306 329 360 181 233 259 222 259 285 314 330 361 314 330 361 222 259 285 283 258 284 282 234 260 181 233 259 314 330 361 203 245 271 210 255 281 261 254 280 236 275 301 208 251 277 232 273 299 185 237 263 235 274 300 199 311 339 314 330 361 196 310 336 282 234 260 196 310 336 232 273 299 231 272 298 315 169 362 316 170 363 236 275 301 236 275 301 316 170 363 235 274 300 210 255 281 318 163 364 283 258 284 283 258 284 318 163 364 317 164 365 306 329 360 320 165 366 203 245 271 203 245 271 320 165 366 319 166 367 167 189 199 171 196 206 306 329 360 306 329 360 171 196 206 320 165 366 283 258 284 317 164 365 314 330 361 314 330 361 317 164 365 321 331 368 203 245 271 319 166 367 210 255 281 210 255 281 319 166 367 318 163 364 322 168 369 315 169 362 232 273 299 232 273 299 315 169 362 236 275 301 235 274 300 316 170 363 199 311 339 314 330 361 321 331 368 196 310 336 196 310 336 321 331 368 323 167 370 323 167 370 322 168 369 196 310 336 196 310 336 322 168 369 232 273 299 268 143 145 199 311 352 93 140 142 93 140 142 199 311 352 22 125 143 171 196 213 146 159 216 320 165 169 320 165 169 146 159 216 145 158 170 147 160 371 321 331 372 142 155 167 142 155 167 321 331 372 317 164 168 321 331 372 147 160 371 323 167 173 323 167 173 147 160 371 149 162 174 319 166 172 144 157 171 318 163 165 318 163 165 144 157 171 143 156 166 199 311 352 316 170 180 22 125 143 22 125 143 316 170 180 141 153 179 93 140 142 120 10 10 324 333 374 324 333 374 120 10 10 325 332 373 120 10 10 92 9 9 325 335 373 325 335 373 92 9 9 326 334 375 92 9 9 99 96 96 326 337 375 326 337 375 99 96 96 327 336 376 44 127 130 328 338 377 99 96 96 99 96 96 328 338 377 327 339 376 324 340 374 325 341 373 329 343 144 329 343 144 325 341 373 330 342 122 325 344 373 326 345 375 330 347 122 330 347 122 326 345 375 331 346 118 326 348 375 327 349 376 331 351 118 331 351 118 327 349 376 332 350 119 328 353 377 333 354 131 327 352 376 327 352 376 333 354 131 332 355 119 268 356 145 93 357 142 329 359 144 329 359 144 93 357 142 324 358 374</p>
        </triangles>
      </mesh>
      <extra>
        <technique profile="OpenCOLLADAMaya">
          <originalMayaNodeId>polySurfaceShape74</originalMayaNodeId>
          <double_sided>1</double_sided>
        </technique>
      </extra>
    </geometry>
  </library_geometries>
  <library_visual_scenes>
    <visual_scene id="VisualSceneNode" name="rockwall_pieces">
      <node id="polySurface55" name="polySurface55" type="NODE">
        <matrix sid="transform">1 0 0 0 0 1 0 0 0 0 1 0 0 0 0 1</matrix>
        <instance_geometry url="#polySurfaceShape74">
          <bind_material>
            <technique_common>
              <instance_material symbol="temp_lambert3SG" target="#lambert3SG1">
                <bind_vertex_input semantic="TEX0" input_semantic="TEXCOORD" input_set="0"/>
              </instance_material>
            </technique_common>
          </bind_material>
        </instance_geometry>
        <extra>
          <technique profile="OpenCOLLADAMaya">
            <originalMayaNodeId>polySurface55</originalMayaNodeId>
          </technique>
        </extra>
      </node>
    </visual_scene>
  </library_visual_scenes>
  <scene>
    <instance_visual_scene url="#VisualSceneNode"/>
  </scene>
</COLLADA>