<?xml version="1.0" encoding="utf-8"?>
<COLLADA xmlns="http://www.collada.org/2005/11/COLLADASchema" version="1.4.1">
  <asset><contributor><author></author><authoring_tool>FBX COLLADA exporter</authoring_tool><comments></comments></contributor><created>2018-12-25T21:08:17Z</created><keywords></keywords><modified>2018-12-25T21:08:17Z</modified><revision></revision><subject></subject><title></title><unit meter="0.010000" name="centimeter"></unit><up_axis>Y_UP</up_axis></asset>
  <library_images>
    <image id="Image0001-image" name="Image0001"><init_from>file://C:/Users/Draugemalf/Desktop/lab_set.png</init_from></image>
  </library_images>
  <library_materials>
    <material id="lab_set" name="lab_set">
      <instance_effect url="#lab_set-fx"/>
    </material>
  </library_materials>
  <library_effects>
    <effect id="lab_set-fx" name="lab_set">
      <profile_COMMON>
        <technique sid="standard">
          <phong>
            <emission>
              <color sid="emission">0.000000  0.000000 0.000000 1.000000</color>
            </emission>
            <ambient>
              <color sid="ambient">0.200000  0.200000 0.200000 1.000000</color>
            </ambient>
            <diffuse>
              <texture texture="Image0001-image" texcoord="CHANNEL0">
                <extra>
                  <technique profile="MAYA">
                    <wrapU sid="wrapU0">TRUE</wrapU>
                    <wrapV sid="wrapV0">TRUE</wrapV>
                    <blend_mode>NONE</blend_mode>
                  </technique>
                </extra>
              </texture>
            </diffuse>
            <specular>
              <color sid="specular">0.635000  0.635000 0.635000 1.000000</color>
            </specular>
            <shininess>
              <float sid="shininess">64.000000</float>
            </shininess>
            <reflective>
              <color sid="reflective">0.000000  0.000000 0.000000 1.000000</color>
            </reflective>
            <reflectivity>
              <float sid="reflectivity">0.500000</float>
            </reflectivity>
            <transparent opaque="RGB_ZERO">
              <color sid="transparent">0.000000  0.000000 0.000000 1.000000</color>
            </transparent>
            <transparency>
              <float sid="transparency">1.000000</float>
            </transparency>
          </phong>
        </technique>
      </profile_COMMON>
    </effect>
  </library_effects>
  <library_geometries>
    <geometry id="fountain-lib" name="fountainMesh">
      <mesh>
        <source id="fountain-POSITION">
          <float_array id="fountain-POSITION-array" count="228">
-0.450005 -0.130000 0.450005
0.450005 -0.130000 0.450005
-0.450005 -0.130000 -0.450005
0.450005 -0.130000 -0.450005
0.450005 -0.500000 -0.450005
-0.450005 -0.500000 -0.450005
0.450005 -0.500000 0.450005
-0.450005 -0.500000 0.450005
0.555385 -0.070000 0.555385
-0.555385 -0.070000 0.555385
0.555385 -0.070000 -0.555385
-0.555385 -0.070000 -0.555385
0.690001 0.309999 0.690001
0.555384 0.290001 0.700000
0.555384 0.309999 0.690001
-0.690001 0.309999 0.690001
-0.700000 0.290001 0.555384
-0.690001 0.309999 0.555384
0.690001 0.309999 -0.690001
0.700000 0.290001 -0.555385
0.690001 0.309999 -0.555385
-0.690001 0.309999 -0.690001
-0.555384 0.290001 -0.700000
-0.555384 0.309999 -0.690001
0.690001 0.309999 0.555384
0.700000 0.290001 0.555384
-0.555385 0.290001 0.700000
-0.555385 0.309999 0.690001
-0.700000 0.290001 -0.555385
-0.690001 0.309999 -0.555385
0.555385 0.290001 -0.700000
0.555385 0.309999 -0.690001
-0.691001 -0.130000 0.691001
0.691001 -0.130000 0.691001
-0.691001 -0.130000 -0.691001
0.691001 -0.130000 -0.691001
0.696772 0.290001 0.696772
0.700000 0.290001 0.688979
0.695501 0.299000 0.695501
0.688979 0.290001 0.700000
0.696772 -0.112002 0.696772
0.688979 -0.112002 0.700000
0.695501 -0.121000 0.695501
0.700000 -0.112002 0.688979
-0.696772 0.290001 0.696772
-0.688979 0.290001 0.700000
-0.695501 0.299000 0.695501
-0.700000 0.290001 0.688979
-0.696772 -0.112002 0.696772
-0.700000 -0.112002 0.688979
-0.695501 -0.121000 0.695501
-0.688979 -0.112002 0.700000
-0.696772 0.290001 -0.696772
-0.700000 0.290001 -0.688979
-0.695501 0.298999 -0.695501
-0.688979 0.290001 -0.700000
-0.696772 -0.112001 -0.696772
-0.688979 -0.112001 -0.700000
-0.695501 -0.120999 -0.695501
-0.700000 -0.112001 -0.688979
0.696772 0.290001 -0.696772
0.688979 0.290001 -0.700000
0.695501 0.298999 -0.695501
0.700000 0.290001 -0.688979
0.696772 -0.112002 -0.696772
0.700000 -0.112002 -0.688979
0.695501 -0.121000 -0.695501
0.688979 -0.112002 -0.700000
0.555385 0.291001 0.555385
0.564884 0.309999 0.564884
-0.555385 0.291001 0.555385
-0.564884 0.309999 0.564884
0.555385 0.291001 -0.555385
0.564884 0.309999 -0.564884
-0.555385 0.291001 -0.555385
-0.564884 0.309999 -0.564884
</float_array>
          <technique_common>
            <accessor source="#fountain-POSITION-array" count="76" stride="3">
              <param name="X" type="float"/>
              <param name="Y" type="float"/>
              <param name="Z" type="float"/>
            </accessor>
          </technique_common>
        </source>
        <source id="fountain-Normal0">
          <float_array id="fountain-Normal0-array" count="1332">
0.000000 -1.000000 -0.000000
0.000000 -1.000000 -0.000000
0.000000 -1.000000 -0.000000
0.000000 -1.000000 -0.000000
0.000000 -1.000000 -0.000000
0.000000 -1.000000 -0.000000
0.000000 0.000000 -1.000000
0.000000 0.000000 -1.000000
0.000000 0.000000 -1.000000
0.000000 0.000000 -1.000000
0.000000 0.000000 -1.000000
0.000000 0.000000 -1.000000
1.000000 0.000000 0.000000
1.000000 0.000000 0.000000
1.000000 0.000000 0.000000
1.000000 0.000000 0.000000
1.000000 0.000000 0.000000
1.000000 0.000000 0.000000
0.000000 0.000000 1.000000
0.000000 0.000000 1.000000
0.000000 0.000000 1.000000
0.000000 0.000000 1.000000
0.000000 0.000000 1.000000
0.000000 0.000000 1.000000
-1.000000 0.000000 0.000000
-1.000000 0.000000 0.000000
-1.000000 0.000000 0.000000
-1.000000 0.000000 0.000000
-1.000000 0.000000 0.000000
-1.000000 0.000000 0.000000
0.000000 1.000000 -0.000000
0.000000 1.000000 -0.000000
0.000000 1.000000 -0.000000
0.000000 1.000000 -0.000000
0.000000 1.000000 -0.000000
0.000000 1.000000 -0.000000
0.894427 0.447213 -0.000000
0.894428 0.447212 -0.000000
0.894427 0.447213 -0.000000
0.894428 0.447212 -0.000000
0.894427 0.447213 -0.000000
0.894428 0.447212 -0.000000
0.894427 0.447213 -0.000000
0.894427 0.447213 -0.000000
0.894427 0.447213 -0.000000
0.000000 0.447218 0.894425
-0.000000 0.447218 0.894425
-0.000000 0.447218 0.894425
-0.000000 0.447218 0.894425
0.000000 0.447218 0.894425
0.000000 0.447218 0.894425
0.000000 0.447218 0.894425
0.000000 0.447218 0.894425
0.000000 0.447218 0.894425
0.000000 0.447218 0.894425
0.000000 0.447218 0.894425
0.000000 0.447218 0.894425
0.000000 0.447218 0.894425
0.000000 0.447218 0.894425
0.000000 0.447218 0.894425
-0.894428 0.447212 -0.000000
-0.894428 0.447211 -0.000000
-0.894428 0.447212 -0.000000
-0.894428 0.447212 -0.000000
-0.894428 0.447211 -0.000000
-0.894428 0.447211 -0.000000
0.000000 0.447211 -0.894428
0.000000 0.447212 -0.894428
0.000000 0.447211 -0.894428
0.000000 0.447212 -0.894428
0.000000 0.447211 -0.894428
0.000000 0.447212 -0.894428
0.000000 0.447211 -0.894428
0.000000 0.447211 -0.894428
0.000000 0.447211 -0.894428
0.894428 0.447212 -0.000000
0.894428 0.447212 -0.000000
0.894428 0.447212 -0.000000
0.894428 0.447212 -0.000000
0.894428 0.447212 -0.000000
0.894428 0.447212 -0.000000
-0.894428 0.447211 -0.000000
-0.894429 0.447211 0.000000
-0.894428 0.447211 -0.000000
-0.894429 0.447211 0.000000
-0.894429 0.447211 0.000000
-0.894429 0.447211 0.000000
-0.894429 0.447211 0.000000
-0.894428 0.447211 -0.000000
-0.894429 0.447211 0.000000
0.000000 0.447212 -0.894428
0.000000 0.447212 -0.894428
0.000000 0.447212 -0.894428
0.000000 0.447212 -0.894428
0.000000 0.447212 -0.894428
0.000000 0.447212 -0.894428
-0.894428 -0.447212 -0.000000
-0.894428 -0.447212 -0.000000
-0.894428 -0.447212 -0.000000
-0.894428 -0.447212 -0.000000
-0.894428 -0.447212 -0.000000
-0.894428 -0.447212 -0.000000
-0.894428 -0.447212 -0.000000
-0.894428 -0.447212 -0.000000
-0.894428 -0.447212 -0.000000
-0.894428 -0.447212 -0.000000
-0.894428 -0.447212 -0.000000
-0.894428 -0.447212 -0.000000
-0.000000 -0.447213 -0.894428
-0.000000 -0.447213 -0.894428
-0.000000 -0.447213 -0.894428
-0.000000 -0.447213 -0.894428
-0.000000 -0.447213 -0.894428
-0.000000 -0.447213 -0.894428
-0.000000 -0.447213 -0.894428
-0.000000 -0.447213 -0.894428
-0.000000 -0.447213 -0.894428
-0.000000 -0.447213 -0.894428
-0.000000 -0.447213 -0.894428
-0.000000 -0.447213 -0.894428
-0.000000 -1.000000 -0.000000
-0.000000 -1.000000 -0.000000
-0.000000 -1.000000 -0.000000
-0.000000 -1.000000 -0.000000
-0.000000 -1.000000 -0.000000
-0.000000 -1.000000 -0.000000
-0.000000 -1.000000 -0.000000
-0.000001 -1.000000 0.000000
-0.000000 -1.000000 -0.000000
-0.000000 -1.000000 -0.000000
-0.000001 -1.000000 0.000000
-0.000001 -1.000000 0.000000
-0.000000 -1.000000 -0.000000
-0.000000 -1.000000 -0.000000
-0.000000 -1.000000 -0.000000
-0.000000 -1.000000 -0.000000
-0.000000 -1.000000 -0.000000
-0.000000 -1.000000 -0.000000
-0.000001 -1.000000 0.000000
-0.000000 -1.000000 -0.000000
-0.000000 -1.000000 -0.000000
-0.000001 -1.000000 0.000000
-0.000000 -1.000000 -0.000000
-0.000001 -1.000000 0.000000
-0.002344 0.000007 0.999997
-0.002344 -0.000007 0.999997
0.000000 0.000000 1.000000
-0.002344 -0.000007 0.999997
0.000000 0.000000 1.000000
0.000000 0.000000 1.000000
0.000000 0.000000 1.000000
0.002344 -0.000007 0.999997
0.002344 0.000007 0.999997
0.000000 0.000000 1.000000
-0.002344 -0.000007 0.999997
0.002344 -0.000007 0.999997
0.002344 -0.000007 -0.999997
-0.000000 0.000000 -1.000000
-0.000000 0.000000 -1.000000
-0.000000 0.000000 -1.000000
0.002344 -0.000007 -0.999997
-0.002344 -0.000007 -0.999997
0.002344 -0.000007 -0.999997
-0.000000 0.000000 -1.000000
0.002344 0.000007 -0.999997
-0.002344 -0.000007 -0.999997
-0.002344 0.000007 -0.999997
-0.000000 0.000000 -1.000000
-1.000000 -0.000000 0.000000
-0.999997 -0.000007 -0.002344
-0.999997 -0.000007 0.002344
-1.000000 -0.000000 0.000000
-0.999997 -0.000007 0.002344
-0.999997 0.000007 0.002344
-0.999997 -0.000007 -0.002344
-1.000000 -0.000000 0.000000
-1.000000 -0.000000 0.000000
-1.000000 -0.000000 0.000000
-0.999997 0.000007 -0.002344
-0.999997 -0.000007 -0.002344
0.999997 -0.000007 0.002344
0.999997 -0.000007 -0.002344
1.000000 -0.000000 0.000000
0.999997 -0.000007 0.002344
1.000000 -0.000000 0.000000
0.999997 0.000007 0.002344
1.000000 -0.000000 0.000000
0.999997 -0.000007 -0.002344
1.000000 -0.000000 0.000000
0.999997 -0.000007 -0.002344
0.999997 0.000007 -0.002344
1.000000 -0.000000 0.000000
-0.000000 0.447218 0.894425
-0.000001 0.447215 0.894427
-0.000001 0.447215 0.894427
-0.000001 0.447215 0.894427
-0.000000 0.447218 0.894425
-0.000000 0.447218 0.894425
-0.000001 0.447215 0.894427
-0.000001 0.447215 0.894427
-0.000001 0.447215 0.894427
0.894428 -0.447212 0.000000
0.894428 -0.447212 0.000000
0.894428 -0.447212 0.000000
0.894428 -0.447212 0.000000
0.894428 -0.447212 0.000000
0.894428 -0.447212 0.000000
0.894428 -0.447212 0.000000
0.894428 -0.447212 0.000000
0.894428 -0.447212 0.000000
0.894428 -0.447212 0.000000
0.894428 -0.447212 0.000000
0.894428 -0.447212 0.000000
-0.894427 0.447213 0.000000
-0.894428 0.447212 -0.000000
-0.894427 0.447213 0.000000
-0.894427 0.447213 0.000000
-0.894427 0.447213 0.000000
-0.894427 0.447213 0.000000
-0.894427 0.447213 0.000000
-0.894428 0.447212 -0.000000
-0.894428 0.447212 -0.000000
0.000000 -0.447213 0.894427
0.000000 -0.447213 0.894427
0.000000 -0.447213 0.894427
0.000000 -0.447213 0.894427
0.000000 -0.447213 0.894427
0.000000 -0.447213 0.894427
0.000000 -0.447213 0.894427
0.000000 -0.447213 0.894427
0.000000 -0.447213 0.894427
0.000000 -0.447213 0.894427
0.000000 -0.447213 0.894427
0.000000 -0.447213 0.894427
0.000000 0.447211 -0.894428
0.000000 0.447212 -0.894428
0.000000 0.447211 -0.894428
0.000000 0.447211 -0.894428
0.000000 0.447211 -0.894428
0.000000 0.447211 -0.894428
0.000000 0.447212 -0.894428
0.000000 0.447211 -0.894428
0.000000 0.447212 -0.894428
0.894428 0.447212 -0.000000
0.894428 0.447211 -0.000000
0.894428 0.447212 -0.000000
0.894428 0.447211 -0.000000
0.894428 0.447211 -0.000000
0.894428 0.447211 -0.000000
0.894428 0.447212 -0.000000
0.894428 0.447211 -0.000000
0.894428 0.447211 -0.000000
0.923880 -0.001946 0.382677
0.999997 0.000007 0.002344
0.923880 0.001946 0.382677
0.999997 0.000007 0.002344
0.923880 -0.001946 0.382677
0.999997 -0.000007 0.002344
0.002344 0.000007 0.999997
0.002344 -0.000007 0.999997
0.382678 0.001946 0.923880
0.382678 0.001946 0.923880
0.002344 -0.000007 0.999997
0.382678 -0.001946 0.923880
-0.382677 -0.001946 0.923880
-0.002344 0.000007 0.999997
-0.382677 0.001946 0.923880
-0.002344 0.000007 0.999997
-0.382677 -0.001946 0.923880
-0.002344 -0.000007 0.999997
-0.999997 0.000007 0.002344
-0.999997 -0.000007 0.002344
-0.923880 0.001946 0.382677
-0.923880 -0.001946 0.382677
-0.923880 0.001946 0.382677
-0.999997 -0.000007 0.002344
-0.923879 0.001946 -0.382679
-0.923879 -0.001946 -0.382679
-0.999997 0.000007 -0.002344
-0.999997 -0.000007 -0.002344
-0.999997 0.000007 -0.002344
-0.923879 -0.001946 -0.382679
-0.382679 -0.001946 -0.923880
-0.382679 0.001946 -0.923880
-0.002344 -0.000007 -0.999997
-0.002344 -0.000007 -0.999997
-0.382679 0.001946 -0.923880
-0.002344 0.000007 -0.999997
0.002344 -0.000007 -0.999997
0.002344 0.000007 -0.999997
0.382678 -0.001946 -0.923880
0.382678 -0.001946 -0.923880
0.002344 0.000007 -0.999997
0.382678 0.001946 -0.923880
0.999997 -0.000007 -0.002344
0.923880 0.001946 -0.382677
0.999997 0.000007 -0.002344
0.923880 0.001946 -0.382677
0.999997 -0.000007 -0.002344
0.923880 -0.001946 -0.382677
0.376334 0.181524 0.908527
0.002344 0.000007 0.999997
0.382678 0.001946 0.923880
0.908532 0.181521 0.376324
0.923880 0.001946 0.382677
0.999997 0.000007 0.002344
0.908532 -0.181527 0.376322
0.999997 -0.000007 0.002344
0.923880 -0.001946 0.382677
0.376335 -0.181525 0.908527
0.382678 -0.001946 0.923880
0.002344 -0.000007 0.999997
-0.908530 0.181529 0.376325
-0.999997 0.000007 0.002344
-0.923880 0.001946 0.382677
-0.376335 0.181525 0.908527
-0.382677 0.001946 0.923880
-0.002344 0.000007 0.999997
-0.376326 -0.181526 0.908530
-0.002344 -0.000007 0.999997
-0.382677 -0.001946 0.923880
-0.908533 -0.181521 0.376322
-0.923880 -0.001946 0.382677
-0.999997 -0.000007 0.002344
-0.376334 0.181524 -0.908527
-0.002344 0.000007 -0.999997
-0.382679 0.001946 -0.923880
-0.908531 0.181520 -0.376326
-0.923879 0.001946 -0.382679
-0.999997 0.000007 -0.002344
-0.908531 -0.181526 -0.376323
-0.999997 -0.000007 -0.002344
-0.923879 -0.001946 -0.382679
-0.376335 -0.181525 -0.908527
-0.382679 -0.001946 -0.923880
-0.002344 -0.000007 -0.999997
0.908530 0.181526 -0.376327
0.999997 0.000007 -0.002344
0.923880 0.001946 -0.382677
0.376334 0.181524 -0.908527
0.382678 0.001946 -0.923880
0.002344 0.000007 -0.999997
0.376335 -0.181525 -0.908527
0.002344 -0.000007 -0.999997
0.382678 -0.001946 -0.923880
0.908533 -0.181521 -0.376322
0.923880 -0.001946 -0.382677
0.999997 -0.000007 -0.002344
-0.894427 0.447214 -0.000000
-0.894427 0.447214 -0.000000
-0.894427 0.447214 -0.000000
-0.894427 0.447214 -0.000000
-0.894427 0.447214 -0.000000
-0.894427 0.447214 -0.000000
0.000000 0.447214 -0.894427
0.000000 0.447214 -0.894427
0.000000 0.447214 -0.894427
0.000000 0.447214 -0.894427
0.000000 0.447214 -0.894427
0.000000 0.447214 -0.894427
0.894427 0.447214 -0.000000
0.894427 0.447214 -0.000000
0.894427 0.447214 -0.000000
0.894427 0.447214 -0.000000
0.894427 0.447214 -0.000000
0.894427 0.447214 -0.000000
0.000000 0.447213 0.894427
0.000000 0.447213 0.894427
0.000000 0.447213 0.894427
0.000000 0.447213 0.894427
0.000000 0.447213 0.894427
0.000000 0.447213 0.894427
0.000000 0.000000 -1.000000
0.000000 0.000000 -1.000000
0.000000 0.000000 -1.000000
0.000000 0.000000 -1.000000
0.000000 0.000000 -1.000000
0.000000 0.000000 -1.000000
-1.000000 0.000000 0.000000
-1.000000 0.000000 0.000000
-1.000000 0.000000 0.000000
-1.000000 0.000000 0.000000
-1.000000 0.000000 0.000000
-1.000000 0.000000 0.000000
0.000000 0.000000 1.000000
0.000000 0.000000 1.000000
0.000000 0.000000 1.000000
0.000000 0.000000 1.000000
0.000000 0.000000 1.000000
0.000000 0.000000 1.000000
1.000000 0.000000 0.000000
1.000000 0.000000 0.000000
1.000000 0.000000 0.000000
1.000000 0.000000 0.000000
1.000000 0.000000 0.000000
1.000000 0.000000 0.000000
0.000000 1.000000 -0.000001
0.000000 1.000000 -0.000001
-0.000000 1.000000 -0.000000
0.000000 1.000000 -0.000000
0.000000 1.000000 -0.000000
0.000000 1.000000 -0.000000
-0.000000 1.000000 -0.000000
0.000000 1.000000 -0.000000
-0.000000 1.000000 -0.000000
-0.000000 1.000000 -0.000001
-0.000000 1.000000 -0.000001
0.000000 1.000000 -0.000000
-0.000000 1.000000 -0.000000
0.000000 1.000000 -0.000001
0.000000 1.000000 -0.000001
0.000000 1.000000 -0.000001
-0.000000 1.000000 -0.000001
0.000000 1.000000 -0.000001
-0.000000 1.000000 -0.000001
0.000000 1.000000 -0.000001
0.000000 1.000000 -0.000001
0.000000 1.000000 -0.000000
0.000000 1.000000 -0.000001
-0.000000 1.000000 -0.000001
-0.000000 1.000000 -0.000001
-0.000000 1.000000 -0.000000
-0.000000 1.000000 -0.000001
-0.000000 1.000000 -0.000001
-0.000000 1.000000 -0.000000
-0.000000 1.000000 -0.000000
-0.000000 1.000000 -0.000000
-0.000000 1.000000 -0.000000
-0.000000 1.000000 -0.000000
0.000000 1.000000 -0.000000
0.000000 1.000000 -0.000000
0.000000 1.000000 -0.000000
-0.000000 1.000000 -0.000000
0.000000 1.000000 -0.000000
0.000000 1.000000 -0.000000
0.000000 1.000000 -0.000000
0.000000 1.000000 -0.000000
0.000000 1.000000 -0.000000
0.000000 1.000000 -0.000001
0.000000 1.000000 -0.000000
0.000000 1.000000 -0.000001
0.000000 1.000000 -0.000000
0.000000 1.000000 -0.000001
0.000000 1.000000 -0.000000
</float_array>
          <technique_common>
            <accessor source="#fountain-Normal0-array" count="444" stride="3">
              <param name="X" type="float"/>
              <param name="Y" type="float"/>
              <param name="Z" type="float"/>
            </accessor>
          </technique_common>
        </source>
        <source id="fountain-UV0">
          <float_array id="fountain-UV0-array" count="344">
0.124482 0.000369
0.124482 0.481097
0.002145 0.481097
0.002145 0.000369
0.124485 0.000378
0.124485 0.481097
0.002142 0.481097
0.002142 0.000378
0.006564 0.724264
0.229770 0.724264
0.229770 0.947470
0.006564 0.947470
0.002469 0.486449
0.247013 0.486449
0.247013 0.965550
0.002469 0.965550
0.002145 0.481097
0.002145 0.000369
0.124482 0.000369
0.124482 0.481097
0.124482 0.000369
0.124482 0.481097
0.002145 0.481097
0.002145 0.000369
0.509663 0.115285
0.509665 0.115284
0.508750 0.115284
0.508752 0.115285
0.130940 0.948038
0.130940 0.948038
0.507829 0.115284
0.509663 0.702354
0.505994 0.697732
0.189129 0.503564
0.508751 0.702353
0.505047 0.697733
0.506898 0.115284
0.130940 0.948048
0.506900 0.115284
0.508752 0.702354
0.505049 0.697732
0.509665 0.702353
0.505995 0.697733
0.507830 0.115284
0.186839 0.505662
0.133881 0.902966
0.133881 0.548635
0.186841 0.505662
0.133881 0.902967
0.133881 0.548635
0.133228 0.945951
0.186188 0.548636
0.186188 0.902977
0.186842 0.505662
0.133881 0.902976
0.133881 0.548636
0.133881 0.505662
0.186839 0.945940
0.133881 0.505662
0.186841 0.945940
0.133881 0.505662
0.133228 0.505662
0.186188 0.945950
0.186842 0.945950
0.133881 0.945940
0.130940 0.503564
0.505050 0.119692
0.507828 0.702354
0.133881 0.945940
0.130940 0.503564
0.505995 0.119694
0.506899 0.702353
0.186188 0.505662
0.130940 0.503564
0.505047 0.119905
0.507830 0.702353
0.133881 0.945950
0.189129 0.948048
0.505995 0.119905
0.506900 0.702354
0.133881 0.502117
0.133881 0.949485
0.505994 0.702354
0.505048 0.115284
0.186842 0.502117
0.186839 0.949485
0.133881 0.502117
0.133881 0.949485
0.505047 0.702354
0.505994 0.115284
0.186839 0.502117
0.186841 0.949485
0.133881 0.502117
0.186188 0.502117
0.505995 0.702354
0.505047 0.115284
0.186841 0.502117
0.133228 0.502117
0.186188 0.949496
0.133881 0.949495
0.505049 0.702354
0.505995 0.115284
0.133228 0.949496
0.186842 0.949495
0.272780 0.700007
0.352025 0.620762
0.647975 0.620762
0.727220 0.700007
0.272780 0.245568
0.352025 0.324813
0.647975 0.324813
0.727220 0.245568
0.243113 0.680598
0.243867 0.681691
0.243867 0.704090
0.219621 0.679843
0.033391 0.679843
0.009899 0.680598
0.010993 0.679843
0.009145 0.704089
0.009145 0.890319
0.243113 0.913811
0.242019 0.914565
0.219621 0.914565
0.243867 0.890319
0.009899 0.913811
0.009145 0.912718
0.033391 0.914565
0.242019 0.679843
0.009145 0.681691
0.010993 0.914565
0.243867 0.912718
0.107081 0.498610
0.109937 0.498610
0.109937 0.951935
0.052805 0.498610
0.055661 0.951963
0.052805 0.951963
0.109937 0.951935
0.107081 0.498610
0.109937 0.498610
0.107080 0.498610
0.109937 0.498610
0.109937 0.951935
0.055661 0.498610
0.109937 0.498610
0.109937 0.951963
0.107081 0.951935
0.052805 0.951935
0.052805 0.498610
0.107080 0.951935
0.052801 0.951935
0.052801 0.498610
0.107081 0.951935
0.052805 0.951935
0.052805 0.498610
0.242191 0.681520
0.242191 0.912889
0.010821 0.912889
0.010821 0.681520
0.242191 0.704090
0.031798 0.702497
0.219621 0.681520
0.033391 0.681520
0.031798 0.891912
0.010821 0.704089
0.010821 0.890319
0.221214 0.891912
0.033391 0.912889
0.219621 0.912889
0.221214 0.702497
0.242191 0.890319
</float_array>
          <technique_common>
            <accessor source="#fountain-UV0-array" count="172" stride="2">
              <param name="S" type="float"/>
              <param name="T" type="float"/>
            </accessor>
          </technique_common>
        </source>
        <vertices id="fountain-VERTEX">
          <input semantic="POSITION" source="#fountain-POSITION"/>
        </vertices>
        <triangles count="148" material="lab_set"><input semantic="VERTEX" offset="0" source="#fountain-VERTEX"/><input semantic="NORMAL" offset="1" source="#fountain-Normal0"/><input semantic="TEXCOORD" offset="2" set="0" source="#fountain-UV0"/><p> 6 0 10 7 1 11 5 2 8 6 3 10 5 4 8 4 5 9 4 6 18 5 7 19 2 8 16 4 9 18 2 10 16 3 11 17 6 12 2 3 13 0 1 14 1 3 15 0 6 16 2 4 17 3 0 18 21 6 19 23 1 20 20 6 21 23 0 22 21 7 23 22 5 24 6 7 25 7 0 26 4 0 27 4 2 28 5 5 29 6 10 30 14 9 31 12 8 32 13 9 33 12 10 34 14 11 35 15 37 36 113 24 37 160 12 38 156 24 39 160 37 40 113 25 41 114 37 42 113 12 43 156 38 44 112 27 45 163 13 46 115 14 47 162 13 48 115 27 49 163 26 50 116 45 51 118 27 52 163 15 53 159 45 54 118 15 55 159 46 56 117 27 57 163 45 58 118 26 59 116 17 60 165 29 61 166 16 62 119 16 63 119 29 64 166 28 65 120 61 66 122 31 67 169 18 68 157 31 69 169 61 70 122 30 71 123 18 72 157 62 73 121 61 74 122 25 75 114 20 76 171 24 77 160 20 78 171 25 79 114 19 80 124 29 81 166 53 82 126 28 83 120 53 84 126 21 85 158 54 86 125 53 87 126 29 88 166 21 89 158 23 90 168 31 91 169 22 92 127 30 93 123 22 94 127 31 95 169 34 96 26 49 97 35 59 98 74 32 99 34 49 100 35 34 101 26 49 102 35 32 103 34 50 104 71 59 105 74 58 106 36 34 107 26 67 108 78 34 109 41 57 110 42 34 111 41 67 112 78 35 113 25 57 114 42 34 115 41 58 116 75 35 117 25 67 118 78 66 119 43 1 120 106 32 121 104 0 122 105 33 123 107 32 124 104 1 125 106 34 126 108 35 127 111 2 128 109 2 129 109 35 130 111 3 131 110 32 132 104 34 133 108 0 134 105 0 135 105 34 136 108 2 137 109 3 138 110 33 139 107 1 140 106 35 141 111 33 142 107 3 143 110 45 144 58 51 145 44 26 146 46 51 147 44 13 148 45 26 149 46 13 150 45 41 151 57 39 152 64 13 153 45 51 154 44 41 155 57 67 156 50 22 157 51 30 158 52 22 159 51 67 160 50 57 161 61 67 162 50 30 163 52 61 164 62 57 165 61 55 166 72 22 167 51 16 168 48 59 169 47 49 170 59 16 171 48 49 172 59 47 173 68 59 174 47 16 175 48 28 176 49 28 177 49 53 178 60 59 179 47 43 180 53 65 181 63 25 182 55 43 183 53 25 184 55 37 185 56 25 186 55 65 187 63 19 188 54 65 189 63 63 190 76 19 191 54 14 192 162 39 193 128 12 194 156 39 195 128 14 196 162 13 197 115 39 198 128 38 199 112 12 200 156 66 201 79 65 202 40 35 203 39 65 204 40 33 205 27 35 206 39 43 207 66 33 208 27 65 209 40 33 210 27 43 211 66 42 212 38 15 213 159 17 214 165 47 215 129 15 216 159 47 217 129 46 218 117 47 219 129 17 220 165 16 221 119 33 222 31 51 223 70 32 224 24 51 225 70 33 226 31 41 227 32 32 228 24 51 229 70 50 230 30 41 231 32 33 232 31 42 233 67 21 234 158 23 235 168 55 236 130 21 237 158 55 238 130 54 239 125 22 240 127 55 241 130 23 242 168 19 243 124 63 244 131 20 245 171 18 246 157 63 247 131 62 248 121 20 249 171 63 250 131 18 251 157 40 252 84 37 253 56 36 254 80 37 255 56 40 256 84 43 257 53 39 258 64 41 259 57 36 260 81 36 261 81 41 262 57 40 263 85 48 264 90 45 265 58 44 266 86 45 267 58 48 268 90 51 269 44 47 270 68 49 271 59 44 272 87 48 273 91 44 274 87 49 275 59 52 276 92 56 277 96 53 278 60 59 279 47 53 280 60 56 281 96 56 282 97 52 283 93 57 284 61 57 285 61 52 286 93 55 287 72 67 288 50 61 289 62 64 290 102 64 291 102 61 292 62 60 293 98 65 294 63 60 295 99 63 296 76 60 297 99 65 298 63 64 299 103 38 300 28 39 301 64 36 302 81 38 303 65 36 304 80 37 305 56 42 306 38 43 307 66 40 308 83 42 309 67 40 310 82 41 311 32 46 312 29 47 313 68 44 314 87 46 315 69 44 316 86 45 317 58 50 318 30 51 319 70 48 320 89 50 321 71 48 322 88 49 323 35 54 324 33 55 325 72 52 326 93 54 327 73 52 328 92 53 329 60 58 330 36 59 331 74 56 332 95 58 333 75 56 334 94 57 335 42 62 336 37 63 337 76 60 338 99 62 339 77 60 340 98 61 341 62 66 342 43 67 343 78 64 344 101 66 345 79 64 346 100 65 347 40 69 348 133 73 349 134 68 350 132 68 351 132 73 352 134 72 353 147 69 354 135 70 355 136 71 356 137 70 357 136 69 358 135 68 359 144 70 360 153 75 361 140 71 362 138 75 363 140 70 364 153 74 365 139 73 366 142 75 367 143 72 368 141 72 369 141 75 370 143 74 371 150 8 372 145 9 373 146 70 374 136 8 375 145 70 376 136 68 377 144 8 378 149 72 379 147 10 380 148 72 381 147 8 382 149 68 383 132 11 384 151 72 385 141 74 386 150 72 387 141 11 388 151 10 389 152 9 390 154 74 391 139 70 392 153 74 393 139 9 394 154 11 395 155 69 396 170 14 397 162 12 398 156 73 399 167 20 400 171 18 401 157 75 402 164 23 403 168 21 404 158 71 405 161 17 406 165 15 407 159 12 408 156 24 409 160 69 410 170 14 411 162 71 412 161 27 413 163 71 414 161 14 415 162 69 416 170 15 417 159 27 418 163 71 419 161 71 420 161 75 421 164 17 422 165 17 423 165 75 424 164 29 425 166 21 426 158 29 427 166 75 428 164 31 429 169 23 430 168 73 431 167 75 432 164 73 433 167 23 434 168 18 435 157 31 436 169 73 437 167 24 438 160 73 439 167 69 440 170 73 441 167 24 442 160 20 443 171</p></triangles>
      </mesh>
    </geometry>
  </library_geometries>
  <library_visual_scenes>
    <visual_scene id="fountain_1" name="fountain_1">
      <node name="fountain" id="fountain" sid="fountain"><matrix sid="matrix">200.000000 0.000000 0.000000 0.000000 0.000000 100.000000 0.000000 50.000000 0.000000 0.000000 200.000000 0.000000 0.000000 0.000000 0.000000 1.000000</matrix><instance_geometry url="#fountain-lib"><bind_material><technique_common><instance_material symbol="lab_set" target="#lab_set"/></technique_common></bind_material></instance_geometry><extra><technique profile="FCOLLADA"><visibility>1.000000</visibility></technique></extra></node>
      <extra><technique profile="MAX3D"><frame_rate>30.000000</frame_rate></technique><technique profile="FCOLLADA"><start_time>0.000000</start_time><end_time>8.333333</end_time></technique></extra>
    </visual_scene>
  </library_visual_scenes>
  <scene>
    <instance_visual_scene url="#fountain_1"></instance_visual_scene>
  </scene>
</COLLADA>
