<?xml version="1.0" encoding="utf-8"?>
<COLLADA xmlns="http://www.collada.org/2005/11/COLLADASchema" version="1.4.1">
  <asset>
    <contributor>
      <author>Marc</author>
      <authoring_tool>OpenCOLLADA2008</authoring_tool>
      <comments>
			ColladaMaya export options: 
			bakeTransforms=1;relativePaths=1;copyTextures=0;exportTriangles=1;exportCgfxFileReferences=0;
			isSampling=0;curveConstrainSampling=0;removeStaticCurves=0;exportPolygonMeshes=1;exportLights=0;
			exportCameras=0;exportJointsAndSkin=1;exportAnimations=1;exportInvisibleNodes=0;exportDefaultCameras=0;
			exportTexCoords=1;exportNormals=1;exportNormalsPerVertex=0;exportVertexColors=0;exportVertexColorsPerVertex=0;
			exportTexTangents=0;exportTangents=0;exportReferencedMaterials=0;exportMaterialsOnly=0;
			exportXRefs=0;dereferenceXRefs=0;exportCameraAsLookat=0;cameraXFov=0;cameraYFov=1;doublePrecision=0
		</comments>
      <source_data>file:///H:/Dropbox%20(Frictional%20Games)/Team/depth_marc/models/rockwall/rockwall%20pieces.mb</source_data>
    </contributor>
    <created>2015-02-11T12:34:11</created>
    <modified>2015-02-11T12:34:11</modified>
    <unit name="meter" meter="1"/>
    <up_axis>Y_UP</up_axis>
  </asset>
  <library_materials>
    <material id="lambert3SG1" name="lambert3SG1">
      <instance_effect url="#lambert3SG1-fx"/>
    </material>
  </library_materials>
  <library_effects>
    <effect id="lambert3SG1-fx">
      <profile_COMMON>
        <newparam sid="file2-surface">
          <surface type="2D">
            <init_from>file2</init_from>
          </surface>
        </newparam>
        <newparam sid="file2-sampler">
          <sampler2D>
            <source>file2-surface</source>
          </sampler2D>
        </newparam>
        <technique sid="common">
          <lambert>
            <emission>
              <color>0 0 0 1</color>
            </emission>
            <ambient>
              <color>0 0 0 1</color>
            </ambient>
            <diffuse>
              <texture texture="file2-sampler" texcoord="TEX0">
                <extra>
                  <technique profile="OpenCOLLADAMaya">
                    <blend_mode>NONE</blend_mode>
                    <coverageU>1</coverageU>
                    <coverageV>1</coverageV>
                    <fast>0</fast>
                    <mirrorU>0</mirrorU>
                    <mirrorV>0</mirrorV>
                    <noiseU>0</noiseU>
                    <noiseV>0</noiseV>
                    <offsetU>0</offsetU>
                    <offsetV>0</offsetV>
                    <repeatU>1</repeatU>
                    <repeatV>1</repeatV>
                    <rotateFrame>0</rotateFrame>
                    <rotateUV>0</rotateUV>
                    <stagger>0</stagger>
                    <translateFrameU>0</translateFrameU>
                    <translateFrameV>0</translateFrameV>
                    <wrapU>1</wrapU>
                    <wrapV>1</wrapV>
                  </technique>
                </extra>
              </texture>
            </diffuse>
            <transparent opaque="RGB_ZERO">
              <color>0 0 0 1</color>
            </transparent>
            <transparency>
              <float>1</float>
            </transparency>
          </lambert>
        </technique>
      </profile_COMMON>
    </effect>
  </library_effects>
  <library_images>
    <image id="file2" name="file2">
      <init_from>./ice_rock_UV.dds</init_from>
      <extra>
        <technique profile="OpenCOLLADAMaya">
          <dgnode_type>kFile</dgnode_type>
          <image_sequence>0</image_sequence>
          <originalMayaNodeId>file2</originalMayaNodeId>
        </technique>
      </extra>
    </image>
  </library_images>
  <library_geometries>
    <geometry id="pCubeShape24" name="pCubeShape24">
      <mesh>
        <source id="pCubeShape24-positions" name="pCubeShape24-positions">
          <float_array id="pCubeShape24-positions-array" count="1398">-6.474866 7.930673 -4.311932 7.31013 5.097153 -1.804065 -7.949822 0.4306732 -4.997794 9.9029 0.4306732 -4.186541 -6.672469 0.4306732 4.444165 9.122073 0.4306732 5.25 -7.11728 7.930673 3.274875 11.78735 0.4306732 0.9128136 -10.125 0.4306732 0 -8.841423 7.930673 0.3759871 0 0.4306732 -4.392207 1.096992 6.455645 -2.553693 1.096992 6.558416 0 1.096992 6.221824 2.17354 0 0.4306732 5.739494 0 1.57114 -4.392208 9.9029 1.57114 -4.186541 11.78735 1.57114 0.9128136 9.122073 1.57114 5.250001 0 1.57114 5.739494 -6.672469 1.57114 4.444165 -10.125 1.57114 0 -7.949822 1.078977 -4.997794 0 3.661848 -3.190772 -1.099039 4.011581 6.187964 4.021509 5.059002 3.458834 3.194542 5.640616 0 4.459094 5.640616 -1.720207 -0.3414284 7.887527 -4.833495 0.2454399 7.986487 -0.1491577 -2.461084 7.173882 2.093831 -10.39904 4.543704 2.874314 -11.42804 4.543704 -0.00158813 -10.39904 4.543704 -2.87749 8.173528 3.547532 -3.029588 9.375 3.682974 0 8.754954 3.682974 3.563341 4.377473 3.985185 3.986887 5.693928 1.57114 4.437912 5.693928 0.4306732 4.437912 4.56104 0.4306732 -5.798808 4.56104 1.57114 -5.798808 3.824604 3.135256 -3.921411 -3.483307 4.229144 -3.988692 -4.956167 1.078977 -6.160084 -4.956167 0.4306732 -6.160084 -4.568397 0.4306732 4.444165 -4.568397 1.57114 4.444165 -2.968304 4.229144 4.696711 -2.339795 4.939196 4.543377 -1.036875 4.392351 5.981982 4.048184 4.405146 3.692133 0.8258606 4.605233 2.892255 2.330596 4.319084 5.863435 2.513427 3.931036 6.153818 -6.347542 4.545922 -4.084242 -9.062985 5.568193 -0.001940041 -8.086787 5.356214 4.074443 -1.01447 4.878655 3.820429 -2.731003 6.430917 4.884017 -0.7163086 6.277758 4.870764 2.28052 1.57114 5.25 2.28052 0.4306732 5.25 -1.864589 1.57114 4.8787 -1.864589 0.4306732 4.8787 -4.6621 7.361285 3.721193 2.414498 4.550155 2.065516 2.849985 5.62437 1.812633 -2.831748 8.235707 1.570796 -5.991863 8.09386 2.503316 -7.455414 8.09386 -0.006687373 -5.991863 8.09386 -2.516691 -1.961741 8.09386 -2.571432 -1.371383 8.09386 -0.006687374 -5.493479 9.40885 -0.01700322 -5.267743 9.865217 -1.375546 -3.086433 9.865217 -1.405175 -3.333318 9.40885 -0.01700322 -3.443112 8.827083 1.045315 -5.376101 8.875193 1.514478 -6.268715 8.875193 -0.01636728 -5.376101 8.875193 -1.547213 -2.918137 8.875193 -1.580599 -2.558079 8.875193 -0.01636728 -1.310251 7.24267 -5.281396 -7.241909 7.327926 -5.238964 -3.08907 8.258014 -2.55612 -5.194036 8.258014 -2.527528 -4.6621 8.094827 -3.763344 -3.053016 8.094827 -3.782089 -5.376101 8.875193 -4.264749 -2.953647 8.875193 -4.298136 -5.267743 9.865217 -4.046695 -3.121943 9.865217 -4.076324 -2.478175 8.697984 -2.980222 -2.70672 10.04242 -2.710502 -5.668916 10.04242 -2.670266 -5.816063 8.697984 -2.934884 -3.615223 8.186353 -5.82943 -5.270314 8.212835 -5.816249 -6.024525 7.318101 -5.243854 -2.247938 7.257673 -5.273928 -3.653243 7.794476 -6.349641 -5.004602 7.816099 -6.33888 -3.610898 6.914225 -6.383818 -5.247096 6.882281 -6.000178 -3.562094 5.643638 -4.943237 -5.460758 5.773947 -5.036788 -1.537936 5.735907 -4.070566 -6.902948 3.96744 -4.128615 -3.60624 2.900142 -4.08084 -8.712261 7.04782 3.06843 -9.794253 7.074014 1.128244 -8.928699 2.569486 -2.936012 -9.837638 2.648673 -5.38172e-4 11.19198 1.57114 3.368325 11.19198 0.4306732 3.368324 -8.934935 7.930673 -1.597454 -9.663124 7.166947 -1.770116 -8.050997 7.247437 -3.220573 -7.303381 7.930673 -2.670726 -8.741396 5.113402 -2.043091 -7.967992 5.518548 2.036252 -10.13215 4.543704 1.436363 -9.834895 4.848859 4.169884 -10.14395 3.651784 2.929272 -9.70084 3.812167 4.145211 -11.38078 3.957559 -0.001063151 -10.41181 3.917965 -2.906751 -9.761243 3.675787 1.464104 -8.791677 1.57114 1.330772 -8.415132 1.57114 3.366331 -9.20462 2.892847 2.044418 -8.741107 2.907556 3.848281 -7.043218 4.604724 5.766622 -4.358315 4.127612 5.353317 -8.602925 4.336968 4.641276 -8.899812 0.4306732 1.208034 -8.633075 0.4306732 3.249691 -7.145471 4.275477 5.953535 -4.392658 3.843152 5.5558 -7.205424 2.714329 4.461793 -4.281848 2.514727 4.685645 -8.955798 2.770759 1.02194 -9.865261 1.57114 -3.270421 -9.865261 -0.06148956 -3.270421 -7.757747 6.202017 3.396566 -7.103203 7.172354 3.888552 -6.039705 5.801574 3.010131 -6.479487 5.174291 3.170512 -4.354944 5.824114 3.401708 -4.723894 4.787716 3.383944 -7.636516 5.833505 3.383802 -8.353773 5.036995 4.399858 -6.995333 6.486286 -5.124955 -8.252974 6.590156 -2.8761 -9.736849 6.545005 -1.848489 -9.83818 6.422349 0.6731944 -6.499673 5.649484 -4.214814 -8.111627 5.893657 -2.511072 -8.964939 5.901706 -1.929554 -9.09334 5.938926 0.3356271 -8.340125 6.062756 2.204769 -8.814001 6.555288 3.245572 -0.08119231 2.949394 -5.102922 9.919607 1.57114 -1.430712 9.919607 0.4306732 -1.430711 7.23197 1.57114 -6.129255 7.23197 0.4306732 -6.129254 2.28052 1.57114 -4.392207 2.28052 0.4306732 -4.392207 3.870498 2.613885 -4.023075 2.153434 2.936707 -5.051891 -2.738101 3.504784 -3.896305 -0.08119231 3.17332 -4.972268 2.130491 3.154288 -4.788073 1.912302 3.499064 -2.85702 -3.186614 1.57114 -4.821104 -3.186614 0.4306732 -4.821104 -7.180653 2.314836 -4.244409 -4.980121 2.33389 -4.488978 -5.254596 3.23103 -4.731553 -3.984294 3.780553 -3.873844 -6.005383 3.396474 -4.870241 5.698352 4.781148 3.854745 4.044888 5.521401 -0.09507652 7.947114 5.097153 -1.025873 8.781891 4.365146 0 8.031714 4.504476 3.321111 6.045585 4.40295 3.911267 3.892603 5.685547 1.673964 4.968333 5.392886 2.791258 8.349741 4.620789 -1.008598 8.852988 3.605878 -1.005037 5.661614 5.304209 -1.319642 5.173521 4.797606 2.354402 4.440659 5.285653 -0.001655028 5.729788 4.768074 -0.6749521 4.268306 5.286331 1.780356 8.584487 2.85824 4.37165 10.56688 3.129822 0.4564068 10.15886 3.281385 3.275462 5.477827 2.945594 4.037734 7.463291 4.351516 -1.944668 8.902917 2.588509 -1.217874 8.72228 2.588509 -3.608065 6.104084 2.415589 -4.033752 6.292104 3.275044 -3.737618 4.207837 4.648483 -2.591892 7.874399 3.963234 -2.087402 4.051479 4.031088 -3.134335 5.962939 3.647686 -2.627187 5.835557 4.499999 -2.521433 0.4906604 4.800339 -2.735788 2.349247 4.724411 -3.208256 3.27854 4.686447 -2.900074 3.617865 5.86264 -2.660862 2.42625 6.40573 -2.881263 2.145769 6.336461 0 2.079181 5.598587 1.971327 2.139474 -0.08162064 4.964855 5.552886 -0.08162064 4.152767 -0.1410461 -0.08162064 5.454349 -1.861761 0 4.545181 -4.56557 0 4.110645 -6.669642 0 4.110645 -8.332786 -0.1570013 3.23542 -8.599519 -0.1570013 1.193763 -9.748041 -0.09183586 0.00143849 -9.488302 -0.4921628 -3.268982 -7.287462 -0.02912567 -4.997119 -4.835262 0.02531456 -5.786874 -3.183787 0 -4.466207 0.002827148 0 -4.03731 2.283347 0 -4.03731 4.563867 0 -5.443911 7.234797 0 -5.774358 9.588215 -0.05577553 -4.040764 9.479165 -0.02130867 -1.200684 11.41273 -0.02130867 1.142841 10.9813 0.01472076 3.243629 8.911392 0.01472076 5.125305 -0.9655792 6.691395 4.474032 -2.767389 6.821817 4.427525 -4.395892 7.318474 3.524368 1.096992 6.455645 1.828387 1.936603 5.922878 1.685163 2.08818 5.900525 1.704921 2.892482 5.757787 1.58907 4.145243 5.232947 3.371592 5.954447 4.052195 4.140472 8.3085 4.268931 3.576374 8.990986 4.181503 0 11.07167 2.858616 0.5358203 10.64542 2.94761 3.293585 8.990419 2.494283 4.801414 -9.543473 5.072853 3.836826 -10.00397 4.857343 2.738121 -9.776238 4.858618 1.535019 -11.05559 4.861869 -0.00164355 -10.00502 4.810285 -2.679155 1.044854 6.313307 -2.704529 2.416528 6.193446 -3.062502 3.489861 5.624569 -2.845312 4.413559 5.460812 -1.878182 7.40394 4.916106 -1.89319 -1.073461 7.465737 -5.247522 -2.395529 7.381051 -5.098972 -5.657946 7.482922 -4.845502 -2.740485 7.93326 1.812834 0.5776665 7.608884 -0.002483328 8.816981 0.4306732 -5.698474 8.661052 -0.0278878 -5.448137 -1.016919 4.635891 4.056666 0.9552214 4.386053 3.147685 2.405797 4.335387 2.459402 3.904908 4.251927 3.873257 -4.672679 4.53261 3.724166 -6.555146 4.948935 3.518938 -7.767932 5.582972 3.585372 -8.196494 5.350275 2.197206 -9.30265 5.384103 -0.00190438 -9.023405 4.958214 -2.185044 8.713008 3.421909 3.762239 9.026227 3.543177 3.507715 9.613876 3.510467 0.09147276 7.947977 3.80285 -2.319153 6.017251 3.521826 -2.810405 1.962779 3.273804 -3.196293 0 3.421157 -3.443291 -2.417046 3.288466 -4.028179 -2.706631 8.09386 -2.561314 -2.940026 7.836219 -4.008398 -4.878495 7.833377 -3.998495 -5.477737 8.09386 -2.523674 -2.37497 6.981758 2.363074 1.323157 6.37927 0.2401029 -2.537822 8.786589 -3.639179 -2.736242 9.953821 -3.393413 -5.62772 9.953821 -3.35848 -5.755473 8.786589 -3.599816 -3.911543 8.875193 -4.482689 -3.941512 9.865217 -4.262755 -4.603721 9.865217 -3.933281 -4.642915 8.875193 -4.152274 0.6468604 4.355717 5.606716 0.7071936 3.971309 5.854898 -10.60079 4.839538 -1.160758 -10.95615 4.543704 -1.320465 -10.8963 3.937762 -1.453907 0.7573523 6.932078 -4.163652 0.6141344 6.777988 -4.298029 -6.426916 1.078977 -6.033322 -6.426916 0.4306732 -6.033322 -5.73316 4.366168 5.246572 -5.801459 4.059314 5.44127 9.292834 3.005717 4.308882 9.862853 2.634867 4.852644 10.16735 1.57114 5.145133 10.16554 0.4306732 5.146783 9.968741 0.01472076 5.009467 9.859457 3.158008 3.914361 10.46258 2.799142 4.306245 10.92137 1.57114 4.459683 10.85835 0.4306732 4.51697 10.65461 0.01472076 4.385964 9.507689 3.372765 -0.1040895 10.09517 2.935611 -0.2248236 10.88714 2.557433 -0.156881 11.43285 1.57114 -0.2920334 11.45545 0.4306732 -0.2636826 11.08945 -0.02130867 0.005878372 9.116763 3.084283 -0.6661984 9.205303 2.980637 -0.6609818 9.436404 2.76206 -0.6810801 9.571052 2.671722 -0.6776072 10.37811 1.57114 -0.8554079 10.40585 0.4306732 -0.8206064 10.00925 -0.02130867 -0.5582051 5.801176 5.28431 -2.155377 5.777038 5.464736 -2.031827 4.058138 5.771625 -2.418388 4.047133 5.54269 -2.504881 4.305677 5.699652 -1.830347 4.280914 5.496544 -1.947196 3.372065 1.57114 -5.298488 3.261978 0.4306732 -5.230588 3.374892 0 -4.943591 -1.520659 3.243056 -4.224854 -1.859955 3.036731 -4.35605 -1.859955 2.924768 -4.421377 0.1978573 3.168963 -5.018723 0.2045714 2.946481 -5.179854 0.9709922 3.163211 -4.797754 0.9922849 2.94261 -4.998947 1.599457 3.158749 -4.914702 1.621575 2.939658 -5.147208 -7.907732 7.110087 3.770829 -8.11734 7.538395 3.204395 -9.440878 7.607148 0.7642131 -9.510377 7.566037 -1.658063 -7.728497 7.692035 -2.995492 -6.987327 7.671276 -4.919114 -7.122351 6.956031 -5.281455 -4.442769 8.199594 -5.986019 -4.46848 7.807521 -6.506329 -4.555692 6.89578 -6.325472 -7.822935 7.687448 -3.543732 -8.166277 7.261654 -3.700323 -4.181981 10.28583 -3.375947 -4.187818 10.37444 -2.690384 -4.177088 10.19723 -1.39036 -2.761098 9.318552 -1.50204 -2.360041 9.370204 -2.845362 -2.629737 9.327292 -3.525331 -3.037795 9.370205 -4.409794 -3.926528 9.370205 -4.595286 -4.6257 9.31004 -4.056086 -5.321922 9.370205 -4.155722 -5.913946 9.370205 -3.479148 -5.972615 9.299155 -2.816559 -4.853157 10.12832 -1.381177 -5.270986 10.26852 -2.675671 -5.219873 10.18438 -3.363408 -4.929864 10.133 -3.837964 -4.487269 10.11825 -3.779389 -4.023766 10.14599 -3.959418 -3.425744 10.12266 -3.8756 -3.108793 10.17627 -3.388912 -3.137783 10.27595 -2.704647 -3.429305 10.10649 -1.400518 0.4313301 7.960178 -2.367683 1.140085 7.226943 -2.35075 1.148442 7.012418 -3.491347 0.1972967 7.916954 -3.921028 0.4659688 7.980187 -0.680408 0.8700018 7.529891 -0.4881531 1.273008 6.546653 -0.2922953 -3.959466 7.146801 4.193533 -4.019639 6.946385 4.553152 -3.967628 6.319568 4.318413 -0.4037357 6.656621 4.22607 -0.1777196 6.277549 4.574336 0.5752286 6.503958 2.245423 0.7585941 6.229579 2.348305 3.798877 3.965806 4.39355 3.546508 4.270992 4.069383 2.753319 4.307616 5.627449 2.924488 3.938564 5.964564 -0.6626373 4.385172 6.055982 -0.6610915 4.002803 6.262913 -3.289506 4.195172 4.72448 -3.278437 4.105839 4.778779 -4.713019 4.198757 5.406479 -4.698988 3.898209 5.612878 -5.966444 4.408648 5.281589 -6.013059 4.093347 5.464331 -7.304796 4.695751 5.694772 -7.413968 4.287412 5.914785 -8.014911 4.919734 4.672057 -8.167748 4.31793 4.957762 -9.941158 4.965098 3.354447 -10.2844 4.696282 3.589073 -10.07269 3.738179 3.651245 -9.672215 4.858197 1.853734 -10.04983 4.543704 1.879919 -9.70663 3.667968 1.862514 -9.315093 7.588975 -2.001291 -9.48373 7.182349 -2.147428 -9.506279 6.555948 -2.197322 -9.593777 4.770875 -3.036732 -9.890359 4.43777 -3.255594 -10.02357 3.925329 -3.236718 -8.448055 4.699789 -3.106793 -8.702919 4.269698 -3.306609 -8.763322 3.940717 -3.301683 -10.39167 1.57114 -1.547712 -10.39108 0.1998361 -1.555071 -10.01764 -0.2741782 -1.509343 -4.307066 1.228791 -5.920223 -4.291454 0.4306732 -5.90841 -4.302579 0.0188424 -5.616943 9.213013 3.53278 2.421858 8.575768 3.682974 2.230001 8.203597 4.229694 1.971331 7.950143 4.443255 1.861823 7.629091 4.374385 3.646418 7.924042 4.1186 3.866555 8.291345 3.446117 3.815942 8.813764 4.373741 0.2435165 9.014858 4.187594 0.2878188 9.400414 3.682974 0.3120346 -11.00532 4.861029 0.4336053 -11.22601 4.543704 0.5718206 -11.11281 3.862172 0.5331503 -0.195157 7.210602 -5.167266 -0.2861028 6.995369 -5.149163 0.8245732 7.600197 -3.756658 0.4503342 7.633198 -4.543757 -0.2400399 7.641635 -5.075585 -0.7135966 7.708956 -5.16659 0.6683039 7.276436 -4.402451 -5.153583 8.104695 -6.18709 -4.481844 8.108859 -6.335843 -3.663776 8.061475 -6.224659 -7.139698 7.585687 3.795105</float_array>
          <technique_common>
            <accessor source="#pCubeShape24-positions-array" count="466" stride="3">
              <param name="X" type="float"/>
              <param name="Y" type="float"/>
              <param name="Z" type="float"/>
            </accessor>
          </technique_common>
        </source>
        <source id="pCubeShape24-normals" name="pCubeShape24-normals">
          <float_array id="pCubeShape24-normals-array" count="1398">-0.2168431 0.4901913 -0.8442107 0.1968432 0.5192308 -0.8316563 0.06408571 -0.3239084 -0.9439154 -0.2478507 -0.3292696 -0.9111266 -0.004762958 -0.9408766 0.3387158 0.02262489 -0.8965909 -0.4422813 0.250498 -0.8950212 -0.3690363 -0.01006706 -0.2199419 0.9754611 -0.06972755 -0.1690854 0.9831318 -0.08230972 0.1702447 0.9819582 0.007982896 0.1606984 0.9869713 0.3051326 0.9430158 0.1327224 0.2833276 0.9552773 0.08468018 0.2898717 0.9126536 -0.2881631 0.75878 0.4922004 -0.4266047 0.8552153 0.3760234 -0.3566695 0.8756822 -0.3820203 -0.2953659 0.9019974 -0.3205653 -0.2892035 -0.8809923 0.1146255 0.4590355 -0.9292859 0.3590123 -0.08682032 -0.9439673 -0.3297565 -0.01365898 -0.8431456 -0.2675951 0.4663672 -0.2816002 -0.09700216 0.9546161 -0.7418907 -0.1926392 0.6422525 -0.8085455 -0.2084261 0.5502842 -0.2591612 -0.2719282 0.9267634 0.1172204 0.9459822 0.3022861 0.9437 -0.3305219 -0.01362722 0.9706537 0.2353791 -0.04927539 0.95279 0.203048 0.2257494 0.9322645 -0.2705114 0.2402218 -0.5280875 0.4073084 -0.7451332 -0.2698547 0.5069415 -0.8186505 -0.2882717 -0.4860159 -0.8250383 -0.5616671 -0.3088146 -0.76757 -0.07539067 -0.3231587 0.9433369 -0.09139805 -0.08279208 0.9923669 0.006739204 -0.007282215 -0.9999507 0.2655562 -0.09574927 -0.9593289 0.07712474 0.3670733 -0.9269891 0.5715457 0.7055019 -0.4190496 0.7894343 0.4577282 -0.4089969 0.7271362 0.507922 -0.4618315 0.1455176 0.6957319 0.7034072 0.2880571 0.8938579 0.3435714 0.4975049 0.6729363 0.5473987 0.162845 0.4550414 0.8754534 -0.6768547 -0.3726602 0.6348166 -0.2754696 0.2781436 0.9201916 -0.004847559 0.2548681 0.9669637 -0.3565268 0.4279138 0.8305291 -0.7624118 -0.5164461 0.389887 -0.5429416 -0.629998 0.5552631 -0.4979576 -0.369163 0.7847016 -0.6797777 0.04620618 -0.7319613 -0.8305814 -0.4871497 -0.2698511 -0.7673289 -0.3341657 -0.5473019 0.06508821 -0.1875798 -0.9800905 0.2886526 -0.454652 -0.8425979 0.3390327 -0.4954829 -0.7997208 0.07317372 0.7480373 -0.6596105 0.03825174 0.7388845 -0.6727455 0.1063114 0.6720495 -0.7328352 0.1287338 0.5719658 -0.8101128 -0.3410888 0.3112641 -0.8870023 -0.4550281 0.3594942 -0.814686 -0.1943476 0.862559 -0.4671415 -0.2011311 0.5804609 0.7890573 0.2803343 0.5339532 0.7976882 -0.1640953 0.5452981 0.8220236 0.5214704 0.06234709 0.8509884 0.302479 0.1484366 0.9415269 0.2525512 0.9538055 -0.1627051 0.3351746 0.932107 0.1372382 0.2655471 0.3805 -0.8858355 0.2015147 0.5433707 -0.8149479 0.1752546 0.3921842 -0.9030379 -0.7231618 0.4190584 0.5490239 -0.9183488 0.3414517 0.2001152 -0.8728098 -0.4581267 0.1682947 -0.6439263 -0.4470206 0.6209118 -0.9234378 0.2989968 -0.2405481 -0.887907 -0.3604009 -0.2858886 0.453027 0.4193992 -0.7866833 0.4780864 0.8701685 0.1193312 0.6987693 0.7072253 -0.1074891 0.5114212 0.3216701 -0.7968543 0.6194379 0.6856304 0.382371 0.7163914 0.6885097 0.1128613 0.4126883 0.9097334 0.04553524 0.3068464 0.9410923 0.1420932 -0.2219927 0.4820118 0.8475753 0.1386078 0.616273 0.775239 -0.4311801 0.471626 0.7691896 0.02519193 0.3310419 0.9432796 0.3870414 -0.07662048 0.9188734 0.2125805 -0.2682219 0.9396099 -0.04568218 -0.2178201 -0.9749192 -0.102431 -0.0874867 -0.9908854 -0.3295045 -0.3279527 -0.8853666 0.06298182 -0.3373457 -0.9392716 0.3682797 0.2105212 -0.9055667 -0.02996207 0.7230853 -0.6901085 0.04051359 0.32821 -0.9437355 0.05565188 0.2732084 -0.9603437 0.1272478 -0.3465703 -0.9293529 0.07104131 0.4522867 -0.8890387 0.3866368 0.4656609 -0.7960352 0.5157994 -0.2850267 -0.8079051 -0.3129042 -0.1208186 0.9420688 -0.2911262 -0.2814795 0.9143384 -0.1172774 -0.2657843 0.9568723 -0.0691798 -0.1626893 0.9842491 -0.4401943 0.1323429 0.8880959 -0.1317859 0.8415906 0.5237914 0.05962627 0.8909122 0.4502444 0.2113045 0.4016629 0.8910764 0.2413889 0.9128125 0.3294005 0.01576698 0.9860905 0.1654597 0.1730244 0.9542031 0.2440472 0.4035166 0.5534372 0.7286164 0.1487205 0.1169027 0.9819449 0.06637558 0.9402804 0.3338667 0.08042321 0.8669468 0.4918693 0.07275943 0.2481426 0.9659872 0.3895304 0.9206951 -0.02422057 0.2986349 0.9500324 -0.09086038 0.1053433 0.9829561 -0.1506649 -0.4342003 -0.3099536 -0.8458125 -0.1446856 0.9747756 -0.1699371 -0.2351383 0.8712409 -0.4308703 -0.9111164 -0.2886268 -0.2942131 -0.1476855 0.9572014 -0.2489068 -0.23498 0.9663267 -0.1048677 -0.2804075 0.959834 -0.009502747 0.3246608 0.5438517 0.7738351 0.2811397 0.8089004 0.5163724 0.1159976 0.866432 0.4856339 0.3288964 0.9125316 0.2431317 0.3025709 0.9511571 0.0612463 -0.2655755 0.9619178 0.0646809 -0.1208568 0.9242053 0.3622681 -0.4843022 0.8740435 -0.03872056 -0.403172 0.8962617 -0.1848444 -0.8460923 0.4367834 -0.3055289 -0.9264007 0.3765389 -5.79183e-4 -0.8216248 0.2170816 0.5270753 -0.4817284 0.8237727 0.2988919 -0.4859904 0.8258152 0.2860814 -0.783623 0.2595035 0.5644403 0.2460509 0.7724079 0.5855297 0.265366 0.8840312 0.3847979 -0.084668 0.8261123 0.5571083 0.08435138 0.5347533 -0.8407875 -0.3969076 0.3835314 -0.8338873 -0.4903646 0.4461159 0.7486809 -0.3924301 -0.1189181 0.9120619 -0.2859576 0.6365031 0.7163044 0.4747164 0.4682353 0.7452518 0.7125871 0.3217445 0.6234581 0.7039847 0.3249425 0.6315202 0.6752186 0.2121699 0.7064444 0.3888831 0.09643273 0.9162263 -0.2223676 0.3918312 0.8927602 0.120091 0.7864882 0.6058171 -0.4380898 0.1429952 0.887485 -0.4729921 0.7115707 0.5195628 0.173251 0.9420617 0.2872345 0.1296824 0.9138235 0.3848493 0.4050617 0.9098517 -0.08997119 -0.09882888 0.830751 0.5478007 0.5357077 0.8316296 -0.1463204 0.2588856 0.8393615 0.4779649 -0.2130742 0.8765118 0.4316554 -0.5584888 0.8295119 -5.31314e-4 -0.8898984 0.4273119 -0.1596408 0.8940241 0.4342567 -0.1101907 0.5452235 0.8237387 0.1555182 0.3877282 0.5888954 0.7091326 0.2065334 0.9649861 0.1616969 0.4288445 0.8934815 0.1333541 0.5767709 0.6423815 0.5046595 0.5993845 0.5128757 0.6145703 0.227437 0.9482932 0.2213872 -0.1546782 0.3185107 0.9352141 -0.3742528 0.8893716 0.2625888 -0.8163447 0.54142 0.2011117 0.5990743 0.2402169 -0.7638101 -0.1881095 0.1956452 -0.9624644 -0.1418324 0.5993977 -0.7877856 0.4363642 0.6537862 -0.6181827 0.5132336 0.7535403 0.4108143 0.9407402 0.05931902 0.3339 0.7110251 0.6343267 0.3034351 0.1212543 -0.2914889 -0.948858 0.2309809 0.2714527 -0.9343239 0.2292899 0.8894209 -0.3954194 0.9897955 0.05863092 -0.1298738 0.7562193 -0.2575461 -0.6015 -0.1096915 -0.3455808 -0.9319558 0.5342245 -0.3237654 -0.7808843 0.1476233 0.9709842 -0.1881402 -0.7737399 0.6220936 0.1196921 -0.9899866 0.008442864 0.1409082 0.3111274 0.9497614 0.03395609 0.7442039 0.6662195 0.04808533 0.7154585 0.6267319 -0.3087493 0.292846 0.9339569 -0.2048551 0.9892154 0.1432872 0.0303564 -0.8240295 -0.5585773 0.09469187 0.8698704 -0.4882126 0.07052626 0.9045379 -0.2216948 -0.3642284 0.9122431 0.2194861 -0.3458878 -0.6947335 0.6548417 -0.2975362 -0.9218552 0.1569673 -0.3543224 -0.7495116 -0.5850202 -0.3098123 -0.5665196 -0.3105803 -0.7632794 -0.3200978 -0.5198774 -0.7920005 0.6048296 0.2515928 -0.7555674 0.3990019 0.2095316 -0.8926893 0.4178927 0.68802 -0.593291 -0.1013079 0.1620345 -0.9815709 -0.5398864 0.0381244 -0.840874 -0.5458456 0.6216624 -0.5617724 -0.01061958 0.7707784 -0.637015 0.354537 -0.3896914 -0.8499672 -0.1481478 -0.5037742 -0.851037 0.1970133 -0.6419453 -0.7410074 -0.2915776 0.1875892 -0.9379726 -0.3890197 -0.5047882 -0.7706183 -0.4492202 -0.2718363 -0.8510617 0.2119604 0.02213021 -0.9770277 0.1121863 0.17661 -0.9778666 -0.6248797 0.7652794 0.1545084 -0.7067832 0.6884298 -0.1628554 -0.3353407 -0.2037907 -0.9197913 -0.8788482 -0.3613445 0.3115381 -0.9154619 -0.02992072 0.4012909 0.8375143 0.1834232 0.5147094 0.8201126 -0.2683127 0.5053943 -0.5838589 0.7816314 -0.2194564 -0.5885532 0.8057802 -0.06575309 -0.9192035 0.373717 -0.1240983 -0.836475 0.4325256 -0.3364986 -0.543236 0.7149575 -0.4401483 -0.7208267 0.2768413 -0.6354273 0.02382444 0.949955 -0.3114767 -0.3501886 0.9216905 -0.1668969 -0.7996917 -0.3127639 -0.5125155 -0.6645614 -0.3286687 -0.6710699 -0.6904585 0.4831331 -0.5383767 -0.2809302 0.9165927 -0.2844928 -0.09063298 0.8610778 -0.5003306 -0.2717691 0.3627297 -0.8913859 -0.9461813 0.289802 -0.1440684 -0.4780916 0.8673582 -0.1382688 -0.4971377 0.867484 -0.01804573 -0.9656369 0.2460429 -0.08371547 -0.8794727 0.3872617 0.2766874 -0.8822957 -0.4585769 -0.1061204 -0.79869 -0.6001496 -0.04375776 -0.8819721 -0.4711888 0.01031106 -0.7414663 -0.5683078 0.3567266 -0.7095898 -0.4856669 0.5104995 -0.840246 -0.541166 -0.03355538 0.2560488 0.8042312 0.5363315 0.1476154 0.822752 0.5488977 0.0138308 -0.008184781 0.9998709 0.3859124 0.02820023 0.9221044 -0.5061276 -0.08916561 0.857837 0.1276444 -0.1544458 0.979721 -0.8755112 -0.2015779 0.439143 -0.2703722 -0.5019575 0.8215458 -0.0390486 -0.1556597 0.9870386 0.2442078 -0.1235865 0.9618154 0.05496627 -0.3481151 0.9358391 -0.8723944 -0.4230377 0.2448815 -0.7630783 0.3707656 -0.5293809 -0.7889063 -0.3263604 -0.5206878 -0.2780655 -0.5218059 0.8064727 -0.9200534 -0.09645241 0.3797352 -0.2334857 0.339316 0.911235 -0.4949631 -0.1405886 0.8574651 -0.08453064 -0.04391532 0.9954527 -0.1475462 0.6342351 0.7589308 -0.1844959 0.5547226 0.8113224 0.03608999 -0.08976517 0.9953088 0.1639705 0.4560335 0.8747268 -0.1466443 0.8912148 0.4292223 -0.3932093 0.9180018 0.05156399 -0.1018128 0.9249356 0.3662352 0.06593665 0.9321229 0.3560888 -0.292689 0.9401948 0.1742609 -0.6097377 -0.4378268 -0.6607023 -0.6167224 -0.3363188 -0.7117184 -0.7191878 -0.5084274 -0.473572 -0.7617481 -0.6215703 0.1827303 -0.7288996 0.3500268 -0.5883762 -0.9302578 0.3448587 0.1252707 -0.5641999 -0.7620344 0.3177766 -0.2744949 0.07097722 -0.9589654 0.007704508 0.9417756 0.3361539 -0.3098916 0.9136686 0.2630154 0.3285006 0.8946936 0.3026724 0.5803742 0.2513466 -0.7745906 0.584635 -0.3892162 -0.7118375 0.5669711 -0.1514632 -0.8096929 -0.4695048 0.4420627 -0.7642943 -0.5013738 -0.3024212 -0.8106576 0.2532411 0.8289437 -0.4987196 -0.2981953 0.03098914 -0.9540017 -0.006439204 0.0608227 -0.9981278 0.05340352 0.9483549 -0.3126835 0.02720641 0.9550526 -0.2951852 0.001496484 0.3942393 -0.9190065 -0.1725983 0.8181019 -0.5485609 0.01740902 0.8566688 -0.5155729 0.2775592 0.40509 -0.8711274 0.4282157 -0.3059067 -0.8503248 -0.3233551 0.2247867 -0.9191912 -0.1980492 0.2324694 -0.952226 0.2409869 0.1848543 -0.9527613 0.7521108 0.6249825 -0.2091084 0.4110194 0.9116036 -0.006464854 0.7544192 0.3152457 -0.5757359 0.3373136 0.8818589 -0.3294608 0.205961 0.9357948 0.2861263 0.1961179 0.7157243 0.6702809 0.4399793 0.8925912 -0.09848513 0.5275965 0.8288345 0.1862134 0.2070922 0.9343854 0.2898907 0.6288728 0.7355666 -0.2519139 0.1635372 0.9298786 -0.3295171 0.7235162 0.6654535 0.1835645 0.5805448 0.668793 0.4644174 0.7224054 0.6731688 -0.1580323 0.3000202 0.9532783 0.03533291 0.5814981 0.8088589 0.08722007 -0.09528029 0.549298 0.8301767 0.4241535 0.6363868 -0.6442869 0.008967922 0.2702431 0.9627504 0.1145475 0.8930253 0.4351832 0.231177 0.421649 0.8767948 0.4390631 0.5496454 -0.7107133 0.5357557 0.7404842 -0.4057695 0.001596803 0.6073473 -0.7944348 0.1968838 0.6131976 -0.7650003 0.2731343 0.8932768 -0.3570074 0.01783523 0.9058419 -0.4232401 0.07046651 0.5111292 -0.8566105 0.4018428 -0.1129351 -0.9087178 0.4383507 0.2054764 -0.8750018 0.6652606 0.1373994 -0.7338594 0.4337381 0.8094954 -0.3957124 0.5439625 0.7757397 -0.3198947 0.8920515 0.4212617 0.1636543 0.9370209 0.1972131 -0.2882686 0.1286511 0.8576171 0.4979376 0.08459695 -0.9227238 0.3760642 -0.0780753 -0.8766531 0.474746 -0.1632183 -0.8786637 0.4486754 -0.03512596 -0.8978016 0.4389969 -0.07126885 -0.9504337 0.3026492 -0.3707331 -0.8834713 0.2864186 -0.3284844 -0.9254954 0.1885639 -0.519632 -0.77674 0.3558897 -0.5421216 -0.8388953 0.04856639 -0.2019547 -0.893632 -0.4007942 -0.4318358 -0.847679 -0.3081529 0.2481712 -0.8819286 -0.4007654 0.03017342 -0.9501463 -0.3103411 0.01318534 -0.9392819 -0.342893 0.1616002 -0.9347521 -0.3164235 -0.1541748 -0.901454 -0.4044884 -0.3196885 -0.7952583 -0.5151344 -0.1167696 -0.8979853 -0.424249 0.29462 -0.9516045 -0.08745221 0.5548117 -0.8136142 -0.1738265 0.3154179 -0.8657829 -0.3884991 0.6256019 -0.762469 0.1651159 0.566701 -0.8239233 -5.86165e-4 0.5476279 -0.7627965 0.3438679 -0.03510936 -0.8175408 0.5747994 0.3847528 -0.8689659 -0.3112293 0.271195 -0.7276588 0.6300523 -0.2302627 0.6078896 -0.7599008 0.1394173 0.9152964 0.3778827 0.3953562 0.8811197 0.2594641 0.3876876 0.8873988 0.2494424 0.3220179 0.8520393 0.4127147 0.7368772 0.5387887 -0.4083119 0.5125222 0.5357789 -0.6710156 0.411568 0.5993812 -0.6865523 0.3595847 0.9233999 0.1342816 0.4500379 0.8546143 -0.2590371 0.251956 0.8810135 0.4004166 -0.04148041 0.7210037 0.6916885 -0.4254808 0.9049082 -0.01034621 -0.3504684 0.9365739 0.001075281 -0.164803 0.946497 -0.2774593 0.8981104 0.4392698 -0.02096964 0.7866943 0.566784 -0.2446793 0.01911486 0.6415688 -0.7668272 0.1096647 0.9278511 -0.3564632 0.3902333 0.478653 -0.7865171 0.01603216 0.2959517 -0.9550683 0.4689417 -0.04681279 -0.8819877 0.1154649 0.8593521 -0.4981785 0.3904015 0.913706 -0.112818 -0.3278379 0.9224893 -0.2038034 0.9734533 -0.01894078 -0.2281007 0.2798955 0.9337046 0.2232801 0.2806595 0.9221539 0.2661996 -0.1173234 0.8868716 -0.4468713 0.01299757 0.9999117 0.002761453 -0.386562 0.9201525 0.0623633 0.1987209 0.9067476 -0.3719121 -0.2644626 0.5419469 -0.7977173 -0.3676229 0.2360665 -0.8995143 -0.4041358 -0.286327 -0.8687295 -0.1803345 -0.09087956 -0.979398 -0.1464507 0.4401792 -0.8858863 -0.1943059 0.1972184 -0.960911 0.06486496 0.8446766 0.5313324 0.06490091 0.1666642 0.9838755 0.6205081 -0.5837019 -0.5237002 0.8069043 -0.2704661 -0.5251224 0.3005004 0.7579842 0.5789294 0.1456887 0.849328 0.5073626 0.01402256 0.8040567 0.5943873 0.1731451 0.620908 0.7645221 0.3711191 0.1859603 0.9097743 0.3918607 -0.2239232 0.8923584 0.5077342 0.5680034 -0.6477485 0.4982663 0.8306503 -0.2484968 0.4065103 0.6661811 -0.6252617 0.5354621 0.5692382 -0.6238975 0.73877 0.2241464 -0.635592 0.7134168 -0.3938691 -0.5795719 0.5768557 0.7742241 -0.2604118 0.6753744 0.3076262 -0.6702502 0.04457993 0.885179 -0.4631099 0.06068549 0.1134878 -0.9916843 0.0222124 0.912042 -0.4094945 0.03314876 0.180805 -0.9829602 -0.2915201 0.9350867 -0.2015658 -0.08736923 0.8641431 -0.4956039 -0.3063672 0.9513519 0.03269036 -0.07168732 0.7890042 -0.6101912 -0.0763736 0.8668786 -0.4926343 0.001577812 0.9999889 0.004437222 -0.001348392 0.9754726 -0.2201164 0.4060017 0.9116061 0.06431782 0.8326541 0.5224698 0.1836094 0.6317129 0.5741577 -0.5208471 0.3425772 0.9036457 0.2570319 0.7458603 0.06118196 0.6632866 -0.3248613 0.7268921 0.6050562 -0.6851192 -0.04682882 0.7269243 -0.09674904 0.7806885 -0.6173856 -0.2032734 0.2574702 -0.9446635 -0.2301224 -0.1025337 -0.967745 0.6405945 0.7639264 0.07781346 0.7098987 0.6956522 0.1100539 0.3992673 0.9160185 0.0386755 0.7947815 0.09908244 -0.5987529</float_array>
          <technique_common>
            <accessor source="#pCubeShape24-normals-array" count="466" stride="3">
              <param name="X" type="float"/>
              <param name="Y" type="float"/>
              <param name="Z" type="float"/>
            </accessor>
          </technique_common>
        </source>
        <source id="pCubeShape24-map1" name="pCubeShape24-map1">
          <float_array id="pCubeShape24-map1-array" count="1152">0.244948 1.077742 0.243834 0.990485 0.279364 0.980234 0.284678 1.076765 0.04346 0.540107 0.394561 0.604781 0.382247 0.655211 -0.300326 0.909012 -0.218834 0.811868 -0.19996 0.842915 -0.269808 0.943087 -0.067953 1.184495 -0.058889 1.139991 0.032339 1.197667 0.185198 0.900101 0.105468 0.851938 0.13452 0.817059 0.213604 0.875299 0.628712 0.492243 0.618561 0.378992 0.67528 0.37367 0.669349 0.491015 0.633868 0.717996 0.631668 0.640263 0.67253 0.631345 0.674142 0.713478 -0.120575 1.14269 -0.034665 0.757967 -0.032504 0.794014 -0.116588 0.800754 -0.126518 0.765542 0.621047 0.290113 0.61435 0.229257 0.632656 0.224333 0.647387 0.286035 0.680282 0.78806 0.637674 0.794659 0.086189 1.189124 0.033539 1.245328 0.038001 1.196624 0.108331 0.966297 0.041399 0.928005 0.070983 0.89796 -0.144536 0.905432 -0.128369 0.90055 -0.132602 0.909032 -0.228474 0.987795 0.81327 0.949608 0.91752 0.876467 0.891279 0.922473 0.544398 0.598797 0.581935 0.647452 0.540541 0.632888 0.568255 0.374172 0.522664 0.458752 0.514224 0.416314 0.358708 1.272999 0.325463 1.342692 0.290073 1.266834 0.153005 1.118415 0.137698 1.031919 0.169385 1.034823 0.176994 1.115882 0.4322 1.118651 0.442295 1.08395 0.47833 1.108386 -0.134671 1.142026 -0.145282 1.171022 -0.177986 1.149009 0.983067 0.895192 0.949715 0.936482 0.016532 1.112048 -0.046714 1.111611 0.075171 1.118121 0.031892 1.111687 0.071704 1.058462 0.682201 0.913866 0.613606 0.927002 0.592249 0.912404 0.684061 0.902735 0.530971 0.973056 0.520493 0.958026 0.046645 1.005929 0.024332 0.983671 0.021837 0.965067 0.061468 0.995152 -0.132303 0.930513 -0.003523 0.929447 -0.007483 0.940191 -0.127862 0.940768 -0.198897 1.068219 -0.167426 1.017165 -0.174253 1.076444 0.900305 0.822197 0.847904 0.817287 0.904481 0.69827 0.94521 0.697717 0.941322 0.822454 0.87678 0.316494 0.890835 0.232272 0.930751 0.242796 0.916281 0.323112 0.838414 0.230847 0.851776 0.164562 0.782676 0.38413 0.793817 0.429456 0.773253 0.394512 0.6214 0.175206 0.601463 0.183531 0.539251 0.136582 0.576941 0.111818 0.914984 0.536609 0.955744 0.541194 0.949709 0.614618 0.910829 0.61128 0.824711 0.572505 0.813599 0.571446 0.777591 0.511419 -0.208925 1.06958 -0.211848 1.046817 -0.247982 1.269259 -0.236073 1.271266 -0.261937 1.318462 -0.193237 1.14405 -0.219381 1.196969 -0.207858 1.202934 0.822318 0.687949 0.815211 0.684096 0.803065 0.62858 0.822029 0.630706 0.400501 1.467693 0.364383 1.308817 0.450051 1.349422 0.458065 1.45993 0.402107 -0.148086 0.406067 -0.161438 0.463448 -0.152408 0.458299 -0.145473 0.54527 1.113168 0.529907 1.065401 0.627125 1.030389 0.503384 1.538456 0.511557 1.523577 0.608063 1.592294 0.614267 0.979523 0.727279 0.953278 0.749754 0.992976 0.499171 0.503127 0.486524 0.470118 0.50213 0.465764 0.508969 0.500949 0.510033 0.556627 0.48414 0.564701 0.517942 0.729276 0.445841 0.732159 0.467442 0.675003 0.49064 0.674597 0.461758 0.287726 0.495401 0.294337 0.496375 0.42118 0.532447 0.208994 0.559839 0.289224 0.5088 0.633468 0.525574 0.664033 1.032459 1.005858 -0.145979 1.214183 0.80642 0.780743 0.540427 0.806233 0.519177 0.861306 0.529018 0.80903 0.920508 0.440267 0.961251 0.4435 0.818274 0.491619 0.737759 0.92074 0.819767 0.962719 0.882543 0.941382 -0.111878 1.106071 -0.168328 1.077008 -0.140797 1.058744 0.611179 0.019243 0.585529 -0.005606 0.604255 -0.072696 0.65057 -0.09055 0.57819 -0.162539 0.558579 -0.115421 0.476754 -0.162234 0.494788 -0.115221 0.562664 0.077803 0.469603 0.082276 0.493841 0.031603 0.550679 0.028796 0.481418 1.562677 0.475357 1.573361 0.338739 1.505065 0.34639 1.495119 0.383503 1.479789 0.546571 -0.082212 0.49661 -0.073802 0.338753 -0.118027 0.367764 -0.11087 0.363706 -0.073984 0.329682 -0.083124 0.192998 -0.16479 0.252992 -0.156083 0.229979 -0.127252 0.542977 -0.003862 0.772506 1.160642 0.696759 1.204467 0.650583 1.119637 0.295025 -0.178015 0.294034 -0.164767 0.339124 -0.151847 0.34279 -0.161585 0.454626 -0.07958 0.446235 -0.121773 0.436783 0.020054 0.404294 0.011454 0.435764 -0.08028 0.300165 -0.137366 0.271357 -0.098294 0.31756 -0.128053 0.298028 -0.089915 0.427808 -0.116069 0.394915 1.138624 0.365104 1.101751 0.36983 1.249048 0.400308 1.199529 0.413686 1.206175 0.411581 1.160032 0.428284 1.156166 0.37933 1.191839 0.319865 1.180801 0.772761 1.22138 0.873828 1.177355 0.839446 1.230572 0.42016 1.079136 0.591159 1.204182 0.619264 1.154429 0.791999 1.145778 0.55097 1.002091 0.590054 0.496373 0.635352 0.559961 0.749808 1.130856 0.492983 1.034408 0.478631 1.003322 0.481731 0.420429 0.516589 0.595843 0.50087 0.596899 0.553952 0.555926 0.521526 0.499135 0.586952 0.580549 0.515865 0.767771 0.536087 0.765336 0.675295 0.554897 0.528328 0.729473 0.592965 0.705415 0.884656 0.44909 0.597777 0.814422 0.59604 0.545764 0.71132 0.881417 0.659031 0.85353 0.714647 0.867972 0.831608 0.893204 0.826749 0.854568 0.905789 0.845401 0.773459 0.879264 0.762408 0.853856 0.444935 0.67329 0.433535 0.610846 0.466675 0.805339 0.499417 0.635536 0.389961 1.042907 0.459882 0.978226 0.494446 0.942684 0.579353 0.886268 0.884188 1.215592 0.987015 1.170194 0.966769 1.203631 1.002364 1.195125 1.061023 1.157897 1.077108 1.165364 1.130799 1.114697 0.658387 0.874904 0.825588 0.303527 0.490427 0.006051 0.065181 0.828139 0.06965 0.781554 0.256829 0.9253 0.22949 1.168561 0.273782 1.171318 0.831136 0.228828 0.754087 0.293043 0.765887 0.294443 0.774295 0.221785 0.760768 0.220351 0.823852 0.166286 0.819875 0.302319 0.491429 0.169808 0.852387 0.428063 0.8928 0.435436 0.511045 0.254709 0.507196 0.230476 0.461846 0.195189 0.782909 1.112382 0.063205 0.8899 0.001219 0.907669 0.042071 1.011568 0.012038 1.065796 -0.169446 1.001158 -0.120104 1.045378 -0.046491 1.095102 -0.012803 1.052773 -0.108791 1.086131 -0.110134 0.848368 -0.180731 0.870509 -0.019313 0.842511 -0.002009 0.896031 0.07109 0.977467 -0.184831 0.997241 0.145998 0.94188 0.107649 1.117822 0.098266 1.04608 0.081032 0.973703 0.13075 1.193878 0.105054 1.043077 0.081043 1.153401 0.138132 1.263028 0.093153 1.255259 0.046539 1.14596 0.037283 1.142877 0.309511 1.406836 -0.130048 1.173228 0.966641 0.695321 0.962706 0.820128 0.969935 0.610295 0.9751 0.539787 0.980474 0.443074 0.6928 0.708612 0.700063 0.785195 0.694822 0.636087 0.699004 0.558068 0.691279 0.493351 0.69298 0.366778 0.66715 0.260338 0.590676 0.096478 0.635905 0.164533 0.935931 0.325973 0.912563 0.437445 0.950206 0.246493 0.303196 1.079396 0.292872 1.177791 0.296562 0.974735 0.271588 0.916251 0.144615 0.79521 0.227191 0.861213 -0.040486 0.739472 0.073436 0.756811 -0.130425 0.751271 -0.229573 0.802835 -0.31828 0.897899 0.007237 0.6587 0.231226 0.682081 0.147135 0.749431 0.072873 0.733048 0.384216 0.509884 0.016422 0.418655 0.335514 0.42828 2.25e-4 0.337537 0.336672 0.347388 0.033353 0.27692 0.05013 0.181273 0.353507 0.234581 0.051192 0.106684 0.401178 0.176609 0.083068 0.047944 0.155589 0.039538 0.374349 0.089218 0.198031 0 0.314489 0.008916 0.94216 0.947251 1.022556 1.029684 -0.130503 1.180445 -0.134807 1.216514 -0.014709 0.860392 -0.112421 0.86488 -0.172949 0.893772 0.437581 0.511353 0.447285 0.418751 0.361447 1.282517 0.327066 1.349607 0.018098 1.242517 0.391304 1.250767 0.454947 1.133015 0.331873 0.687368 0.747187 0.566379 0.715362 0.649549 0.703777 0.718343 0.777143 0.76343 0.452103 0.803515 0.432301 0.732465 0.432047 0.672363 0.423285 0.609063 0.427632 0.511771 0.436074 0.419588 0.457761 0.058703 0.448794 1.263121 0.47478 1.323066 0.487774 1.171427 0.543582 1.137026 0.890051 1.016487 1.02993 1.0856 -0.080801 1.211665 0.39733 -0.063494 0.412346 -0.079505 0.409855 -0.110084 0.39125 -0.107682 0.382633 -0.009741 0.381697 -0.039514 0.291248 1.387233 -0.1518535 0.8837024 -0.1588377 0.8636427 -0.1723255 0.8289403 -0.1883159 0.7965534 0.02937536 0.6837769 -0.1961314 0.7854429 -0.1300693 0.8733041 -0.1332551 0.8556193 -0.1419551 0.8135821 -0.157417 0.7810477 0.05112418 0.7084124 -0.1632782 0.768357 0.007731274 0.8951153 0.01324473 0.8709788 0.007664847 0.858004 0.004289392 0.8068672 0.003363656 0.7665658 0.1763723 0.7260143 -8.76842e-4 0.7455005 0.03512643 0.8979491 0.03546814 0.8925077 0.03822486 0.8804394 0.03778338 0.8753007 0.04120066 0.8197618 0.042493 0.7754134 0.2081724 0.700545 0.0422042 0.7520574 0.0392685 1.058808 0.0293015 1.061808 0.02877643 1.130239 0.0392155 1.128824 0.02204965 1.120245 0.03508798 1.119165 0.237219 1.123152 0.278704 1.128606 0.359865 0.469082 0.298034 1.128593 0.7973464 0.3518658 0.806846 0.3658875 0.8097025 0.3664915 0.8224534 0.2854924 0.8285331 0.2868387 0.8258567 0.2632813 0.8324462 0.2646646 0.8284963 0.2460546 0.8354301 0.2477558 0.70998 0.917303 0.7034438 0.9324387 0.6139598 0.9551183 0.5394698 0.9853948 0.511445 1.049904 0.4566655 1.093695 0.4321312 1.08174 0.420985 1.18117 0.4071087 1.175702 0.3883293 1.161111 0.4993418 1.05958 0.4840297 1.043159 0.420029 -0.034413 0.4457045 -0.029763 0.4935185 -0.0338755 0.2426862 -0.1431717 0.285761 -0.11783 0.3085121 -0.1103861 0.3342175 -0.1005755 0.365735 -0.092427 0.3939205 -0.08827338 0.4111005 -0.0947945 0.431786 -0.0981745 0.4499871 -0.1029063 0.4954348 -0.05862493 0.452229 -0.06619557 0.4313251 -0.06734079 0.4147369 -0.06547277 0.4035977 -0.05546411 0.3948087 -0.03776918 0.3933505 -0.01681185 0.4083487 -3.65411e-4 0.4393795 0.005555123 0.4913989 -0.006500808 0.3834764 1.392805 0.351654 1.406324 0.3358061 1.369768 0.3713423 1.33943 0.3964243 1.44976 0.376916 1.464595 0.3421688 1.485014 0.851155 0.9520505 0.8544857 0.9352714 0.8614062 0.915836 0.9579695 0.9634612 0.967162 0.9511102 1.00703 1.013764 1.023372 0.9982387 0.8121098 0.7475331 0.78795 0.7409081 0.8087106 0.6976429 0.8201081 0.7008477 0.8115345 0.582643 0.8241264 0.5851904 0.5224698 0.8438146 0.5259653 0.843713 0.5250954 0.7967253 0.5393216 0.7958164 0.5162349 0.7609162 0.5348654 0.7596897 0.5121928 0.7177618 0.5277935 0.7167709 0.4980462 0.6894296 0.5264267 0.6842939 0.5001435 0.6162175 0.5126945 0.6146555 0.5423203 0.6171611 0.4896689 0.5753418 0.5124149 0.570875 0.5508397 0.5698918 0.5343681 0.9971385 0.5237017 0.9847962 0.5103463 0.969005 0.4787535 0.400646 0.4961959 0.3978625 0.5114225 0.3981595 0.4733828 0.3649628 0.4959119 0.360868 0.5055678 0.3602202 0.6239737 0.4393801 0.6721308 0.4359772 0.6920538 0.4356991 0.2510757 0.00406327 0.5825258 0.1692398 0.6074746 0.1553515 0.38899 0.1914307 0.6243414 0.1471334 -0.08820532 0.8991137 -0.0825285 0.908522 -0.07450774 0.9300346 -0.07496776 0.9405144 -0.1390649 0.9570373 -0.1438371 0.9451652 -0.1500395 0.9233577 -0.01490889 0.9402266 -0.01249538 0.9295213 -0.00904812 0.9077736 0.4952874 0.5190359 0.509365 0.5216717 0.5325029 0.5183601 0.3456931 1.313259 0.3410152 1.310089 0.3518102 1.356105 0.3457245 1.329212 0.355038 1.311038 0.362834 1.294942 0.3363953 1.339409 0.4192979 1.158246 0.4140468 1.178436 0.4058281 1.202271 0.7333293 0.9344932</float_array>
          <technique_common>
            <accessor source="#pCubeShape24-map1-array" count="576" stride="2">
              <param name="S" type="float"/>
              <param name="T" type="float"/>
            </accessor>
          </technique_common>
        </source>
        <vertices id="pCubeShape24-vertices" name="pCubeShape24-vertices">
          <input semantic="POSITION" source="#pCubeShape24-positions"/>
        </vertices>
        <triangles material="temp_lambert3SG" count="928">
          <input semantic="VERTEX" source="#pCubeShape24-vertices" offset="0"/>
          <input semantic="NORMAL" source="#pCubeShape24-normals" offset="1"/>
          <input semantic="TEXCOORD" source="#pCubeShape24-map1" offset="2" set="0"/>
          <p>41 0 0 167 1 1 40 3 3 40 3 3 167 1 1 168 2 2 221 4 4 236 5 5 272 6 6 39 7 7 5 8 8 38 10 10 38 10 10 5 8 8 18 9 9 218 11 11 26 12 12 217 13 13 16 14 14 165 15 15 3 17 17 3 17 17 165 15 15 166 16 16 21 18 18 436 19 544 8 21 21 8 21 21 436 19 544 437 20 545 20 22 22 131 23 23 4 25 25 4 25 25 131 23 23 138 24 24 26 12 12 218 11 11 248 26 26 7 27 27 17 28 28 116 30 30 116 30 30 17 28 28 115 29 29 22 31 31 312 32 32 2 34 34 2 34 34 312 32 32 313 33 33 4 25 25 46 35 35 20 22 22 20 22 22 46 35 35 47 36 36 214 37 37 261 38 38 262 39 39 34 40 40 193 41 41 204 42 42 283 43 43 284 44 44 36 45 45 36 45 45 448 46 558 283 43 43 49 48 48 59 49 49 400 47 508 400 47 508 59 49 49 399 50 507 423 51 531 133 52 51 126 53 52 113 54 53 309 55 54 128 56 55 84 57 56 456 58 566 108 59 58 207 61 60 206 62 61 42 60 59 42 60 59 206 62 61 171 63 62 100 64 63 85 65 64 362 66 470 67 67 66 219 68 67 66 69 68 58 70 69 60 71 70 49 48 48 49 48 48 60 71 70 59 49 49 27 72 71 26 12 12 185 73 72 208 74 73 264 75 74 212 76 75 111 77 76 112 78 77 163 80 79 163 80 79 112 78 77 157 79 78 112 78 77 118 81 80 157 79 78 157 79 78 118 81 80 156 82 81 265 83 82 186 84 83 203 86 85 203 86 85 186 84 83 192 85 84 251 87 86 444 88 554 188 90 89 188 90 89 444 88 554 445 89 555 51 91 90 184 92 91 25 93 92 38 10 93 202 94 94 61 95 95 62 96 96 39 7 97 61 95 95 61 95 95 39 7 97 38 10 93 15 97 98 169 98 99 10 100 101 10 100 101 169 98 99 170 99 100 172 101 102 171 63 103 169 98 99 290 102 104 110 103 105 173 104 106 45 105 107 44 106 108 440 108 549 440 108 549 44 106 108 439 107 548 63 109 111 64 110 112 19 112 114 19 112 114 64 110 112 14 111 113 63 109 111 19 112 114 24 113 115 24 113 115 50 114 116 49 48 117 51 91 90 276 115 118 37 116 119 273 117 120 58 70 121 49 48 122 66 69 68 275 118 123 51 91 90 51 91 90 275 118 123 276 115 118 273 117 120 274 119 124 58 70 121 58 70 121 274 119 124 52 120 125 54 121 126 53 122 127 306 124 129 306 124 129 53 122 127 305 123 128 19 112 114 54 121 126 306 124 129 391 125 499 394 126 502 72 127 132 293 129 135 294 130 136 88 128 134 88 128 134 294 130 136 87 131 137 71 132 138 120 133 139 70 134 140 269 135 141 68 136 142 69 137 143 68 136 142 29 138 130 73 139 133 9 140 144 6 141 145 70 134 140 70 134 140 6 141 145 69 137 146 307 143 148 308 144 149 259 142 147 259 142 147 308 144 149 32 145 150 258 147 152 452 148 562 123 146 151 123 146 151 452 148 562 453 149 563 134 150 153 278 151 154 417 152 525 180 153 160 312 32 32 179 154 161 124 155 162 136 156 163 153 157 156 58 70 69 13 158 164 404 159 512 52 120 125 13 158 165 58 70 121 61 95 95 405 160 513 408 161 516 14 111 113 62 96 96 19 112 114 19 112 114 62 96 96 61 95 95 412 162 520 48 163 168 411 164 519 47 36 170 46 35 171 63 109 111 63 109 111 46 35 171 64 110 112 61 95 95 54 121 126 19 112 114 63 109 111 24 113 115 48 163 172 111 77 76 357 165 465 358 166 466 398 167 506 399 50 507 243 168 175 243 168 175 399 50 507 59 49 49 25 93 92 67 67 66 66 69 68 248 26 26 249 170 177 190 169 176 190 169 176 249 170 177 191 171 178 78 172 180 79 173 181 68 136 179 68 136 179 79 173 181 69 137 182 70 134 183 69 137 182 80 174 184 80 174 184 69 137 182 79 173 181 70 134 183 80 174 184 71 132 185 71 132 185 80 174 184 81 175 186 87 131 137 294 130 136 81 175 186 72 127 188 82 176 189 73 139 187 73 139 187 82 176 189 83 177 190 73 139 187 83 177 190 68 136 179 68 136 179 83 177 190 78 172 180 30 178 191 295 179 192 12 181 194 12 181 194 295 179 192 296 180 193 270 182 195 29 138 130 269 135 141 269 135 141 29 138 130 68 136 142 244 183 174 69 137 146 65 184 47 80 174 184 79 173 181 74 185 196 81 175 186 74 185 196 75 186 197 376 188 484 302 189 200 375 187 483 375 187 483 302 189 200 93 190 201 77 191 202 372 192 480 76 193 204 78 172 180 83 177 190 77 191 205 43 194 206 108 59 207 23 195 208 291 196 209 86 197 210 82 176 203 88 128 134 301 199 199 89 198 211 89 198 211 301 199 199 91 200 198 292 201 212 89 198 211 291 196 209 291 196 209 89 198 211 86 197 210 75 186 197 96 202 213 81 175 186 81 175 186 96 202 213 380 203 488 389 204 497 95 205 215 388 207 496 388 207 496 95 205 215 298 206 216 76 193 204 372 192 480 95 205 219 95 205 219 372 192 480 373 208 481 87 131 137 81 175 186 97 209 214 82 176 203 86 197 210 94 210 218 94 210 218 89 198 211 297 211 220 95 205 219 373 208 481 298 206 221 298 206 221 373 208 481 374 212 482 96 202 213 299 213 217 380 203 488 380 203 488 299 213 217 379 214 487 87 131 137 97 209 214 300 215 222 293 129 135 88 128 134 292 201 212 292 201 212 88 128 134 89 198 211 100 64 63 105 216 223 107 217 224 101 218 225 102 219 226 464 220 574 365 221 473 103 222 228 463 224 573 463 224 573 103 222 228 462 223 572 101 218 225 104 225 230 102 219 226 105 216 223 103 222 228 366 226 474 366 226 474 103 222 228 365 221 473 366 226 474 107 217 224 105 216 223 43 194 206 106 227 232 108 59 207 55 228 233 107 217 234 43 194 206 43 194 206 107 217 234 106 227 232 100 64 63 154 229 235 363 230 471 106 227 231 101 218 225 108 59 58 108 59 58 101 218 225 84 57 56 108 59 207 261 38 236 213 231 237 43 194 206 182 232 238 55 228 233 358 166 466 359 233 467 111 77 76 111 77 76 359 233 467 112 78 77 360 234 468 118 81 80 359 233 467 359 233 467 118 81 80 112 78 77 128 56 55 432 235 540 113 54 53 113 54 53 179 154 161 22 31 31 21 18 18 114 236 240 436 19 544 130 237 241 114 236 240 21 18 18 23 195 208 173 104 242 43 194 206 115 29 29 323 238 427 116 30 30 116 30 30 323 238 427 324 239 428 361 240 469 367 241 475 119 243 243 119 243 243 367 241 475 368 242 476 360 234 468 427 244 535 118 81 80 118 81 80 427 244 535 428 245 536 0 246 65 120 133 139 71 132 138 120 133 139 117 247 239 70 134 140 70 134 140 117 247 239 9 140 144 155 248 244 363 230 471 154 229 235 118 81 80 428 245 536 156 82 81 156 82 81 428 245 536 429 249 537 33 250 159 260 251 245 431 253 539 431 253 539 260 251 245 430 252 538 31 254 246 257 255 247 425 257 533 425 257 533 257 255 247 424 256 532 423 51 531 126 53 52 422 258 530 422 258 530 126 53 52 124 155 162 31 254 246 425 257 533 125 260 50 125 260 50 425 257 533 426 259 534 32 145 150 308 144 149 127 261 249 127 261 249 308 144 149 309 55 54 129 262 248 123 146 151 454 263 564 454 263 564 123 146 151 453 149 563 114 236 240 129 262 248 454 263 564 125 260 50 426 259 534 132 264 250 133 52 51 132 264 250 131 23 23 131 23 23 132 264 250 130 237 241 125 260 50 132 264 250 133 52 51 413 266 521 414 267 522 135 265 169 135 265 169 414 267 522 140 268 167 136 156 163 126 53 52 133 52 51 417 152 525 418 269 526 134 150 153 134 150 153 418 269 526 139 270 254 124 155 162 126 53 52 136 156 163 131 23 23 130 237 241 138 24 24 138 24 24 130 237 241 137 271 253 130 237 241 21 18 18 137 271 253 137 271 253 21 18 18 8 21 21 139 270 254 418 269 526 141 272 255 141 272 255 315 273 252 416 274 524 47 36 170 63 109 111 142 275 256 141 272 255 133 52 51 131 23 23 141 272 255 20 22 22 142 275 257 142 275 257 20 22 22 47 36 36 142 275 257 48 163 168 412 162 520 142 275 256 63 109 111 48 163 172 141 272 255 136 156 163 133 52 51 141 272 255 131 23 23 20 22 22 130 237 241 132 264 250 143 276 258 143 276 258 132 264 250 129 262 248 114 236 240 143 276 258 129 262 248 130 237 241 143 276 258 114 236 240 144 277 19 113 54 53 22 31 31 145 278 20 144 277 19 2 34 34 2 34 34 144 277 19 22 31 31 111 77 76 163 80 79 357 165 465 146 279 259 122 280 260 152 281 261 400 47 508 150 282 262 49 48 48 146 279 259 65 184 47 147 283 173 6 141 145 465 284 575 65 184 47 65 184 47 69 137 146 6 141 145 49 48 48 150 282 262 48 163 264 48 163 264 150 282 262 151 285 263 65 184 47 146 279 259 148 286 265 152 281 261 148 286 265 146 279 259 65 184 47 148 286 265 150 282 262 150 282 262 148 286 265 151 285 263 151 285 263 148 286 265 149 287 266 279 288 267 280 289 268 57 290 155 278 151 154 279 288 267 57 290 155 149 287 266 148 286 265 152 281 261 277 291 269 411 164 519 48 163 168 57 290 155 256 292 270 153 157 156 153 157 156 256 292 270 124 155 162 154 229 235 107 217 224 158 293 271 159 294 272 155 248 244 158 293 271 158 293 271 155 248 244 154 229 235 160 295 273 156 82 81 429 249 537 157 79 78 156 82 81 161 296 274 161 296 274 156 82 81 160 295 273 158 293 275 107 217 234 55 228 233 121 297 276 159 294 277 55 228 233 55 228 233 159 294 277 158 293 275 121 297 276 160 295 278 159 294 277 161 296 280 160 295 278 56 298 279 56 298 279 160 295 278 121 297 276 122 280 281 161 296 280 56 298 279 122 280 260 162 299 282 161 296 274 146 279 259 162 299 282 122 280 260 163 80 79 157 79 78 162 299 282 162 299 282 157 79 78 161 296 274 146 279 259 163 80 79 162 299 282 15 97 98 110 103 105 350 300 458 74 185 196 371 301 479 381 302 489 78 172 180 77 191 205 74 185 196 81 175 186 80 174 184 74 185 196 83 177 190 82 176 189 77 191 205 390 303 498 76 193 284 389 204 497 389 204 497 76 193 284 95 205 215 165 15 285 336 304 442 166 16 286 166 16 286 336 304 442 337 305 443 167 1 1 16 14 14 271 306 287 345 307 452 346 308 453 169 98 288 169 98 288 346 308 453 170 99 289 175 309 290 171 63 103 172 101 102 164 310 283 352 311 460 15 97 98 173 104 106 23 195 291 290 102 104 290 102 104 23 195 291 289 312 292 288 313 293 176 314 294 42 60 295 174 315 296 351 316 459 164 310 283 164 310 283 351 316 459 352 311 460 43 194 206 173 104 242 182 232 238 169 98 288 171 63 62 345 307 452 177 317 109 180 153 160 110 103 297 289 312 292 23 195 291 288 313 293 288 313 293 23 195 291 176 314 294 177 317 298 110 103 105 15 97 98 178 318 299 177 317 298 10 100 101 10 100 101 177 317 298 15 97 98 113 54 53 109 319 158 179 154 161 183 320 300 179 154 161 109 319 158 44 106 108 180 153 160 439 107 548 110 103 297 180 153 160 181 321 301 55 228 157 182 232 302 109 319 158 110 103 303 182 232 238 173 104 242 110 103 297 181 321 301 182 232 302 182 232 302 181 321 301 109 319 158 109 319 158 181 321 301 183 320 300 181 321 301 180 153 160 183 320 300 183 320 300 180 153 160 179 154 161 248 26 26 190 169 176 26 12 12 26 12 12 190 169 176 185 73 72 191 171 178 249 170 177 184 92 91 252 322 87 192 85 84 187 323 88 204 42 304 193 41 41 332 324 438 1 325 306 194 326 307 186 84 83 191 171 178 184 92 91 195 328 309 195 328 309 184 92 91 189 327 308 185 73 72 196 329 310 194 326 307 194 326 307 196 329 310 197 330 311 185 73 72 190 169 176 196 329 310 196 329 310 190 169 176 198 331 312 190 169 176 191 171 178 198 331 312 186 84 83 194 326 307 197 330 311 187 323 88 192 85 84 197 330 311 445 89 555 197 330 311 188 90 89 198 331 312 195 328 309 196 329 310 196 329 310 195 328 309 197 330 311 340 332 447 194 326 307 1 325 306 27 72 71 185 73 72 194 326 307 25 93 92 66 69 68 51 91 90 323 238 427 115 29 29 322 334 426 322 334 426 115 29 29 254 333 313 115 29 29 17 28 28 254 333 313 254 333 313 17 28 28 253 335 315 284 44 44 442 336 552 36 45 45 36 45 45 442 336 552 443 337 553 18 9 9 255 338 314 38 10 10 38 10 10 255 338 314 202 94 46 203 86 85 192 85 84 209 339 317 209 339 317 192 85 84 193 41 41 51 91 90 37 116 119 189 327 308 189 327 308 37 116 119 250 340 318 446 341 556 447 342 557 188 90 89 188 90 89 447 342 557 251 87 86 198 331 312 191 171 178 195 328 309 204 42 304 335 343 441 165 15 285 165 15 285 335 343 441 336 304 442 204 42 42 165 15 15 205 344 319 205 344 319 165 15 15 16 14 14 171 63 62 206 62 61 41 0 0 41 0 0 206 62 61 167 1 1 206 62 61 205 344 319 167 1 1 167 1 1 205 344 319 16 14 14 34 40 40 205 344 319 207 61 60 207 61 60 205 344 319 206 62 61 208 74 73 212 76 75 210 345 320 210 345 320 212 76 75 211 346 321 209 339 317 193 41 41 286 347 322 42 60 59 210 345 320 211 346 321 176 314 323 210 345 320 42 60 59 287 348 324 211 346 321 286 347 322 286 347 322 211 346 321 209 339 317 42 60 59 211 346 321 287 348 324 34 40 40 204 42 42 205 344 319 212 76 75 203 86 85 211 346 321 211 346 321 203 86 85 209 339 317 212 76 75 339 349 446 265 83 82 212 76 75 265 83 82 203 86 85 176 314 323 214 37 37 215 350 325 108 59 207 213 231 237 23 195 208 23 195 326 213 231 327 176 314 323 176 314 323 213 231 327 214 37 37 213 231 327 261 38 38 214 37 37 176 314 323 208 74 73 210 345 320 176 314 323 215 350 325 208 74 73 215 350 325 263 351 328 342 352 449 262 39 39 263 351 328 214 37 37 214 37 37 263 351 328 215 350 325 216 353 329 26 12 12 341 354 448 61 95 95 202 94 94 37 116 166 197 330 311 195 328 309 188 90 89 188 90 89 195 328 309 446 341 556 397 355 505 296 180 193 11 356 330 66 69 68 219 68 67 52 120 125 52 120 125 219 68 67 13 158 165 217 13 13 26 12 12 216 353 329 248 26 26 218 11 11 247 357 331 39 7 97 62 96 96 221 4 333 221 4 333 62 96 96 220 358 332 62 96 96 14 111 113 220 358 332 220 358 332 14 111 113 222 359 334 14 111 113 64 110 112 222 359 334 222 359 334 64 110 112 223 360 335 64 110 112 46 35 171 223 360 335 223 360 335 46 35 171 224 361 336 4 25 25 225 362 337 46 35 35 46 35 35 225 362 337 224 361 338 138 24 24 226 363 339 4 25 25 4 25 25 226 363 339 225 362 337 137 271 253 227 364 340 138 24 24 138 24 24 227 364 340 226 363 339 8 21 21 228 365 341 137 271 253 137 271 253 228 365 341 227 364 340 437 20 545 438 366 546 8 21 21 8 21 21 438 366 546 228 365 341 145 278 20 2 34 34 229 368 342 229 368 342 2 34 34 230 367 343 2 34 34 313 33 33 230 367 343 45 105 107 440 108 549 231 370 345 231 370 345 440 108 549 441 369 551 178 318 299 10 100 101 232 372 347 232 372 347 10 100 101 233 371 346 10 100 101 170 99 100 233 371 346 233 371 346 170 99 100 234 373 348 346 308 453 347 374 455 170 99 289 170 99 289 347 374 455 234 373 350 168 2 2 236 5 351 40 3 3 40 3 3 236 5 351 235 375 349 168 2 2 271 306 287 236 5 351 236 5 351 271 306 287 272 6 352 3 17 17 166 16 16 237 377 354 237 377 354 166 16 16 238 376 353 337 305 443 338 378 445 166 16 286 166 16 286 338 378 445 238 376 356 7 27 27 116 30 30 239 380 355 239 380 355 116 30 30 240 379 357 324 239 428 325 381 430 116 30 30 116 30 30 325 381 430 240 379 357 5 8 8 39 7 7 241 382 358 241 382 358 39 7 7 221 4 359 241 382 360 238 376 361 320 384 423 320 384 423 238 376 361 325 381 429 325 381 429 238 376 361 240 379 363 238 376 361 338 378 444 240 379 363 240 379 363 338 378 444 239 380 362 338 378 444 331 383 436 239 380 362 235 375 364 220 358 365 347 374 454 220 358 365 234 373 366 347 374 454 221 4 4 238 376 361 241 382 360 220 358 365 235 375 364 221 4 4 221 4 4 235 375 364 236 5 5 234 373 366 220 358 365 233 371 368 233 371 368 220 358 365 222 359 367 233 371 368 223 360 369 232 372 371 232 372 371 223 360 369 224 361 370 233 371 368 222 359 367 223 360 369 441 369 550 225 362 372 231 370 373 232 372 371 224 361 370 225 362 372 231 370 373 226 363 374 227 364 375 230 367 376 227 364 375 229 368 378 229 368 378 227 364 375 438 366 547 227 364 375 228 365 377 438 366 547 231 370 373 227 364 375 230 367 376 231 370 373 225 362 372 226 363 374 350 300 458 110 103 105 349 385 457 175 309 290 42 60 295 171 63 103 60 71 70 242 386 379 59 49 49 59 49 49 242 386 379 243 168 175 30 178 191 69 137 143 295 179 192 404 159 512 13 158 164 403 387 511 403 387 511 13 158 164 245 388 380 219 68 67 246 389 381 13 158 165 13 158 165 246 389 381 245 388 382 219 68 67 247 357 331 246 389 381 248 26 26 247 357 331 67 67 66 67 67 66 247 357 331 219 68 67 248 26 26 67 67 66 249 170 177 249 170 177 67 67 66 25 93 92 184 92 91 249 170 177 25 93 92 250 340 318 37 116 119 202 94 46 447 342 557 448 46 558 251 87 86 251 87 86 448 46 558 36 45 45 36 45 45 443 337 553 251 87 86 251 87 86 443 337 553 444 88 554 193 41 41 252 322 87 35 390 305 204 42 304 332 324 438 333 391 439 413 266 521 135 265 169 277 291 269 106 227 231 104 225 230 101 218 225 103 222 228 105 216 223 100 64 63 51 91 90 189 327 308 184 92 91 335 343 441 204 42 304 334 392 440 201 393 384 254 333 313 200 394 383 200 394 383 254 333 313 253 335 315 322 334 426 254 333 313 321 395 425 321 395 425 254 333 313 201 393 384 202 94 46 255 338 314 199 396 385 24 113 115 49 48 117 48 163 172 57 290 155 280 289 268 256 292 270 256 292 270 421 397 529 124 155 162 124 155 162 421 397 529 422 258 530 421 397 529 256 292 270 280 289 268 424 256 532 257 255 247 280 289 268 452 148 562 258 147 152 281 398 386 281 398 386 258 147 152 280 289 268 281 398 386 307 143 148 259 142 147 430 252 538 260 251 245 282 399 387 394 126 502 391 125 499 457 401 567 457 401 567 391 125 499 392 400 500 460 402 570 28 403 131 459 404 569 262 39 39 261 38 38 217 13 13 217 13 13 261 38 38 11 356 390 263 351 328 262 39 39 216 353 329 216 353 329 262 39 39 217 13 13 263 351 328 216 353 329 342 352 449 342 352 449 216 353 329 341 354 448 265 83 82 339 349 446 1 325 306 1 325 306 339 349 446 340 332 447 1 325 306 186 84 83 265 83 82 186 84 83 197 330 311 192 85 84 193 41 41 192 85 84 252 322 87 84 57 56 266 405 388 456 58 566 456 58 566 266 405 388 455 406 565 101 218 225 267 407 391 84 57 56 84 57 56 267 407 391 266 405 388 101 218 225 98 408 227 267 407 391 100 64 63 107 217 224 154 229 235 100 64 63 462 223 572 103 222 228 100 64 63 0 246 65 268 409 392 78 172 180 74 185 196 79 173 181 30 178 191 269 135 141 69 137 143 30 178 191 270 182 195 269 135 141 30 178 191 12 181 194 270 182 195 392 400 500 11 356 330 393 410 501 271 306 287 16 14 14 3 17 17 271 306 287 3 17 17 272 6 352 272 6 352 3 17 17 237 377 354 272 6 6 237 377 393 221 4 4 221 4 4 237 377 393 238 376 361 167 1 1 271 306 287 168 2 2 50 114 116 273 117 394 49 48 117 305 123 128 53 122 127 274 119 395 66 69 68 52 120 125 275 118 123 275 118 123 52 120 125 274 119 124 53 122 127 275 118 396 274 119 395 406 411 514 275 118 396 407 412 515 406 411 514 407 412 515 405 160 513 405 160 513 407 412 515 408 161 516 151 285 398 277 291 269 48 163 168 277 291 269 151 285 398 278 151 154 278 151 154 151 285 398 149 287 399 149 287 399 152 281 400 278 151 154 278 151 154 152 281 400 279 288 267 122 280 401 280 289 268 152 281 400 152 281 400 280 289 268 279 288 267 281 398 386 280 289 268 56 298 402 56 298 402 280 289 268 122 280 401 56 298 402 121 297 403 281 398 386 281 398 386 121 297 403 282 399 387 55 228 157 282 399 387 121 297 403 321 395 425 201 393 384 284 44 44 442 336 552 284 44 44 201 393 384 204 42 304 333 391 439 334 392 440 286 347 322 193 41 41 34 40 40 207 61 60 287 348 324 34 40 40 34 40 40 287 348 324 286 347 322 42 60 59 287 348 324 207 61 60 175 309 290 288 313 293 42 60 295 174 315 296 289 312 292 351 316 459 290 102 104 289 312 292 348 413 456 110 103 105 290 102 104 349 385 457 349 385 457 290 102 104 348 413 456 72 127 188 291 196 404 82 176 189 28 403 131 292 201 405 72 127 132 72 127 132 292 201 405 291 196 406 460 402 570 267 407 391 28 403 131 267 407 391 98 408 227 292 201 405 364 414 472 293 129 407 292 201 405 268 409 392 293 129 407 99 415 229 268 409 392 0 246 65 293 129 407 294 130 408 293 129 407 71 132 138 71 132 138 293 129 407 0 246 65 81 175 186 294 130 136 71 132 185 295 179 409 69 137 146 244 183 174 295 179 409 398 167 506 243 168 175 243 168 175 242 386 379 295 179 409 403 387 511 245 388 380 295 179 409 296 180 410 295 179 409 245 388 380 246 389 381 296 180 411 245 388 382 218 11 11 296 180 411 247 357 331 247 357 331 296 180 411 246 389 381 296 180 411 218 11 11 11 356 390 11 356 390 218 11 11 217 13 13 94 210 218 86 197 210 89 198 211 297 211 220 89 198 211 91 200 198 298 206 221 374 212 482 93 190 201 93 190 201 374 212 482 375 187 483 387 416 495 388 207 496 93 190 416 93 190 416 388 207 496 298 206 216 299 213 217 92 417 413 379 214 487 379 214 487 92 417 413 378 418 486 88 128 134 300 215 222 90 419 414 87 131 137 300 215 222 88 128 134 301 199 199 88 128 134 304 420 415 304 420 415 88 128 134 90 419 414 303 421 412 377 422 485 92 417 413 92 417 413 377 422 485 378 418 486 376 188 484 377 422 485 302 189 200 302 189 200 377 422 485 303 421 412 409 423 517 305 123 128 273 117 394 273 117 394 305 123 128 274 119 395 305 123 128 409 423 517 306 124 129 306 124 129 409 423 517 410 424 518 19 112 114 306 124 129 410 424 518 281 398 386 282 399 387 307 143 148 307 143 148 282 399 387 260 251 245 307 143 148 260 251 245 308 144 149 308 144 149 260 251 245 33 250 159 308 144 149 33 250 159 309 55 54 309 55 54 33 250 159 128 56 55 127 261 249 309 55 54 114 236 240 114 236 240 309 55 54 113 54 53 431 253 539 432 235 540 33 250 159 33 250 159 432 235 540 128 56 55 311 425 57 310 426 389 261 38 418 261 38 418 310 426 389 11 356 330 108 59 58 311 425 57 261 38 418 180 153 160 44 106 108 312 32 32 179 154 161 312 32 32 22 31 31 313 33 33 312 32 32 45 105 107 45 105 107 312 32 32 44 106 108 231 370 345 313 33 33 45 105 107 230 367 343 313 33 33 231 370 345 415 427 523 314 428 251 278 151 154 278 151 154 314 428 251 277 291 269 314 428 251 415 427 523 315 273 252 315 273 252 415 427 523 416 274 524 140 268 167 414 267 522 142 275 257 142 275 257 315 273 252 141 272 255 199 396 385 316 429 419 283 43 43 317 430 420 316 429 419 255 338 314 255 338 314 316 429 419 199 396 385 318 431 421 317 430 420 18 9 9 18 9 9 317 430 420 255 338 314 318 431 421 18 9 9 319 432 422 319 432 422 18 9 9 5 8 8 319 432 422 5 8 8 320 384 424 320 384 424 5 8 8 241 382 358 321 395 425 284 44 44 316 429 419 316 429 419 284 44 44 283 43 43 322 334 426 321 395 425 317 430 420 317 430 420 321 395 425 316 429 419 323 238 427 322 334 426 318 431 421 318 431 421 322 334 426 317 430 420 323 238 427 318 431 421 324 239 428 324 239 428 318 431 421 319 432 422 324 239 428 319 432 422 325 381 430 325 381 430 319 432 422 320 384 424 326 433 431 35 390 305 285 434 316 326 433 431 285 434 316 327 435 432 327 435 432 285 434 316 200 394 383 253 335 315 328 436 433 200 394 383 200 394 383 328 436 433 327 435 432 328 436 433 253 335 315 329 437 434 329 437 434 253 335 315 17 28 28 329 437 434 17 28 28 330 438 435 330 438 435 17 28 28 7 27 27 330 438 435 7 27 27 331 383 437 331 383 437 7 27 27 239 380 355 332 324 438 193 41 41 35 390 305 333 391 439 332 324 438 326 433 431 326 433 431 332 324 438 35 390 305 333 391 439 326 433 431 334 392 440 334 392 440 326 433 431 327 435 432 328 436 433 335 343 441 327 435 432 327 435 432 335 343 441 334 392 440 335 343 441 328 436 433 336 304 442 336 304 442 328 436 433 329 437 434 336 304 442 329 437 434 337 305 443 337 305 443 329 437 434 330 438 435 338 378 445 337 305 443 331 383 437 331 383 437 337 305 443 330 438 435 212 76 75 264 75 74 339 349 446 339 349 446 264 75 74 340 332 447 340 332 447 264 75 74 27 72 71 27 72 71 194 326 307 340 332 447 341 354 448 26 12 12 343 439 450 342 352 449 341 354 448 344 440 451 344 440 451 341 354 448 343 439 450 215 350 325 342 352 449 208 74 73 208 74 73 342 352 449 344 440 451 343 439 450 26 12 12 27 72 71 344 440 451 343 439 450 264 75 74 264 75 74 343 439 450 27 72 71 208 74 73 344 440 451 264 75 74 345 307 452 171 63 62 41 0 0 346 308 453 345 307 452 40 3 3 40 3 3 345 307 452 41 0 0 347 374 455 346 308 453 235 375 349 235 375 349 346 308 453 40 3 3 348 413 456 289 312 292 174 315 296 174 315 296 349 385 457 348 413 456 164 310 283 350 300 458 174 315 296 174 315 296 350 300 458 349 385 457 15 97 98 350 300 458 164 310 283 351 316 459 289 312 292 353 441 461 352 311 460 351 316 459 354 442 462 354 442 462 351 316 459 353 441 461 15 97 98 352 311 460 354 442 462 289 312 292 288 313 293 353 441 461 353 441 461 288 313 293 355 443 463 353 441 461 355 443 463 354 442 462 354 442 462 355 443 463 356 444 464 15 97 98 354 442 462 169 98 99 169 98 99 354 442 462 356 444 464 355 443 463 288 313 293 175 309 290 356 444 464 355 443 463 172 101 102 172 101 102 355 443 463 175 309 290 169 98 99 356 444 464 172 101 102 357 165 465 146 279 259 147 283 173 357 165 465 163 80 79 146 279 259 465 284 575 6 141 145 358 166 466 6 141 145 9 140 144 358 166 466 358 166 466 9 140 144 359 233 467 117 247 239 360 234 468 9 140 144 9 140 144 360 234 468 359 233 467 117 247 239 427 244 535 360 234 468 120 133 139 367 241 475 361 240 469 100 64 63 362 66 470 0 246 65 155 248 244 119 243 243 368 242 476 100 64 63 363 230 471 85 65 64 98 408 227 364 414 472 292 201 405 364 414 472 99 415 229 293 129 407 365 221 473 463 224 573 102 219 226 102 219 226 463 224 573 464 220 574 366 226 474 365 221 473 104 225 230 104 225 230 365 221 473 102 219 226 106 227 231 366 226 474 104 225 230 106 227 231 107 217 224 366 226 474 120 133 139 0 246 65 367 241 475 367 241 475 0 246 65 362 66 470 367 241 475 362 66 470 368 242 476 368 242 476 362 66 470 85 65 64 155 248 244 368 242 476 363 230 471 363 230 471 368 242 476 85 65 64 299 213 217 383 445 491 92 417 413 92 417 413 383 445 491 384 446 492 96 202 213 382 447 490 299 213 217 299 213 217 382 447 490 383 445 491 381 302 489 382 447 490 75 186 197 75 186 197 382 447 490 96 202 213 385 448 493 386 449 494 303 421 412 303 421 412 386 449 494 302 189 417 386 449 494 387 416 495 302 189 417 302 189 417 387 416 495 93 190 416 92 417 413 384 446 492 303 421 412 303 421 412 384 446 492 385 448 493 77 191 202 82 176 203 372 192 480 372 192 480 82 176 203 373 208 481 373 208 481 82 176 203 94 210 218 373 208 481 94 210 218 374 212 482 374 212 482 94 210 218 297 211 220 375 187 483 374 212 482 91 200 198 91 200 198 374 212 482 297 211 220 91 200 198 301 199 199 375 187 483 375 187 483 301 199 199 376 188 484 376 188 484 301 199 199 377 422 485 377 422 485 301 199 199 304 420 415 377 422 485 304 420 415 378 418 486 378 418 486 304 420 415 90 419 414 379 214 487 378 418 486 300 215 222 300 215 222 378 418 486 90 419 414 380 203 488 379 214 487 97 209 214 97 209 214 379 214 487 300 215 222 81 175 186 380 203 488 97 209 214 371 301 479 370 450 478 381 302 489 381 302 489 370 450 478 382 447 490 382 447 490 370 450 478 383 445 491 383 445 491 370 450 478 369 451 477 384 446 492 383 445 491 369 451 477 385 448 493 384 446 492 369 451 477 386 449 494 385 448 493 369 451 477 387 416 495 386 449 494 369 451 477 388 207 496 387 416 495 369 451 477 370 450 478 389 204 497 369 451 477 369 451 477 389 204 497 388 207 496 371 301 479 390 303 498 370 450 478 370 450 478 390 303 498 389 204 497 74 185 196 381 302 489 75 186 197 77 191 205 390 303 498 371 301 479 77 191 205 371 301 479 74 185 196 77 191 205 76 193 284 390 303 498 395 452 503 391 125 499 72 127 132 391 125 499 395 452 503 392 400 500 392 400 500 395 452 503 396 453 504 396 453 504 397 355 505 392 400 500 392 400 500 397 355 505 11 356 330 393 410 501 11 356 330 310 426 389 28 403 131 394 126 502 458 454 568 458 454 568 394 126 502 457 401 567 72 127 132 394 126 502 28 403 131 29 138 130 395 452 503 73 139 133 73 139 133 395 452 503 72 127 132 396 453 504 395 452 503 270 182 195 270 182 195 395 452 503 29 138 130 270 182 195 12 181 194 396 453 504 396 453 504 12 181 194 397 355 505 12 181 194 296 180 193 397 355 505 295 179 409 244 183 174 398 167 506 244 183 174 65 184 47 398 167 506 398 167 506 65 184 47 399 50 507 65 184 47 400 47 508 399 50 507 65 184 47 150 282 262 400 47 508 242 386 379 401 455 509 295 179 409 242 386 379 60 71 70 401 455 509 401 455 509 60 71 70 402 456 510 58 70 69 402 456 510 60 71 70 401 455 509 403 387 511 295 179 409 402 456 510 404 159 512 401 455 509 401 455 509 404 159 512 403 387 511 58 70 69 404 159 512 402 456 510 61 95 95 37 116 166 405 160 513 37 116 166 276 115 397 405 160 513 405 160 513 276 115 397 406 411 514 276 115 397 275 118 396 406 411 514 407 412 515 275 118 396 53 122 127 408 161 516 407 412 515 54 121 126 54 121 126 407 412 515 53 122 127 61 95 95 408 161 516 54 121 126 50 114 116 409 423 517 273 117 394 410 424 518 409 423 517 24 113 115 24 113 115 409 423 517 50 114 116 19 112 114 410 424 518 24 113 115 277 291 269 135 265 169 411 164 519 140 268 167 412 162 520 135 265 169 135 265 169 412 162 520 411 164 519 142 275 257 412 162 520 140 268 167 314 428 251 413 266 521 277 291 269 414 267 522 413 266 521 315 273 252 315 273 252 413 266 521 314 428 251 142 275 257 414 267 522 315 273 252 134 150 153 415 427 523 278 151 154 415 427 523 134 150 153 416 274 524 416 274 524 134 150 153 139 270 254 141 272 255 416 274 524 139 270 254 417 152 525 278 151 154 419 457 527 419 457 527 278 151 154 57 290 155 418 269 526 417 152 525 420 458 528 420 458 528 417 152 525 419 457 527 141 272 255 418 269 526 420 458 528 420 458 528 419 457 527 136 156 163 136 156 163 419 457 527 153 157 156 141 272 255 420 458 528 136 156 163 419 457 527 57 290 155 153 157 156 257 255 247 421 397 529 280 289 268 422 258 530 421 397 529 31 254 246 31 254 246 421 397 529 257 255 247 125 260 50 423 51 531 31 254 246 31 254 246 423 51 531 422 258 530 125 260 50 133 52 51 423 51 531 258 147 152 424 256 532 280 289 268 424 256 532 258 147 152 425 257 533 425 257 533 258 147 152 123 146 151 426 259 534 425 257 533 129 262 248 129 262 248 425 257 533 123 146 151 132 264 250 426 259 534 129 262 248 120 133 139 361 240 469 117 247 239 117 247 239 361 240 469 427 244 535 428 245 536 427 244 535 119 243 243 119 243 243 427 244 535 361 240 469 429 249 537 428 245 536 155 248 244 155 248 244 428 245 536 119 243 243 429 249 537 155 248 244 160 295 273 160 295 273 155 248 244 159 294 272 433 459 541 430 252 538 282 399 387 431 253 539 430 252 538 434 460 542 434 460 542 430 252 538 433 459 541 432 235 540 431 253 539 435 461 543 435 461 543 431 253 539 434 460 542 432 235 540 435 461 543 113 54 53 55 228 157 433 459 541 282 399 387 434 460 542 433 459 541 109 319 158 109 319 158 433 459 541 55 228 157 435 461 543 434 460 542 109 319 158 113 54 53 435 461 543 109 319 158 436 19 544 113 54 53 144 277 19 436 19 544 144 277 19 437 20 545 437 20 545 144 277 19 145 278 20 437 20 545 145 278 20 438 366 546 438 366 546 145 278 20 229 368 342 436 19 544 114 236 240 113 54 53 439 107 548 180 153 160 177 317 109 440 108 549 439 107 548 178 318 110 178 318 110 439 107 548 177 317 109 440 108 549 178 318 110 441 369 551 441 369 551 178 318 110 232 372 344 232 372 371 225 362 372 441 369 550 285 434 316 442 336 552 200 394 383 200 394 383 442 336 552 201 393 384 451 462 561 285 434 316 35 390 305 451 462 561 35 390 305 450 463 560 450 463 560 35 390 305 252 322 87 450 463 560 252 322 87 449 464 559 449 464 559 252 322 87 187 323 88 187 323 88 197 330 311 449 464 559 446 341 556 195 328 309 189 327 308 189 327 308 250 340 318 446 341 556 446 341 556 250 340 318 447 342 557 447 342 557 250 340 318 448 46 558 448 46 558 250 340 318 202 94 46 283 43 43 448 46 558 199 396 385 199 396 385 448 46 558 202 94 46 449 464 559 197 330 311 445 89 555 445 89 555 444 88 554 449 464 559 449 464 559 444 88 554 450 463 560 444 88 554 443 337 553 450 463 560 450 463 560 443 337 553 451 462 561 443 337 553 442 336 552 451 462 561 451 462 561 442 336 552 285 434 316 259 142 147 452 148 562 281 398 386 452 148 562 259 142 147 453 149 563 453 149 563 259 142 147 32 145 150 454 263 564 453 149 563 127 261 249 127 261 249 453 149 563 32 145 150 114 236 240 454 263 564 127 261 249 459 404 569 28 403 131 458 454 568 456 58 566 455 406 565 311 425 57 311 425 57 455 406 565 310 426 389 108 59 58 456 58 566 311 425 57 457 401 567 392 400 500 393 410 501 461 465 571 457 401 567 310 426 389 310 426 389 457 401 567 393 410 501 455 406 565 461 465 571 310 426 389 266 405 388 460 402 570 455 406 565 455 406 565 460 402 570 459 404 569 266 405 388 267 407 391 460 402 570 28 403 131 267 407 391 292 201 405 459 404 569 458 454 568 455 406 565 455 406 565 458 454 568 461 465 571 457 401 567 461 465 571 458 454 568 268 409 392 99 415 229 100 64 63 100 64 63 99 415 229 462 223 572 463 224 573 462 223 572 364 414 472 364 414 472 462 223 572 99 415 229 463 224 573 364 414 472 464 220 574 464 220 574 364 414 472 98 408 227 101 218 225 464 220 574 98 408 227 147 283 173 465 284 575 357 165 465 357 165 465 465 284 575 358 166 466 65 184 47 465 284 575 147 283 173</p>
        </triangles>
      </mesh>
      <extra>
        <technique profile="OpenCOLLADAMaya">
          <originalMayaNodeId>pCubeShape24</originalMayaNodeId>
          <double_sided>1</double_sided>
        </technique>
      </extra>
    </geometry>
  </library_geometries>
  <library_visual_scenes>
    <visual_scene id="VisualSceneNode" name="rockwall_pieces">
      <node id="pCube24" name="pCube24" type="NODE">
        <matrix sid="transform">1 0 0 0 0 1 0 0 0 0 1 0 0 0 0 1</matrix>
        <instance_geometry url="#pCubeShape24">
          <bind_material>
            <technique_common>
              <instance_material symbol="temp_lambert3SG" target="#lambert3SG1">
                <bind_vertex_input semantic="TEX0" input_semantic="TEXCOORD" input_set="0"/>
              </instance_material>
            </technique_common>
          </bind_material>
        </instance_geometry>
        <extra>
          <technique profile="OpenCOLLADAMaya">
            <originalMayaNodeId>pCube24</originalMayaNodeId>
          </technique>
        </extra>
      </node>
    </visual_scene>
  </library_visual_scenes>
  <scene>
    <instance_visual_scene url="#VisualSceneNode"/>
  </scene>
</COLLADA>