<?xml version="1.0" encoding="utf-8"?>
<COLLADA xmlns="http://www.collada.org/2005/11/COLLADASchema" version="1.4.1">
  <asset>
    <contributor>
      <author>Marc</author>
      <authoring_tool>OpenCOLLADA2008</authoring_tool>
      <comments>
			ColladaMaya export options: 
			bakeTransforms=1;relativePaths=1;copyTextures=0;exportTriangles=1;exportCgfxFileReferences=0;
			isSampling=1;curveConstrainSampling=0;removeStaticCurves=0;exportPolygonMeshes=1;exportLights=0;
			exportCameras=0;exportJointsAndSkin=1;exportAnimations=1;exportInvisibleNodes=0;exportDefaultCameras=0;
			exportTexCoords=1;exportNormals=1;exportNormalsPerVertex=0;exportVertexColors=1;exportVertexColorsPerVertex=0;
			exportTexTangents=0;exportTangents=0;exportReferencedMaterials=0;exportMaterialsOnly=0;
			exportXRefs=0;dereferenceXRefs=1;exportCameraAsLookat=0;cameraXFov=0;cameraYFov=0;doublePrecision=0
		</comments>
      <source_data>file:///F:/depth/redist/static_objects/environment/rocks/rock_pile01.dae</source_data>
    </contributor>
    <created>2013-02-05T16:33:36</created>
    <modified>2013-02-05T16:33:36</modified>
    <unit name="meter" meter="1"/>
    <up_axis>Y_UP</up_axis>
  </asset>
  <library_materials>
    <material id="lambert1" name="lambert1">
      <instance_effect url="#lambert1-fx"/>
    </material>
    <material id="lambert1_1" name="lambert1_1">
      <instance_effect url="#lambert1-fx_1"/>
    </material>
    <material id="lambert3SG1" name="lambert3SG1">
      <instance_effect url="#lambert3SG1-fx"/>
    </material>
  </library_materials>
  <library_effects>
    <effect id="lambert1-fx">
      <profile_COMMON>
        <technique sid="common">
          <lambert>
            <emission>
              <color sid="emission">0 0 0 1</color>
            </emission>
            <ambient>
              <color sid="ambient">0 0 0 1</color>
            </ambient>
            <diffuse>
              <color sid="diffuse">0.4 0.4 0.4 1</color>
            </diffuse>
            <transparent opaque="RGB_ZERO">
              <color sid="transparent">0 0 0 1</color>
            </transparent>
            <transparency>
              <float>1</float>
            </transparency>
          </lambert>
        </technique>
      </profile_COMMON>
    </effect>
    <effect id="lambert1-fx_1">
      <profile_COMMON>
        <technique sid="common">
          <lambert>
            <emission>
              <color sid="emission">0 0 0 1</color>
            </emission>
            <ambient>
              <color sid="ambient">0 0 0 1</color>
            </ambient>
            <diffuse>
              <color sid="diffuse">0.4 0.4 0.4 1</color>
            </diffuse>
            <transparent opaque="RGB_ZERO">
              <color sid="transparent">0 0 0 1</color>
            </transparent>
            <transparency>
              <float>1</float>
            </transparency>
          </lambert>
        </technique>
      </profile_COMMON>
    </effect>
    <effect id="lambert3SG1-fx">
      <profile_COMMON>
        <newparam sid="file2-surface">
          <surface type="2D">
            <init_from>file2</init_from>
          </surface>
        </newparam>
        <newparam sid="file2-sampler">
          <sampler2D>
            <source>file2-surface</source>
          </sampler2D>
        </newparam>
        <technique sid="common">
          <lambert>
            <emission>
              <color sid="emission">0 0 0 1</color>
            </emission>
            <ambient>
              <color sid="ambient">0 0 0 1</color>
            </ambient>
            <diffuse>
              <texture texture="file2-sampler" texcoord="TEX0">
                <extra>
                  <technique profile="OpenCOLLADAMaya">
                    <blend_mode>NONE</blend_mode>
                    <coverageU sid="coverageU">1</coverageU>
                    <coverageV sid="coverageV">1</coverageV>
                    <fast sid="fast">0</fast>
                    <mirrorU sid="mirrorU">0</mirrorU>
                    <mirrorV sid="mirrorV">0</mirrorV>
                    <noiseU sid="noiseU">0</noiseU>
                    <noiseV sid="noiseV">0</noiseV>
                    <offsetU sid="offsetU">0</offsetU>
                    <offsetV sid="offsetV">0</offsetV>
                    <repeatU sid="repeatU">1</repeatU>
                    <repeatV sid="repeatV">1</repeatV>
                    <rotateFrame sid="rotateFrame">0</rotateFrame>
                    <rotateUV sid="rotateUV">0</rotateUV>
                    <stagger sid="stagger">0</stagger>
                    <translateFrameU sid="translateFrameU">0</translateFrameU>
                    <translateFrameV sid="translateFrameV">0</translateFrameV>
                    <wrapU sid="wrapU">1</wrapU>
                    <wrapV sid="wrapV">1</wrapV>
                  </technique>
                </extra>
              </texture>
            </diffuse>
            <transparent opaque="RGB_ZERO">
              <color sid="transparent">0 0 0 1</color>
            </transparent>
            <transparency>
              <float>1</float>
            </transparency>
          </lambert>
        </technique>
      </profile_COMMON>
    </effect>
  </library_effects>
  <library_images>
    <image id="file2" name="file2">
      <init_from>./ice_rock_UV.dds</init_from>
      <extra>
        <technique profile="OpenCOLLADAMaya">
          <dgnode_type>kFile</dgnode_type>
          <image_sequence>0</image_sequence>
          <originalMayaNodeId>file2</originalMayaNodeId>
        </technique>
      </extra>
    </image>
  </library_images>
  <library_geometries>
    <geometry id="polySurfaceShape75" name="polySurfaceShape72">
      <mesh>
        <source id="polySurfaceShape75-positions" name="polySurfaceShape75-positions">
          <float_array id="polySurfaceShape75-positions-array" count="1002">-0.204361 0.26074 0.118659 -0.182118 0.291299 0.16945 -0.090056 0.313195 0.205281 -0.025188 0.333678 0.20196 -0.223822 0.319528 0.108296 -0.207998 0.346025 0.17213 -0.115937 0.367922 0.207961 -0.038138 0.377319 0.209066 -0.209525 0.361832 0.086728 -0.200274 0.3876 0.138916 -0.095908 0.411771 0.177448 -0.018109 0.421168 0.178554 -0.228645 0.322233 0.019241 -0.155005 0.403909 0.048005 -0.064568 0.430883 0.100709 -0.002066 0.422079 0.133643 -0.207918 0.332804 -0.052535 -0.136791 0.37409 -0.054309 -0.023007 0.404189 -2.98e-4 0.036993 0.40511 0.064725 -0.183619 0.308272 -0.083532 -0.102395 0.35077 -0.067385 -0.005899 0.33415 -0.032231 0.056356 0.377831 0.015862 -0.199507 0.264028 -0.104186 -0.086561 0.276096 -0.097147 -0.00196 0.312828 -0.011506 0.066487 0.329498 0.016879 0.044939 0.292191 0.029927 0.069933 0.29799 0.084149 -0.232852 0.229151 0.093288 -0.04562 0.268027 0.151546 0.047587 0.318934 0.169798 0.094692 0.346195 0.104714 0.055633 0.363164 0.173631 -0.219101 0.27751 -0.043219 -0.252109 0.272402 0.036953 0.043792 0.399524 0.156223 0.082852 0.382555 0.087306 -0.267886 0.058862 0.323903 -0.112321 0.003826 0.314314 0.079421 0.046112 0.291133 0.160617 0.06866 0.285756 -0.220429 0.06587 0.364229 -0.124583 0.048358 0.3859 0.103471 0.079494 0.34737 0.20444 0.087813 0.337076 -0.178926 0.142952 0.376606 -0.107716 0.134881 0.419342 0.114224 0.162165 0.35325 0.180803 0.13044 0.351939 -0.241534 0.190148 0.303859 -0.085085 0.217343 0.369378 0.112509 0.232562 0.34097 0.256177 0.182887 0.305609 -0.195356 0.238351 0.259965 -0.085085 0.265772 0.266052 0.112509 0.286782 0.273875 0.249719 0.22558 0.252778 -0.180349 0.272233 0.208766 -0.090056 0.285467 0.205281 0.103619 0.274626 0.175696 0.18125 0.256737 0.189028 -0.190433 0.243132 0.156377 0.112918 0.240012 0.121129 -0.192012 0.185429 0.135098 0.145308 0.160691 0.078092 -0.202092 0.128529 0.167839 -0.149655 0 0.174117 0.067159 0.067552 0.213963 0.146417 0.107456 0.231868 -0.259344 0.200674 0.197414 -0.294249 0.143354 0.248135 0.0121 0.127395 0.412441 -0.00171 0.042798 0.39278 -0.007604 0.003842 0.328869 -0.273113 0.075967 0.31529 -0.138641 0.193641 0.322902 0.266886 0.152401 0.294369 0.265291 0.199655 0.231827 0.191783 0.243841 0.168782 0.18667 0.206892 0.148339 0.2355 0.180854 0.180995 0.197301 0.15367 0.272649 -0.124991 0.264384 0.135102 0.013712 0.205393 0.359721 0.013712 0.271111 0.278397 0.001892 0.274365 0.174851 0.019478 0.243905 0.106873 -0.02252 0.047562 0.19464 0.201512 0.215162 0.341752 0.211636 0.257663 0.279735 0.232285 0.178068 0.09914 0.235584 0.219725 0.118547 0.18635 0.27757 0.107138 0.266472 0.262375 0.095836 0.108132 0.325175 -0.007505 0.21367 0.307461 0.032304 0.276634 0.271194 0.050073 0.048228 0.293004 -0.071211 0.086573 0.323788 -0.10014 0.231969 0.299443 -0.078353 0.300104 0.263634 -0.02714 0.126649 0.263225 -0.170601 0.221945 0.268333 -0.139496 0.303244 0.246885 -0.083885 0.112025 0.229483 -0.18903 0.215161 0.211469 -0.166855 0.29662 0.199481 -0.096086 0.04933 0.20521 -0.178733 0.12681 0.175386 -0.174414 0.204291 0.145562 -0.170093 0.289812 0.161146 -0.083725 0.200117 0.153533 -0.03045 0.318131 0.14432 -0.025901 0.246177 0.142028 0.026828 0.341902 0.18112 -0.013417 0.318433 0.188681 0.063796 0.317042 0.230365 0.057838 0.340511 0.222805 -0.019374 -0.161265 0.177502 -0.207697 -0.248068 0.180724 -0.202116 -0.190073 0.206424 -0.198547 -0.24801 0.206424 -0.244171 -0.23071 0.243485 -0.172975 -0.248188 0.229587 -0.221358 -0.270223 0.269122 -0.136445 -0.335756 0.235949 -0.216289 -0.33489 0.269122 -0.07935 -0.383604 0.235949 -0.167853 -0.298257 0.253021 0.08816 -0.379663 0.243552 -0.031363 -0.402893 0.227318 -0.085196 -0.260007 0.169917 0.158139 -0.315068 0.206424 0.118527 -0.406444 0.206424 -0.007512 -0.329341 0.184182 0.066556 -0.371683 0.186755 -0.042468 -0.393711 0.181112 -0.089218 -0.309628 0.1707 -0.058187 -0.373289 0.174576 -0.15617 -0.244962 0.15566 -0.115281 -0.31723 0.160353 -0.212588 -0.128985 0.246298 -0.129352 -0.089807 0.203965 -0.155742 -0.112394 0.168015 -0.179994 -0.333038 0.219175 -0.228952 -0.39101 0.217781 -0.17624 -0.41363 0.214915 -0.085811 -0.405709 0.192249 -0.087905 -0.384464 0.1905 -0.168826 -0.315107 0.199333 -0.229912 -0.382178 0.230335 -0.029078 -0.390754 0.216532 -0.023216 -0.297001 0.237228 0.091735 -0.303652 0.218761 0.103758 -0.277887 0.264028 -0.034984 -0.329684 0.248287 0.021997 -0.330313 0.233781 0.024926 -0.335653 0.219333 0.030958 -0.35148 0.206424 0.049106 -0.303894 0.262013 -0.192024 -0.364892 0.258785 -0.147872 0.091037 0.288366 -0.261407 0.109897 0.310183 -0.205045 0.069821 0.370745 -0.134584 0.020916 0.395167 -0.09396 0.093765 0.235833 -0.227129 0.032446 0.364934 -0.06116 0.058097 0.161342 -0.240271 -0.002301 0.193744 -0.160116 -0.032799 0.151683 -0.283667 -0.05063 0.161633 -0.182131 -0.085835 0.172265 -0.251288 -0.130904 0.194061 -0.254062 -0.170979 0.254624 -0.183601 -0.171354 0.317949 -0.122123 -0.077769 0.19341 -0.334668 -0.146039 0.234248 -0.300788 -0.186115 0.29481 -0.230328 -0.174844 0.35366 -0.145262 -0.069993 0.246856 -0.343089 -0.118582 0.292411 -0.319803 -0.158657 0.352973 -0.249342 -0.15887 0.387395 -0.161841 -0.001569 0.242566 -0.343903 -0.053554 0.304634 -0.322077 -0.096333 0.382832 -0.228134 -0.127409 0.426948 -0.120775 0.089326 0.252225 -0.300507 0.030351 0.330278 -0.258898 0.003139 0.395792 -0.177341 -0.051989 0.430183 -0.091374 -0.132918 0.407093 -0.080637 -0.057498 0.410328 -0.051235 -0.015068 0.183345 -0.327853 0.075828 0.193004 -0.284457 -0.063789 0.3721 -0.034979 0.146613 0.045041 0.224425 0.185894 0.051692 0.275997 0.28903 0.033677 0.298173 0.359653 0.033748 0.28764 0.197291 0.106692 0.277644 0.282831 0.0906 0.318349 0.362952 0.075405 0.307047 0.313718 0.133249 0.295638 0.39384 0.118054 0.284336 0.341038 0.163141 0.220804 0.404002 0.126874 0.238572 0.359337 0.155123 0.110147 0.427472 0.119314 0.16136 0.349313 0.124013 0.049004 0.430613 0.102564 0.104614 0.239393 0.085163 -5.3e-4 0.342529 0.067148 0.021645 0.423988 0.055161 0.092414 0.182224 0.065285 0.036733 0.234686 0.023615 0.02596 0.337823 0.005601 0.048135 0.417181 0.016825 0.104775 0.198528 -0.008852 0.079822 0.328347 -0.013563 0.117245 0.445499 0 0.162599 0.102968 0.058396 0.192329 0.20451 0.012169 0.188092 0.310048 -0.005545 0.227902 0.42203 0.00756 0.239811 0.469271 0.0368 0.175083 0.445801 0.04436 0.252295 0.44441 0.086045 0.246338 0.467879 0.078485 0.169125 -0.34544 0.084347 -0.075436 -0.395782 0.034176 0.108546 -0.418507 0.016854 0.187286 -0.37561 0.135859 -0.085695 -0.435316 0.062466 0.127639 -0.46927 0.02938 0.217762 -0.4092 0.104142 0.171784 -0.451737 0.064667 0.213078 -0.368843 0.137483 0.205208 -0.427684 0.051214 0.311779 -0.366044 0.05801 0.340237 -0.240432 0.044836 0.286971 -0.212977 0.030809 0.250039 -0.266951 0.0243 0.292467 -0.247427 0 0.172441 -0.339688 -0.004359 0.302969 -0.180848 0.092336 -0.091121 -0.233435 0.068887 -0.020707 -0.312012 0 0.124626 -0.414282 -0.01023 0.260042 -0.423486 0.140183 0.055249 -0.438508 0.093897 0.011563 -0.403656 0.053996 0.007146 -0.436971 0.027858 0.310172 -0.368131 0.032145 0.347401 -0.265788 0.034354 0.308892 -0.354562 0.005809 0.327424 -0.427377 -0.001278 0.281572 -0.35042 0.162801 0.106108 -0.275484 0 0.051791 -0.416922 0.098669 0.270862 -0.355791 0.096698 0.315518 -0.341585 -0.012507 -0.246808 -0.322694 0.028853 -0.184532 -0.229952 0.035412 -0.131531 -0.163863 0.05821 -0.116999 -0.365785 0.04514 -0.229808 -0.35378 0.074161 -0.158714 -0.261037 0.080721 -0.105713 -0.353209 0.09447 -0.226751 -0.347533 0.12693 -0.167072 -0.39129 0.106867 -0.277816 -0.343952 0.131713 -0.363725 -0.272957 0.187099 -0.337034 -0.158934 0.172054 -0.261461 -0.114321 0.168838 -0.21861 -0.315647 0.126386 -0.40016 -0.233145 0.171474 -0.37953 -0.140402 0.171545 -0.32653 -0.300645 0.101123 -0.419342 -0.211766 0.124477 -0.416441 -0.119023 0.155257 -0.363441 -0.06097 0.148268 -0.271962 -0.275008 0.053289 -0.409066 -0.201444 0.045639 -0.4036 -0.108701 0.090138 -0.3506 -0.056893 0.107721 -0.269123 -0.329372 0.020914 -0.375216 -0.24315 0.007313 -0.368638 -0.129127 0.051335 -0.293065 -0.009306 0.065071 -0.246602 -0.376709 -0.003931 -0.289306 -0.2683 -0.016756 -0.265884 -0.178281 0 -0.195701 -0.05587 0.1279 -0.178681 -0.351847 0.085118 -0.383533 -0.399185 0.060273 -0.297624 0.163478 -0.008852 0.036936 0.231523 -0.035052 -0.138008 0.278914 0.009793 -0.162467 0.320486 -0.031996 -0.245505 0.264242 0.068584 -0.220028 0.307268 0.016968 -0.250451 0.23228 0.113772 -0.26526 0.29342 -0.001682 -0.350646 0.162224 0.116618 -0.315514 0.234911 0.00326 -0.385399 0.092016 0.079877 -0.331856 0.139012 0.019802 -0.369504 0.044509 0.019316 -0.330617 0.269184 0.118276 -0.107563 0.229383 -0.008817 -0.037553 0.299175 -0.034441 -0.342638 0.234038 -0.03351 -0.386265 0.13216 -0.005008 -0.374474 0.082718 0.058005 -0.325963 0.068476 0.034611 -0.325132 0.119377 0.149011 -0.231005 0.043389 0.130228 -0.257525 0.033009 0.107186 -0.248498 0.018692 0.083961 -0.243581 7.7e-5 -0.01275 -0.204688 0.284277 0.06433 -0.320728 0.227067 0.057193 -0.370032 0.050945 -0.007323 -0.317154 -0.226882 0 -0.071955 -0.134111 -0.014753 -0.235286 -0.172195 0.211388 0.11123 0.209726 0.178515 -0.168474 0.175828 0.162038 -0.138104 -0.035741 0.0345 -0.192802 -0.102835 0.033499 -0.208102 0.038156 -0.004426 0.169374</float_array>
          <technique_common>
            <accessor source="#polySurfaceShape75-positions-array" count="334" stride="3">
              <param name="X" type="float"/>
              <param name="Y" type="float"/>
              <param name="Z" type="float"/>
            </accessor>
          </technique_common>
        </source>
        <source id="polySurfaceShape75-normals" name="polySurfaceShape75-normals">
          <float_array id="polySurfaceShape75-normals-array" count="1008">-0.6043542 -0.3000647 0.7380495 -0.408299 -0.5632129 0.7183894 -0.9653177 0.0896923 0.2451877 -0.7635174 0.08647794 0.6399708 -0.009694642 -0.3894839 0.9209822 -0.2816666 0.2602931 0.9235319 0.2625865 -0.3357899 0.9045957 0.1152416 0.244712 0.9627228 -0.6963333 0.6731321 0.2490242 -0.8418669 0.531479 -0.09375725 -0.1953364 0.8903089 0.4113317 0.2281073 0.7845553 0.5765762 -0.4888378 0.8592007 -0.1510362 -0.028605 0.9949251 -0.09646533 0.1853613 0.9810519 0.05637566 -0.7298893 0.5071718 -0.4582994 -0.1048312 0.7727137 -0.6260384 0.2859382 0.7485734 -0.5982284 0.34915 0.9015595 -0.2555087 -0.3654763 0.4267512 -0.8272305 0.8101149 0.5766268 -0.105902 -0.7955422 0.5520313 0.2497481 -0.8594168 0.4543321 -0.2344887 -0.1126432 0.8780053 -0.4652077 0.5550116 0.5849781 -0.5914074 0.7936673 -0.2545435 -0.5525393 0.6849248 0.5964038 -0.4185455 0.4106024 -0.3238727 0.8523568 0.6548248 0.6476085 -0.3896253 0.6739741 0.08244973 0.7341395 0.9802665 -0.01524566 0.1970915 0.5734802 -0.5267253 0.6274399 0.5867007 0.1751756 0.79063 0.8184502 0.5611983 -0.1232713 0.6015923 0.7404271 0.2997572 -0.7089126 0.6669849 0.2292901 -0.7504308 0.548251 -0.3691539 -0.8804912 0.453468 -0.1382092 -0.6362371 0.7309116 0.2469219 0.06530717 -0.36765 0.9276683 -0.1572048 -0.9691407 0.1898763 -0.4910612 -0.3159968 0.8117912 -0.2240628 -0.5789446 0.7839765 0.1915705 -0.9768659 0.09504458 0.3812342 -0.9175293 0.1131391 0.2986022 -0.5499816 0.7799724 0.2614427 -0.6104376 0.7476721 0.5101016 -0.8266523 -0.2375761 0.5834354 -0.7618256 0.281469 -0.4517064 0.3332073 0.8276075 -0.2135243 0.262857 0.9409109 0.2656534 0.06421998 0.9619272 0.2678399 0.1639647 0.949409 0.3098631 0.004358102 0.9507712 -0.3522662 0.7298452 0.5858622 -0.5708488 0.6269321 0.5301771 0.1214521 0.5685025 0.813667 -0.243425 0.7499275 0.615104 0.3524493 0.3463539 0.8693781 0.05596764 0.617019 0.7849555 -0.4924648 0.7881299 0.3692285 -0.03487225 0.9411035 0.3363154 -0.2361293 0.8664376 0.4399189 0.4726234 0.8200105 0.3228154 0.1022263 0.9752986 0.1958121 -0.4211929 0.9060966 0.03981798 -0.03567349 0.9989736 -0.02791244 0.3901006 0.8947682 -0.2172817 0.1068031 0.9472772 -0.3020906 0.3055992 0.9035208 0.300432 0.6023704 0.42761 -0.6740175 0.5556313 0.7674891 0.319741 0.01225746 -0.9255514 0.3784236 0.1707681 -0.9261749 0.3362115 0.3022177 -0.9508461 -0.06749983 0.670992 -0.7014763 0.2402097 0.929196 0.09340124 -0.3575904 0.5244161 0.6785399 -0.5143651 0.7279291 0.6847854 -0.03447198 0.8723168 -0.4527469 0.184617 0.7255955 0.2878491 0.6250231 -0.6681837 0.7315832 0.1353391 -0.6705811 0.7331855 -0.11296 -0.8215817 0.4327895 -0.371075 -0.3701048 0.4260306 0.8255423 -0.6893907 0.5929586 -0.4161015 -0.4230354 0.8379585 0.3447703 0.1929429 0.9729329 0.1271792 0.2947407 -0.8399991 0.4555538 0.0431927 0.9758395 -0.2141764 -0.3909678 -0.5374992 0.7471537 0.3326041 0.8749247 0.3519677 0.1844927 -0.127676 0.9745057 0.1332573 0.7454557 0.653099 -0.136364 0.9781359 0.1570189 0.287412 0.9476982 0.1387894 0.5224082 0.4977682 0.6923268 0.4925013 0.8363492 0.2407534 0.3944842 0.7298345 0.5583223 0.4854047 0.8716297 0.06814565 0.3942311 0.8857565 -0.2449843 0.6040721 0.7938671 -0.06979994 0.4553385 0.6152182 -0.643563 0.3658108 0.1388358 -0.9202756 0.6754861 0.3651828 -0.6405934 0.3851794 -0.285623 -0.8775285 0.7295858 0.4829277 -0.484237 0.7513354 -0.05282416 -0.6578031 0.6695855 0.003457119 -0.742727 0.2767473 0.2610412 -0.9248072 0.3782014 -0.5258946 -0.7618389 0.4629818 -0.7580366 -0.4593783 0.9365744 -0.1592324 -0.3122075 0.5968382 -0.5678167 -0.5668936 0.4239414 -0.9046739 -0.04287917 0.9694402 -0.2143641 -0.1193056 0.6527965 -0.4047641 0.6403302 0.9316798 0.3241834 -0.163944 0.8335578 0.4345369 0.3411147 0.3032939 0.8334876 -0.4618562 0.4343406 0.6456459 -0.6280842 0.2661344 0.8105223 -0.5217528 -0.3616496 0.03013869 -0.9318268 0.1638163 0.03446394 -0.9858887 0.2690329 0.821336 -0.5030194 -0.4060964 0.8586208 -0.3128197 0.208597 0.7748164 -0.5967803 0.0499992 0.8830683 -0.4665732 0.0756326 0.9889978 -0.1271343 -0.1741428 0.9840487 0.03636517 -0.3976232 0.8988402 -0.1843419 -0.2651082 0.9614749 0.07268924 -0.117734 0.5283281 0.8408378 -0.4793743 0.6878593 0.5450228 -0.7377783 0.6669531 0.1041955 -0.5833412 0.7480275 0.3164932 -0.5749084 0.4130425 0.7063116 -0.6639089 0.5956826 0.452092 -0.8159709 0.2597285 0.5164617 -0.08151001 0.7829595 0.6167094 -0.7284029 0.196512 0.6563629 -0.8710471 0.04922308 0.4887269 -0.9145363 -0.06909084 0.3985596 -0.8186898 -0.5688416 -0.07852562 -0.4116083 -0.9055662 0.102608 -0.4090783 -0.7693365 -0.4906897 -0.4380423 -0.8944524 -0.08985545 -0.7876282 -0.5999665 -0.140292 -0.9045163 0.3580466 -0.2316308 -0.7466163 -0.4616436 -0.4790086 -0.2492619 -0.4755968 -0.843609 0.007716716 0.4008105 -0.9161285 -0.8221934 0.1688172 -0.5435979 -0.9552128 0.28991 -0.05933445 -0.7076153 0.6384847 -0.3026845 -0.4006479 0.1543034 -0.9031454 -0.26381 0.7122998 -0.6504102 -0.7345137 0.3672341 0.5706389 -0.9995727 -0.02650972 0.0123132 -0.5885517 0.7485201 0.3054908 -0.5876799 0.702409 0.4015641 -0.859562 0.1667139 0.4830731 -0.3124349 0.7732757 0.5517508 -0.750094 0.3994936 0.5270331 0.7743846 0.4701343 -0.4234411 0.87598 0.4163207 -0.2435896 0.9301155 -0.3273188 -0.1665763 0.6864578 0.7192791 0.1068333 0.4813485 0.8399563 0.250553 0.5913598 0.4332407 0.6801442 0.09641419 -0.9666609 -0.2372148 -0.3456474 -0.4902968 -0.8000855 -0.3410734 -0.4122959 -0.8447964 -0.8560767 -0.3927068 0.3360268 -0.6688362 -0.7430587 -0.02284486 -0.07353246 -0.1701276 -0.9826748 -0.3766539 -0.6609628 -0.6490455 -0.7259225 -0.2477592 -0.6416009 -0.9669332 -0.05605177 -0.2487935 -0.7603283 -0.2291261 0.6077847 -0.9713208 0.2168508 0.09752753 -0.1753282 0.02692567 -0.9841418 -0.4475745 0.3882245 -0.8055798 -0.6908805 0.575965 -0.4369763 -0.7314484 0.6673161 -0.1402591 0.1030896 0.5901775 -0.800664 -0.08111152 0.8357262 -0.5431231 0.2585655 -0.00677941 -0.9659699 0.7185647 0.2606378 -0.6447735 0.3332126 0.7349238 -0.5906408 -0.3023217 0.9437992 -0.1335834 0.3449016 0.872664 -0.3456884 0.1138297 0.9748843 0.1914247 -0.6696988 0.4885784 0.5592804 0.009156127 0.6083815 0.7935919 0.1604342 -0.5178316 -0.8403043 0.640407 -0.5722809 -0.512224 0.5620216 -0.8197002 -0.1105594 0.0964283 0.9466081 -0.3076279 -0.544844 -0.6580791 0.5196891 -0.5165663 -0.3936085 0.7604153 -0.5467787 0.08865655 0.8325701 -0.04671617 -0.6122457 0.7892863 -0.1632335 0.06201072 0.9846367 0.2141453 -0.6412759 0.7368221 0.2777759 -0.07888189 0.9574018 0.1537367 0.7565858 0.635565 0.5224062 0.4977632 0.692332 0.4433986 0.8859417 -0.1360325 0.2878115 0.947096 0.1420344 0.4925002 0.836348 0.2407609 0.3922554 0.8867822 -0.2444444 0.6040727 0.7938665 -0.06979991 0.4674198 0.6342381 -0.6158416 0.3706562 -0.02019029 -0.9285507 0.6968928 -0.2657332 -0.6661279 0.9499426 -0.04209159 -0.3095762 0.7295886 0.4829169 -0.4842434 0.7374117 -0.09738091 -0.6683868 -0.1350859 -0.6433487 -0.753561 0.3332102 -0.6790267 -0.6541358 0.5957215 -0.6176769 -0.5134112 0.5405577 -0.7578164 -0.3653921 0.04698 -0.9854701 -0.1632221 0.05129231 -0.9869726 -0.1524931 -0.2750821 -0.9415504 0.194455 0.4616619 -0.8828198 -0.08658721 -0.08880541 -0.9472892 0.3078258 0.4501083 -0.7763895 0.4411596 0.9583623 -0.2799881 -0.05610958 0.6818591 -0.2351328 0.6926621 0.931679 0.3241849 -0.1639463 0.833555 0.4345384 0.3411197 -0.1159871 -0.7477306 0.6537935 -0.1241162 -0.6792238 -0.7233603 -0.5479426 0.134464 -0.8256382 -0.5147874 -0.7730038 -0.3707545 -0.5540895 -0.8047591 -0.2129496 -0.9760502 -0.0776469 -0.2032164 -0.9513751 -0.1604471 -0.262949 -0.4345404 -0.8326579 -0.3433008 -0.8801834 -0.4672267 -0.08352487 -0.7896765 0.6065825 0.0920262 -0.749125 0.6499107 0.128171 -0.8214402 0.5619131 0.09741493 -0.4240632 0.8766559 0.2272547 -0.6545801 0.7092432 0.2617232 -0.3804218 0.9013721 0.2068993 -0.1833027 0.7494075 0.6362299 0.4934337 -0.6380985 0.5910614 0.4594488 -0.7932416 0.3995931 0.2291465 -0.9297975 0.2880424 0.1874118 -0.9006554 0.3920417 -0.5736809 -0.6060314 0.5510139 -0.5564248 -0.3500248 -0.7535743 -0.4017703 -0.7594101 -0.5117391 -0.33079 -0.9148785 -0.231463 0.04439445 -0.7273601 0.6848184 -0.3710028 -0.9251988 -0.07977502 -0.4145808 -0.8486586 0.3284836 -0.1757317 -0.1123324 0.9780081 -0.08354381 0.4375035 0.8953273 -0.7574366 -0.2050705 0.6198675 -0.6714774 0.4744372 0.569234 0.04371333 -0.9458786 0.3215631 -0.3771062 -0.8401757 0.3897381 -0.4083263 -0.7169822 0.5649831 -0.8656229 -0.2256395 0.4469718 -0.8502808 -0.1812382 0.494141 -0.08260477 -0.7246509 0.6841474 -0.3627799 -0.227243 0.903743 -0.9805271 -0.1924354 -0.03918193 -0.9288774 0.2790821 0.2435158 -0.7732185 0.448254 0.4485549 -0.7168955 0.6061546 -0.344438 -0.1948999 0.965091 -0.1749666 0.09649139 0.994985 -0.02634555 0.07934471 0.9966382 0.02041251 -0.400737 0.5815274 -0.7079799 0.1883373 0.9711024 -0.1465915 0.02139866 0.8301685 -0.5571018 0.1804003 0.2095601 -0.96101 -0.3047691 0.05658357 -0.950744 0.5109954 0.5886014 -0.626444 0.8208296 0.4893701 -0.2945433 -0.1343658 -0.4092478 -0.9024754 0.3726647 -0.5677763 -0.7339965 0.7264163 -0.2910008 -0.6226058 0.8940209 -0.404217 -0.1932225 0.1212535 -0.8897076 -0.4401343 0.6225882 -0.7228444 -0.2997999 -0.4750972 -0.5690175 -0.6711943 -0.5584712 -0.8264222 -0.07166764 0.09706488 -0.9722928 -0.2126623 -0.2571502 -0.8646398 0.4315922 0.263575 -0.1122769 -0.9580825 -0.6904199 -0.01658474 -0.7232186 -0.9783136 -0.06788258 -0.1956896 -0.8895022 0.3585845 0.2832012 0.7817992 -0.3745911 0.4984692 0.9409666 -0.0429769 0.3357601 0.7311917 -0.5610862 0.3879959 0.9669845 0.03030407 0.2530271 0.9002409 0.4333465 0.04215528 0.8285838 0.558311 0.04168842 0.9201111 0.391635 0.004197126 0.7738246 0.5780352 -0.2589802 0.4709463 0.8527383 -0.225936 0.2557604 0.5742078 -0.7777352 -0.004658928 0.7801744 -0.6255447 -0.3033231 0.3085547 -0.9015482 -0.482476 0.4673048 -0.7408395 -0.3733314 0.5096239 -0.7751819 -0.6920016 0.1302182 -0.7100541 -0.5698251 0.2854488 -0.7705962 -0.3076208 0.1477088 -0.9399742 -0.7608059 -0.4078483 -0.504811 0.142945 0.1744683 -0.9742318 0.8959189 0.09470349 -0.4340053 0.3357811 -0.0249584 -0.9416092 0.7892957 0.2463085 -0.5624449 -0.4409486 0.4677317 -0.7660231 -0.6553481 0.2331594 -0.7184396 -0.5128193 0.4920502 -0.7034934 0.4799755 0.858573 -0.1802107 0.1663003 0.8453664 -0.5076413 -0.7822676 0.009923076 -0.6228634 -0.3873833 0.01361133 -0.9218181 0.2380651 0.6234744 -0.7447179 0.9693119 -0.2450431 0.01970181 -0.8225319 0.3837691 -0.4197172 -0.369423 0.01944782 -0.9290578 0.5120122 -0.2648738 -0.8171201 0.5635529 0.06018998 -0.8238842 0.1466287 -0.4923975 0.8579305 -0.6760498 0.7030633 -0.2205871</float_array>
          <technique_common>
            <accessor source="#polySurfaceShape75-normals-array" count="336" stride="3">
              <param name="X" type="float"/>
              <param name="Y" type="float"/>
              <param name="Z" type="float"/>
            </accessor>
          </technique_common>
        </source>
        <source id="polySurfaceShape75-polySurfaceShape75-polySurfaceShape75-map1" name="polySurfaceShape75-polySurfaceShape75-polySurfaceShape75-map1">
          <float_array id="polySurfaceShape75-polySurfaceShape75-polySurfaceShape75-map1-array" count="1382">0.5097234 0.6410331 0.5277187 0.6111238 0.544342 0.6471356 0.5599453 0.6095456 0.5165908 0.6891473 0.5844277 0.6291044 0.4911216 0.6559733 0.5459349 0.6995773 0.5692537 0.6598363 0.5195988 0.7363582 0.5940316 0.6826391 0.5521598 0.7418441 0.5377136 0.7600973 0.5116596 0.7722598 0.9246457 0.1927629 0.9568728 0.2080034 0.9117517 0.2469754 0.9624065 0.1621899 0.9439783 0.2622153 0.8980475 0.1665958 0.9367076 0.154564 0.9826943 0.1962089 0.9684607 0.2576669 0.8959023 0.213335 0.954071 0.106971 0.9882279 0.1503954 0.8937564 0.2600736 0.9280252 0.1117091 0.8646944 0.241132 0.9440784 0.08397035 0.9754824 0.1139438 0.8751546 0.2768511 0.8494079 0.2528017 0.8402733 0.2928419 0.815901 0.2587374 0.8690361 0.318543 0.8799108 0.3146265 0.8617712 0.3252656 0.8892109 0.3153661 0.9006238 0.2881909 0.6736491 0.7000135 0.597424 0.665213 0.6426133 0.6467578 0.6201143 0.726671 0.6232194 0.6099523 0.7338987 0.6892878 0.5967727 0.6193995 0.6638032 0.5869517 0.7020932 0.6222838 0.732854 0.7311723 0.6099228 0.5829479 0.7225158 0.6462991 0.7511072 0.7168634 0.6505059 0.5599467 0.7415987 0.6690331 0.6925771 0.5755494 0.7208976 0.6122094 0.8633049 0.8590526 0.872629 0.903026 0.8154745 0.8840784 0.8061185 0.9101325 0.8430501 0.8453201 0.8476468 0.9205732 0.005406894 0.792397 0.02396106 0.7527838 0.03379345 0.8045071 0.001992037 0.7604674 0.05520485 0.7942561 0.01774022 0.8428331 0.05242301 0.7521849 0.06519742 0.8348392 0.0267005 0.7238644 0.04378602 0.8450903 0.4014839 0.2800502 0.3958372 0.1884427 0.4252307 0.2521042 0.3797358 0.2638834 0.4379921 0.1956634 0.3579876 0.247716 0.4044082 0.1267781 0.3829722 0.2794997 0.3132795 0.2104276 0.3253649 0.1355616 0.4420435 0.1233073 0.3926444 0.2788148 0.3122925 0.2680025 0.3367436 0.08275238 0.3821867 0.07553166 0.3891565 0.3223322 0.324004 0.06166555 0.4153029 0.06136935 0.4035573 0.3310911 0.3472873 0.03607975 0.3790203 0.0277178 0.3765565 0.3739696 0.4092411 0.001911757 0.3638781 0.3662584 0.3933981 0.3796193 0.3389807 0.3986391 0.4153212 0.3390814 0.3210343 0.3687464 0.2841357 0.3060347 0.28591 0.3786447 0.2746667 0.3553643 0.2149553 0.3600011 0.2175564 0.3805243 0.2412454 0.2845245 0.1663253 0.3257194 0.1985535 0.2597631 0.1428618 0.266551 0.1570888 0.2287962 0.03736026 0.2888592 0.02704793 0.2324184 0.08275168 0.2644193 0.07799889 0.2224859 0.0433061 0.3198832 0.02377381 0.1600622 0.112601 0.2406967 0.03323344 0.3168052 0.1105441 0.3012873 0.07359059 0.1519299 0.1265584 0.2091592 0.03273173 0.3746075 0.0829884 0.3323296 0.09406566 0.0917922 0.1195214 0.1509807 0.1389295 0.2740945 0.01750055 0.3758364 0.055514 0.3685698 0.04538304 0.09812432 0.1582209 0.1509807 0.1550769 0.2091592 0.001992032 0.3678461 0.02872975 0.4109054 0.07538371 0.05258585 0.1355205 0.09280212 0.01880138 0.3155698 0.01497606 0.4163742 0.05667467 0.404568 0.05028187 0.03866672 0.1062683 0.008200386 0.1252741 0.04039095 0.1674491 0.09280212 0.02497393 0.3006384 0.08831593 0.001894163 0.1503018 0.03442923 0.438296 0.2087899 0.4918719 0.1506113 0.4991415 0.2087899 0.5349277 0.2117171 0.4656643 0.2403274 0.552847 0.1575717 0.5328755 0.2648879 0.5523494 0.09766778 0.5665706 0.1855501 0.502726 0.2737251 0.576254 0.2322893 0.4945348 0.09243273 0.5928772 0.1472159 0.5637258 0.2708261 0.5444986 0.05195325 0.5844823 0.0921919 0.5903115 0.2600863 0.491084 0.03405985 0.5564209 0.04575067 0.5069582 0.0116339 0.4758476 0.00783099 0.5192956 0.002464037 0.4545641 0.04002158 0.6887283 0.9263384 0.7165549 0.8895093 0.7066807 0.9329574 0.7318214 0.9018468 0.8325185 0.8522022 0.8297031 0.7912023 0.8496552 0.8213518 0.8075162 0.8280367 0.8013177 0.7653545 0.7985388 0.8647327 0.773762 0.7981687 0.765032 0.8454525 0.8138253 0.8787879 0.9707015 0.8618489 0.951198 0.9052792 0.9489433 0.858838 0.997908 0.8862057 0.9749632 0.8155513 0.9860345 0.8330944 0.7185262 0.2407076 0.7430568 0.2387649 0.7082934 0.2919257 0.7247759 0.1899776 0.7550033 0.3109992 0.7681723 0.2205759 0.7771202 0.2677573 0.7493225 0.1907968 0.7891449 0.3363118 0.7572958 0.3660232 0.7715005 0.4043574 0.110068 0.4903679 0.07813833 0.4756497 0.1321106 0.4531554 0.0646008 0.4070952 0.1344666 0.5179853 0.1086683 0.3910073 0.1696251 0.4884311 0.09820466 0.3539297 0.1866605 0.4658509 0.146671 0.5203049 0.07125621 0.3599138 0.1436731 0.3401089 0.1738308 0.3802316 0.09363208 0.3301347 0.2098361 0.3861344 0.1390999 0.3163145 0.2281529 0.4422513 0.1770885 0.3382599 0.8237271 0.5714785 0.8572127 0.5754734 0.826735 0.6275954 0.8642721 0.5275046 0.8466048 0.636207 0.8363572 0.523604 0.8766184 0.5786739 0.8784609 0.6275006 0.8868465 0.5315137 0.8608984 0.6731262 0.8750843 0.5008395 0.8003743 0.6973788 0.7860712 0.6339846 0.8531929 0.6660067 0.8060327 0.6161006 0.8698691 0.7000575 0.757206 0.6126027 0.8274976 0.7311081 0.870047 0.7528774 0.8838671 0.707409 0.819317 0.7736904 0.9254652 0.909113 0.9353735 0.8750622 0.9471357 0.9164644 0.1825316 0.8928196 0.1780792 0.8473512 0.2070782 0.8893111 0.2026263 0.8438433 0.1888915 0.7986699 0.2168063 0.8058547 0.5880893 0.3381162 0.5654714 0.3838589 0.5669194 0.3248154 0.5825027 0.3668948 0.5436472 0.4077888 0.5918475 0.3017452 0.5654714 0.4179763 0.5419906 0.3478861 0.5806053 0.4180105 0.5518313 0.4180811 0.569647 0.4574877 0.5579627 0.4680467 0.5926012 0.4587379 0.5480849 0.4696473 0.5748485 0.4983299 0.5587835 0.5021847 0.5480849 0.4978235 0.2479204 0.8093572 0.2613531 0.8435794 0.2328618 0.8332871 0.2583681 0.8951455 0.3288387 0.5543098 0.2857428 0.5655272 0.3055707 0.5327984 0.249823 0.5395274 0.3472132 0.5138021 0.2669803 0.5798162 0.2674903 0.4991769 0.3887415 0.5286216 0.3010576 0.4730511 0.2388041 0.5512936 0.2274454 0.5026194 0.3356749 0.4779004 0.2411248 0.4709188 0.3162375 0.4306896 0.2211227 0.5029816 0.2705559 0.4394967 0.2890623 0.4005353 0.2345936 0.4661213 0.2253543 0.4568737 0.2396438 0.4695733 0.267041 0.4342199 0.2577209 0.4235331 0.2858854 0.3913502 0.2791629 0.3826531 0.2898019 0.3984301 0.2812164 0.8164703 0.2726742 0.8147454 0.2840042 0.7775089 0.270645 0.8465468 0.2747041 0.7754036 0.2784281 0.8478923 0.2641662 0.8111934 0.2688684 0.879593 0.07661278 0.6771323 0.02709883 0.6588591 0.03912473 0.619433 0.04007045 0.6863887 0.02003358 0.6596323 0.1146926 0.6435114 0.01960075 0.7069733 0.03254411 0.6119803 0.07213619 0.5862102 0.0519674 0.7403139 0.06500437 0.7505897 0.741967 0.8362702 0.7402793 0.7830194 0.7526656 0.8313314 0.725902 0.8319044 0.7269319 0.7842524 0.7352791 0.7369114 0.2242072 0.832302 0.228645 0.8941603 0.2132966 0.8753978 0.9273981 0.8374083 0.9273981 0.8782882 0.9143004 0.8680124 0.9059002 0.814082 0.2059235 0.6791041 0.2187709 0.712294 0.1749883 0.6992894 0.1911186 0.732577 0.1846411 0.6560793 0.2267825 0.7740694 0.1712489 0.7217247 0.1497675 0.6655307 0.2544341 0.7537863 0.1311226 0.6915504 0.2510122 0.7970235 0.2691836 0.728608 0.1569552 0.7277883 0.2688156 0.7777086 0.2086546 0.7911047 0.2328844 0.8140589 0.5302516 0.8991904 0.5526869 0.8884377 0.5587505 0.9253569 0.1259381 0.781531 0.1986936 0.7635717 0.1857296 0.7920312 0.1514927 0.7280052 0.1877612 0.7951169 0.1450051 0.8127624 0.1254729 0.7175639 0.09590517 0.8080125 0.09991831 0.7710898 0.1433716 0.8393021 0.1158561 0.8482147 0.432415 0.6974915 0.4048989 0.7211559 0.3909227 0.6618276 0.4549917 0.755811 0.3634072 0.6854926 0.4488204 0.6676598 0.4686176 0.7347818 0.3937021 0.7554064 0.3522098 0.7197432 0.4643606 0.6925886 0.4332807 0.6427317 0.4930474 0.7872762 0.4452288 0.7756766 0.4833252 0.7101358 0.5008512 0.7541091 0.4694114 0.7989683 0.7081238 0.8133698 0.6840754 0.853572 0.6766509 0.8087907 0.6498249 0.8374034 0.7140508 0.7764471 0.6426271 0.7991103 0.6791772 0.7684979 0.5965785 0.8243016 0.7083629 0.7229212 0.6141617 0.8610023 0.6275261 0.7497012 0.6734893 0.7149726 0.5889467 0.7657256 0.6522069 0.7139651 0.4043037 0.840986 0.352777 0.8411114 0.3918149 0.8042853 0.3285945 0.822585 0.3619045 0.7457092 0.3112811 0.7781724 0.3049585 0.8258291 0.312804 0.7352409 0.2876445 0.7814165 0.3367262 0.7064422 0.293489 0.7284512 0.1174269 0.9265211 0.167359 0.9018751 0.1580348 0.9458485 0.1176478 0.8892308 0.7415539 0.9182838 0.7910578 0.8665233 0.7895803 0.9022595 0.7578679 0.8554173 0.8773788 0.8314717 0.8550311 0.7973821 0.8998901 0.8277672 0.8731589 0.7748019 0.8648181 0.8542057 0.8979852 0.8721797 0.9192144 0.3790611 0.9527348 0.3827116 0.9298229 0.4397948 0.9437869 0.3355307 0.9622109 0.4330835 0.9192562 0.3374734 0.9778495 0.3645231 0.9898749 0.4330776 0.9626608 0.4630416 0.9255053 0.2867434 0.8961177 0.3666843 0.9689016 0.3173417 0.9259064 0.4629262 0.9038348 0.3007415 0.9337707 0.4886274 0.9500524 0.2875625 0.6681955 0.546109 0.6006857 0.5000488 0.6447532 0.4839608 0.6142232 0.5686032 0.6342902 0.4468832 0.7163974 0.5480022 0.6073411 0.4528673 0.679758 0.4330624 0.7099158 0.4731851 0.728792 0.5992203 0.629717 0.4230882 0.745921 0.4790879 0.6751854 0.409268 0.7589798 0.5398216 0.713174 0.4312128 0.9154577 0.5418758 0.9489439 0.5458707 0.9048492 0.6026095 0.9560027 0.4979019 0.9383354 0.6066043 0.9280884 0.4940007 0.9851872 0.5486419 0.9745793 0.6093762 0.8980742 0.6297328 0.9785777 0.5019104 0.9500409 0.6402695 0.9668149 0.4712362 0.9936981 0.6306685 0.9936981 0.6513084 0.6137439 0.08034607 0.6544407 0.08592618 0.6006857 0.1410803 0.6470975 0.03361453 0.6324034 0.1623727 0.6811483 0.01693893 0.6961603 0.1588501 0.7196032 0.09670191 0.6986554 0.2186451 0.7266161 0.03075911 0.7175558 0.1929438 0.6851379 0.2568109 0.6884997 0.002940321 0.7479249 0.1698125 0.7339675 0.01676107 0.7609837 0.1090788 0.4891651 0.9102141 0.4990728 0.8761634 0.5108355 0.9175656 0.5112255 0.8919635 0.5067736 0.8464957 0.5357726 0.8884557 0.5313207 0.8429873 0.5175858 0.7978145 0.5455002 0.8049987 0.5439471 0.759068 0.5859413 0.8182364 0.5556074 0.8360026 0.6038142 0.8525181 0.5803176 0.8730413 0.174 0.8145604 0.1565777 0.891495 0.1403791 0.8526402 0.1311226 0.8891825 0.6395742 0.3496283 0.6456072 0.2552791 0.6668308 0.323903 0.6210654 0.2812747 0.6942557 0.3814456 0.6223615 0.2309623 0.6642845 0.4069006 0.601582 0.228204 0.6144394 0.1728402 0.6006857 0.1737866 0.6423844 0.196935 0.6652408 0.2355967 0.6801499 0.2939537 0.4511926 0.457893 0.4637138 0.3704011 0.4761266 0.393692 0.4206874 0.4003504 0.5169553 0.3397616 0.4291 0.3317265 0.452865 0.3120441 0.4967912 0.2867657 0.460551 0.2470859 0.5510597 0.3340496 0.4245528 0.2733824 0.9144124 0.7206057 0.931502 0.6787406 0.9434614 0.7188056 0.9048215 0.693944 0.9625762 0.6836624 0.9507617 0.7488762 0.8804657 0.7306165 0.9822581 0.7104654 0.9233238 0.7605405 0.8855159 0.7556423 0.9653928 0.7994654 0.9001464 0.806232 0.9379543 0.8111297 0.998008 0.7837479 0.9622559 0.8209208 0.9473792 0.8322166 0.4545763 0.9036489 0.4584393 0.8490353 0.4856504 0.8999702 0.4278957 0.8853433 0.5025687 0.8395692 0.4317581 0.8307303 0.465279 0.8018144 0.4451832 0.7918125 0.4109049 0.8003028 0.1981639 0.640212 0.1187148 0.6255556 0.1536612 0.5730673 0.1248814 0.666283 0.1220013 0.5744399 0.1919784 0.5621544 0.1284276 0.5467961 0.2231885 0.6167679 0.1056878 0.5456613 0.1476707 0.5300215 0.2137142 0.549565 0.2353369 0.6653509 0.1069462 0.5092903 0.159845 0.5153793 0.2449243 0.6041784 0.2138814 0.6820188 0.2466326 0.6565166 0.03387001 0.5618289 0.0201175 0.5094908 0.06203811 0.5467321 0.06654298 0.5034125 0.04329491 0.5919803 0.04033877 0.448799 0.08911208 0.5279719 0.08110284 0.5787454 0.001992032 0.4548773 0.006107656 0.4206916 0.02998463 0.4182908 0.4237064 0.6028178 0.42758 0.5520443 0.4742962 0.6306931 0.4880887 0.5668544 0.4720826 0.4848996 0.499322 0.6100097 0.4069919 0.5274849 0.506107 0.4878345 0.5294173 0.5138449 0.438202 0.4728713 0.5359945 0.5988854 0.4861814 0.4423632 0.5672051 0.5442724 0.5394399 0.4417607 0.4169183 0.9489759 0.4050354 0.8957173 0.4289124 0.8940455 0.4430436 0.9062198 0.5764018 0.9157087 0.5459036 0.8553078 0.6032048 0.8978642 0.7824376 0.2073064 0.7933965 0.1337483 0.8377797 0.2291081 0.7669885 0.1481515 0.8280168 0.09985238 0.8260741 0.2510512 0.7687881 0.08484975 0.7976216 0.08193721 0.857279 0.1660796 0.7824169 0.2511707 0.7866392 0.0229354 0.873347 0.1292576 0.8780409 0.2114891 0.7673483 0.02765106 0.8255118 0.0405532 0.8546268 0.07321664 0.7678965 0.001960469 0.821309 0.01151957 0.7895494 0.002470404 0.8775361 0.4926213 0.8438468 0.5216549 0.8469166 0.4599578 0.8056628 0.4895509 0.7919939 0.521344 0.7804314 0.4397861 0.8304347 0.4039169 0.7643194 0.4991742 0.7848085 0.4064614 0.7356845 0.4554029 0.8136737 0.3850795 0.7391829 0.4090047 0.8279768 0.3216853 0.7443455 0.4452426 0.8686482 0.3670949 0.3252358 0.5862715 0.382248 0.5999403 0.3468715 0.6276148 0.3597513 0.6330901 0.3735273 0.6414768 0.33079 0.6623623 0.3968579 0.6039752 0.3444665 0.6707931 0.3172212 0.6562498 0.3825341 0.6555902 0.3919891 0.5434683 0.2987277 0.7116147 0.3185921 0.7147004 0.3982211 0.6518003 0.4136419 0.5439824 0.3602295 0.5480874 0.3555903 0.6872803 0.2798184 0.6831552 0.2988991 0.6475887 0.009818128 0.8552956 0.05564473 0.8799775 0.01301393 0.9215235 0.03764233 0.8482963 0.0287009 0.9294514 0.09264295 0.8399809 0.2328618 0.9015183 0.2401232 0.8654324 0.251184 0.9101794 0.7958151 0.7049941 0.7552494 0.7351726 0.7552494 0.6623023 0.7895277 0.7616976 0.7552494 0.8080428 0.8096235 0.7464588 0.7482596 0.8614762 0.6809024 0.9065632 0.6982275 0.8509731 0.7142354 0.8225589 0.2904098 0.8854497 0.3180661 0.8298596 0.3299195 0.8848602 0.3510116 0.9126844 0.2719923 0.913864 0.07633995 0.8778993 0.09918582 0.8461663 0.1263999 0.870181 0.08761861 0.9081201 0.922252 0.8924437 0.8999043 0.9265333 0.881008 0.9025181 0.8804657 0.8671859 0.3958109 0.9141037 0.3561229 0.8460581 0.406559 0.859217 0.07829647 0.6896176 0.1089107 0.7253479 0.08090281 0.8002138 0.1152906 0.6514518 0.6743478 0.8743313 0.6319898 0.9216022 0.6336233 0.8950624 0.3541663 0.9240288 0.3569058 0.8814029 0.3667223 0.9217092 0.3788748 0.8940918 0.6534013 0.8721708 0.6124247 0.8714235 0.652462 0.8443443 0.6166287 0.9102049 0.634919 0.8554156</float_array>
          <technique_common>
            <accessor source="#polySurfaceShape75-polySurfaceShape75-polySurfaceShape75-map1-array" count="691" stride="2">
              <param name="S" type="float"/>
              <param name="T" type="float"/>
            </accessor>
          </technique_common>
        </source>
        <vertices id="polySurfaceShape75-vertices" name="polySurfaceShape75-vertices">
          <input semantic="POSITION" source="#polySurfaceShape75-positions"/>
        </vertices>
        <triangles material="lambert3SG1SG" count="647">
          <input semantic="VERTEX" source="#polySurfaceShape75-vertices" offset="0"/>
          <input semantic="NORMAL" source="#polySurfaceShape75-normals" offset="1"/>
          <input semantic="TEXCOORD" source="#polySurfaceShape75-polySurfaceShape75-polySurfaceShape75-map1" offset="2" set="0"/>
          <p>0 0 0 1 1 1 4 2 2 4 2 2 1 1 1 5 3 3 2 4 14 6 5 15 1 1 16 1 1 16 6 5 15 5 3 18 3 6 20 7 7 17 2 4 14 2 4 14 7 7 17 6 5 15 5 3 3 9 8 5 4 2 2 4 2 2 9 8 5 8 9 8 5 3 18 6 5 15 9 8 22 9 8 22 6 5 15 10 10 21 6 5 15 7 7 17 10 10 21 10 10 21 7 7 17 11 11 25 8 9 8 9 8 5 13 12 10 13 12 40 10 10 41 14 13 42 10 10 41 11 11 46 15 14 44 16 15 49 13 12 40 17 16 45 17 16 45 14 13 42 18 17 48 15 14 44 19 18 47 14 13 42 14 13 42 19 18 47 18 17 48 16 15 49 17 16 45 20 19 52 18 17 670 19 18 671 22 20 668 21 21 57 25 22 58 20 19 59 20 19 59 25 22 58 24 23 60 23 24 69 27 25 64 22 20 71 22 20 682 27 25 683 26 26 684 1 1 16 31 27 19 2 4 14 31 27 19 3 6 20 2 4 14 28 28 66 27 25 64 29 29 63 29 29 63 27 25 64 33 30 65 29 29 63 33 30 65 32 31 68 32 31 27 33 30 29 34 32 24 32 31 27 34 32 24 3 6 20 3 6 20 34 32 24 7 7 17 23 24 55 19 18 47 38 33 53 38 33 53 19 18 47 37 34 50 37 34 50 19 18 47 15 14 44 37 34 50 15 14 44 11 11 46 36 35 4 0 0 0 4 2 2 24 23 13 35 36 9 20 19 12 20 19 12 35 36 9 16 15 11 35 36 9 36 35 4 12 37 7 36 35 4 4 2 2 12 37 7 8 9 8 13 12 10 12 37 7 31 27 19 32 31 27 3 6 20 1 1 16 0 0 26 84 38 23 37 34 30 11 11 25 34 32 24 34 32 24 11 11 25 7 7 17 34 32 72 33 30 65 37 34 70 37 34 70 33 30 65 38 33 67 23 24 69 38 33 67 27 25 64 27 25 64 38 33 67 33 30 65 20 19 59 17 16 61 21 21 57 13 12 40 14 13 42 17 16 45 10 10 41 15 14 44 14 13 42 22 20 56 19 18 47 23 24 55 9 8 43 10 10 41 13 12 40 12 37 7 13 12 10 16 15 11 39 39 73 40 40 74 43 41 75 43 41 75 40 40 74 44 42 77 75 43 79 41 44 87 74 45 83 74 45 83 41 44 87 45 46 90 41 44 87 42 47 93 45 46 90 45 46 90 42 47 93 46 48 95 43 41 111 44 42 112 47 49 113 47 49 113 44 42 112 48 50 114 74 45 116 49 51 124 73 52 120 45 46 129 50 53 134 49 51 124 47 49 113 77 54 117 51 55 119 48 50 114 85 56 125 52 57 121 49 51 124 90 58 141 53 59 135 51 55 119 77 54 117 55 60 126 85 56 125 86 61 130 52 57 121 52 57 146 86 61 147 56 62 148 90 58 141 91 63 145 53 59 135 53 59 135 91 63 145 57 64 142 59 65 152 56 62 148 60 66 149 56 62 148 86 61 147 60 66 149 57 64 157 62 67 160 61 68 153 59 65 152 60 66 149 84 38 156 60 66 149 31 27 154 84 38 156 64 69 183 81 70 182 66 71 185 68 72 81 89 73 82 40 40 74 40 40 74 89 73 82 75 43 79 69 74 86 42 47 93 41 44 87 42 47 664 83 75 666 46 48 667 79 76 167 80 77 164 58 78 165 58 78 165 80 77 164 62 67 160 78 79 169 79 76 170 54 80 171 54 80 171 79 76 170 58 78 172 46 48 139 78 79 144 50 53 134 50 53 134 78 79 144 54 80 140 65 81 178 67 82 180 71 83 176 76 84 115 39 39 118 43 41 111 71 83 176 55 60 174 63 85 173 63 85 173 55 60 174 59 65 175 72 86 179 51 55 177 71 83 176 71 83 176 51 55 177 55 60 174 76 84 115 47 49 113 51 55 119 44 42 112 74 45 116 48 50 114 48 50 114 74 45 116 73 52 120 40 40 74 75 43 79 44 42 77 44 42 77 75 43 79 74 45 83 72 86 123 76 84 115 51 55 119 77 54 117 48 50 114 52 57 121 56 62 148 77 54 150 52 57 146 55 60 126 77 54 117 56 62 131 47 49 113 48 50 114 77 54 117 76 84 115 43 41 111 47 49 113 74 45 116 45 46 129 49 51 124 45 46 129 46 48 139 50 53 134 49 51 124 50 53 134 54 80 140 57 64 157 91 63 163 62 67 160 81 70 182 64 69 183 80 77 184 79 76 186 81 70 182 80 77 184 78 79 686 83 75 687 79 76 688 46 48 689 83 75 687 78 79 686 64 69 161 61 68 153 80 77 164 80 77 164 61 68 153 62 67 160 85 56 125 73 52 120 49 51 124 85 56 125 53 59 135 86 61 130 86 61 130 53 59 135 57 64 142 61 68 153 86 61 147 57 64 157 88 87 158 61 68 153 64 69 161 75 43 79 69 74 86 41 44 87 39 39 73 242 88 76 40 40 74 49 51 124 54 80 140 90 58 141 90 58 168 54 80 166 91 63 163 91 63 163 54 80 166 58 78 165 62 67 160 91 63 163 58 78 165 85 56 125 49 51 124 53 59 135 55 60 155 56 62 148 59 65 152 48 50 114 73 52 120 85 56 125 87 89 151 86 61 147 61 68 153 60 66 149 86 61 147 87 89 151 69 74 86 70 90 92 42 47 93 75 43 79 89 73 82 69 74 86 92 91 188 93 92 189 66 71 190 66 71 190 93 92 189 64 69 192 29 29 196 64 69 192 94 93 194 64 69 192 93 92 189 94 93 194 28 28 199 29 29 200 96 94 201 96 94 201 94 93 202 97 95 204 94 93 202 95 96 209 98 97 206 99 98 205 96 94 201 100 99 207 100 99 207 97 95 204 101 100 211 98 97 206 102 101 210 97 95 204 97 95 204 102 101 210 101 100 211 100 99 207 101 100 211 104 102 213 101 100 211 102 101 210 104 102 213 104 102 217 107 103 218 103 104 219 103 104 219 107 103 218 106 105 221 105 106 222 108 107 220 104 102 217 104 102 217 108 107 220 107 103 218 109 108 226 106 105 221 110 109 224 106 105 221 107 103 218 110 109 224 110 109 224 107 103 218 329 110 223 107 103 218 108 107 220 329 110 223 329 110 223 108 107 220 112 111 225 113 112 228 330 113 229 112 111 230 112 111 230 330 113 229 329 110 231 114 114 238 112 111 239 116 115 240 116 115 227 112 111 225 108 107 220 117 116 235 114 114 232 116 115 236 92 91 188 117 116 191 93 92 189 105 106 216 102 101 210 119 117 214 119 117 214 102 101 210 118 118 212 118 118 212 102 101 210 98 97 206 118 118 212 98 97 206 95 96 209 28 28 199 96 94 201 26 26 203 112 111 230 114 114 232 113 112 228 118 118 195 95 96 193 117 116 191 117 116 191 95 96 193 93 92 189 117 116 241 116 115 242 118 118 243 118 118 243 116 115 242 119 117 244 105 106 246 119 117 244 108 107 245 108 107 245 119 117 244 116 115 242 96 94 201 97 95 204 100 99 207 94 93 202 98 97 206 97 95 204 104 102 213 102 101 210 105 106 216 100 99 207 104 102 213 103 104 215 29 29 200 94 93 202 96 94 201 26 26 203 96 94 201 99 98 205 120 119 250 122 120 248 145 121 247 145 121 247 122 120 248 144 122 249 120 119 250 123 123 253 122 120 248 144 122 249 124 124 251 143 125 254 122 120 264 125 126 265 124 124 266 124 124 268 161 127 269 126 128 270 35 36 279 156 129 276 36 35 281 161 127 269 162 130 271 126 128 270 126 128 270 162 130 271 128 131 274 30 132 31 36 35 39 130 133 38 36 35 281 156 129 276 130 133 284 128 131 274 132 134 278 131 135 280 30 132 31 130 133 38 154 136 36 157 137 293 158 138 294 130 133 295 130 133 295 158 138 294 154 136 297 133 139 324 134 140 321 136 141 323 135 142 307 149 143 305 138 144 302 139 145 301 138 144 302 140 146 303 139 145 301 140 146 303 141 147 306 141 147 306 140 146 303 142 148 309 138 144 302 149 143 305 140 146 303 140 146 303 149 143 305 150 149 308 140 146 303 150 149 308 142 148 309 142 148 259 150 149 261 151 150 257 121 151 255 151 150 257 123 123 253 147 152 312 148 153 313 129 154 314 129 154 277 148 153 282 132 134 278 146 155 258 147 152 262 127 156 260 127 156 260 147 152 262 129 154 263 123 123 253 146 155 258 125 126 256 125 126 256 146 155 258 127 156 260 65 81 32 328 157 28 30 132 31 144 122 249 122 120 248 124 124 251 122 120 248 123 123 253 125 126 256 124 124 266 125 126 265 127 156 267 128 131 274 162 130 271 132 134 278 149 143 316 135 142 317 148 153 313 147 152 312 150 149 315 148 153 313 148 153 313 150 149 315 149 143 316 151 150 257 150 149 261 146 155 258 146 155 258 150 149 261 147 152 262 123 123 253 151 150 257 146 155 258 135 142 307 138 144 302 137 158 304 135 142 286 153 159 285 148 153 282 148 153 282 153 159 285 132 134 278 159 160 288 160 161 289 155 162 290 155 162 290 160 161 289 134 140 291 133 139 33 155 162 35 134 140 37 132 134 300 152 163 296 131 135 298 158 138 294 159 160 299 154 136 297 154 136 292 159 160 288 155 162 290 152 163 287 132 134 278 153 159 285 133 139 33 30 132 31 155 162 35 155 162 35 30 132 31 154 136 36 24 23 272 143 125 275 124 124 268 24 23 272 126 128 270 156 129 276 156 129 276 126 128 270 128 131 274 131 135 280 156 129 276 128 131 274 158 138 294 157 137 293 152 163 296 152 163 296 157 137 293 131 135 298 153 159 285 159 160 288 152 163 287 152 163 296 159 160 299 158 138 294 160 161 289 159 160 288 135 142 286 135 142 286 159 160 288 153 159 285 136 141 311 160 161 310 137 158 304 124 124 318 127 156 319 161 127 320 161 127 269 127 156 273 162 130 271 162 130 271 127 156 273 129 154 277 132 134 278 162 130 271 129 154 277 24 23 272 124 124 268 126 128 270 25 22 58 143 125 62 24 23 60 157 137 283 156 129 276 131 135 280 130 133 284 156 129 276 157 137 283 134 140 321 160 161 322 136 141 323 137 158 304 160 161 310 135 142 307 137 158 304 138 144 302 139 145 301 163 164 325 164 165 326 167 166 327 167 166 327 164 165 326 103 104 328 165 167 333 100 99 330 164 165 326 164 165 326 100 99 330 103 104 328 166 168 338 168 169 335 165 167 333 165 167 333 168 169 335 100 99 330 167 166 341 106 105 342 109 108 343 100 99 330 168 169 335 99 98 339 99 98 339 168 169 335 22 20 340 171 170 344 170 171 345 172 172 346 143 125 364 175 173 355 144 122 360 144 122 360 175 173 355 174 174 357 143 125 364 25 22 368 175 173 355 173 175 349 174 174 353 177 176 351 177 176 351 174 174 353 178 177 354 175 173 355 179 178 356 174 174 357 174 174 357 179 178 356 178 177 359 176 179 361 180 180 358 175 173 355 175 173 355 180 180 358 179 178 356 177 176 371 178 177 372 181 181 373 181 181 373 178 177 372 182 182 374 178 177 359 179 178 356 182 182 363 182 182 363 179 178 356 183 183 362 179 178 356 180 180 358 183 183 362 183 183 362 180 180 358 184 184 367 181 181 373 182 182 374 186 185 376 183 183 380 187 186 378 182 182 374 182 182 374 187 186 378 186 185 376 183 183 385 184 184 386 187 186 387 185 187 377 186 185 376 189 188 382 186 185 376 187 186 378 190 189 381 187 186 387 188 190 388 191 191 389 191 191 389 188 190 388 192 192 390 164 165 326 191 191 336 165 167 333 191 191 389 166 168 392 165 167 394 188 190 370 184 184 367 193 193 366 193 193 366 184 184 367 180 180 358 188 190 388 193 193 391 192 192 390 192 192 390 193 193 391 194 194 393 192 192 390 194 194 393 166 168 392 166 168 392 194 194 393 168 169 395 176 179 396 25 22 397 21 21 398 185 187 377 195 195 375 181 181 373 181 181 373 195 195 375 177 176 371 189 188 382 196 196 379 185 187 377 185 187 377 196 196 379 195 195 375 163 164 325 167 166 327 189 188 329 189 188 329 167 166 327 196 196 332 195 195 352 171 170 344 177 176 351 177 176 351 171 170 344 173 175 349 195 195 352 196 196 350 171 170 344 171 170 344 196 196 350 169 197 347 196 196 332 167 166 327 169 197 334 169 197 334 167 166 327 109 108 337 189 188 382 190 189 381 163 164 384 191 191 400 163 164 401 190 189 402 191 191 389 192 192 390 166 168 392 164 165 403 163 164 401 191 191 400 189 188 382 186 185 376 190 189 381 181 181 373 186 185 376 185 187 377 190 189 381 187 186 378 191 191 383 187 186 387 184 184 386 188 190 388 197 198 404 22 20 405 194 194 406 194 194 406 22 20 405 168 169 407 193 193 409 21 21 408 194 194 406 194 194 406 21 21 408 197 198 404 21 21 369 193 193 366 176 179 361 176 179 361 193 193 366 180 180 358 175 173 399 25 22 397 176 179 396 169 197 347 170 171 345 171 170 344 198 199 422 199 200 412 70 90 418 70 90 418 199 200 412 202 201 414 200 202 410 203 203 411 199 200 412 199 200 412 203 203 411 202 201 414 201 204 415 204 205 413 200 202 410 200 202 410 204 205 413 203 203 411 202 201 414 203 203 411 83 75 417 83 75 417 203 203 411 205 206 416 203 203 411 204 205 413 205 206 416 205 206 416 204 205 413 206 207 421 82 208 426 205 206 427 207 209 428 205 206 427 206 207 432 208 210 430 66 71 435 82 208 426 92 91 431 92 91 431 207 209 428 209 211 434 208 210 430 210 212 433 207 209 428 207 209 428 210 212 433 209 211 434 92 91 431 209 211 434 211 213 437 209 211 434 210 212 433 211 213 437 211 213 441 214 214 442 115 215 443 115 215 443 214 214 442 213 216 445 212 217 446 215 218 444 211 213 441 211 213 441 215 218 444 214 214 442 213 216 445 214 214 442 217 219 448 217 219 448 214 214 442 218 220 447 214 214 442 215 218 444 218 220 447 218 220 447 215 218 444 219 221 450 216 222 451 217 219 448 220 223 453 218 220 455 221 224 456 217 219 457 217 219 457 221 224 456 220 223 459 218 220 455 219 221 458 221 224 456 220 223 459 221 224 456 224 225 461 221 224 456 222 226 460 225 227 462 225 227 462 222 226 460 226 228 464 199 200 468 225 227 462 200 202 470 225 227 420 201 204 415 200 202 410 222 226 471 219 221 472 227 229 473 227 229 452 219 221 450 215 218 444 222 226 460 227 229 467 226 228 464 226 228 464 227 229 467 228 230 469 226 228 423 228 230 419 201 204 415 201 204 415 228 230 419 204 205 413 212 217 440 210 212 433 230 231 438 230 231 438 210 212 433 229 232 436 229 232 436 210 212 433 208 210 430 229 232 436 208 210 430 206 207 432 223 233 463 224 225 461 198 199 465 225 227 462 198 199 465 224 225 461 225 227 420 226 228 423 201 204 415 199 200 468 198 199 465 225 227 462 223 233 463 220 223 459 224 225 461 224 225 461 221 224 456 225 227 462 221 224 456 219 221 458 222 226 460 229 232 425 206 207 421 228 230 419 228 230 419 206 207 421 204 205 413 228 230 474 227 229 475 229 232 476 229 232 476 227 229 475 230 231 477 212 217 479 230 231 477 215 218 478 215 218 478 230 231 477 227 229 475 82 208 426 207 209 428 92 91 431 205 206 427 208 210 430 207 209 428 211 213 437 210 212 433 212 217 440 92 91 431 211 213 437 115 215 439 83 75 429 205 206 427 82 208 426 141 147 480 231 234 481 234 235 482 253 236 104 232 237 103 252 238 105 252 238 105 232 237 103 235 239 102 232 237 103 233 240 100 235 239 102 235 239 102 233 240 100 236 241 98 141 147 485 234 235 486 139 145 487 252 238 489 237 242 490 251 243 491 235 239 492 238 244 494 237 242 490 137 158 502 259 245 503 136 141 504 237 242 490 261 246 499 239 247 500 261 246 512 262 248 510 239 247 508 239 247 508 262 248 510 72 86 509 242 88 76 256 249 84 244 250 80 245 251 85 244 250 80 246 252 88 247 253 110 248 254 108 141 147 109 231 234 107 260 255 106 253 236 104 249 256 101 233 240 100 232 237 103 244 250 80 256 249 84 246 252 88 246 252 88 256 249 84 257 257 91 250 258 96 246 252 88 258 259 94 258 259 94 246 252 88 257 257 91 233 240 100 250 258 96 236 241 98 236 241 98 250 258 96 258 259 94 255 260 127 39 39 118 241 261 122 241 261 122 39 39 118 76 84 115 254 262 137 255 260 127 240 263 133 240 263 133 255 260 127 241 261 122 236 241 496 254 262 498 238 244 494 238 244 494 254 262 498 240 263 497 234 235 495 252 238 489 137 158 493 137 158 493 252 238 489 251 243 491 231 234 481 253 236 483 234 235 482 234 235 482 253 236 483 252 238 484 252 238 489 235 239 492 237 242 490 235 239 492 236 241 496 238 244 494 237 242 490 238 244 494 240 263 497 72 86 123 262 248 128 76 84 115 256 249 136 242 88 143 39 39 118 255 260 127 257 257 132 39 39 118 39 39 118 257 257 132 256 249 136 258 259 94 257 257 91 254 262 97 254 262 97 257 257 91 255 260 99 236 241 98 258 259 94 254 262 97 242 88 76 244 250 80 243 264 78 259 245 503 251 243 505 237 242 507 259 245 503 239 247 508 133 139 506 133 139 506 239 247 508 72 86 509 67 82 511 133 139 506 72 86 509 253 236 104 249 256 101 232 237 103 141 147 109 248 254 108 231 234 107 237 242 490 240 263 497 261 246 499 261 246 138 240 263 133 262 248 128 262 248 128 240 263 133 241 261 122 76 84 115 262 248 128 241 261 122 259 245 501 237 242 490 239 247 500 137 158 502 251 243 505 259 245 503 245 251 85 68 72 81 243 264 78 243 264 78 244 250 80 245 251 85 249 256 101 250 258 96 233 240 100 253 236 104 260 255 106 249 256 101 263 265 519 264 266 516 267 267 513 267 267 513 264 266 516 268 268 514 265 269 534 269 270 530 264 266 532 264 266 532 269 270 530 268 268 529 266 271 536 247 253 535 265 269 534 265 269 534 247 253 535 269 270 530 267 267 513 268 268 514 270 272 515 270 272 515 268 268 514 271 273 517 268 268 529 269 270 530 271 273 531 271 273 531 269 270 530 141 147 533 269 270 530 247 253 535 141 147 533 270 272 515 271 273 517 142 148 520 273 274 523 142 148 520 274 275 526 274 275 538 121 151 539 275 276 540 275 276 540 120 119 542 276 277 544 273 274 553 274 275 538 277 278 549 274 275 538 275 276 540 279 279 543 275 276 540 276 277 544 279 279 543 278 280 545 281 281 552 277 278 549 277 278 549 281 281 552 280 282 554 279 279 543 282 283 548 278 280 545 278 280 545 282 283 548 281 281 552 173 175 547 283 284 551 279 279 543 279 279 543 283 284 551 282 283 548 280 282 555 281 281 556 284 285 557 284 285 557 281 281 556 285 286 558 282 283 563 286 287 560 281 281 556 281 281 556 286 287 560 285 286 558 282 283 563 283 284 564 286 287 560 286 287 560 283 284 564 287 288 565 284 285 557 285 286 558 289 289 561 286 287 575 290 290 570 285 286 572 285 286 572 290 290 570 289 289 567 286 287 575 287 288 577 290 290 570 288 291 566 289 289 567 292 292 568 289 289 567 290 290 570 293 293 569 264 266 576 294 294 574 265 269 578 294 294 537 266 271 536 265 269 534 295 295 580 287 288 581 283 284 582 145 121 546 276 277 544 120 119 542 288 291 562 296 296 559 284 285 557 284 285 557 296 296 559 280 282 555 292 292 522 297 297 521 288 291 524 288 291 524 297 297 521 296 296 525 263 265 519 267 267 513 292 292 522 292 292 522 267 267 513 297 297 521 280 282 528 296 296 525 277 278 527 277 278 527 296 296 525 273 274 523 296 296 525 297 297 521 273 274 523 273 274 523 297 297 521 272 298 518 297 297 521 267 267 513 272 298 518 272 298 518 267 267 513 270 272 515 270 272 515 142 148 520 272 298 518 292 292 568 293 293 569 263 265 571 294 294 574 263 265 571 293 293 569 264 266 576 263 265 571 294 294 574 292 292 568 289 289 567 293 293 569 284 285 557 289 289 561 288 291 562 295 295 579 290 290 570 287 288 577 277 278 549 274 275 538 278 280 545 142 148 541 121 151 539 274 275 538 279 279 543 276 277 544 173 175 547 274 275 538 279 279 543 278 280 545 271 273 584 141 147 585 142 148 586 272 298 518 142 148 520 273 274 523 312 299 587 300 300 588 213 216 589 299 301 590 301 302 593 300 300 588 213 216 589 302 303 591 311 304 595 300 300 588 303 305 594 302 303 591 302 303 591 323 306 601 304 307 602 323 306 606 324 308 607 304 307 608 304 307 608 324 308 607 306 309 609 306 309 621 309 310 622 308 311 623 170 171 638 319 312 629 172 172 632 172 172 632 319 312 629 320 313 626 310 314 630 315 315 627 325 316 634 307 317 631 315 315 627 309 310 622 313 318 600 314 319 603 305 320 597 305 320 597 314 319 603 307 317 605 301 302 593 313 318 600 303 305 594 303 305 594 313 318 600 305 320 597 113 112 599 213 216 589 311 304 595 216 222 592 312 299 587 213 216 589 213 216 589 300 300 588 302 303 591 300 300 588 301 302 593 303 305 594 302 303 591 303 305 594 305 320 597 306 309 609 324 308 607 309 310 610 310 314 630 317 321 625 315 315 627 315 315 627 317 321 625 309 310 622 309 310 622 316 322 624 308 311 623 321 323 628 295 295 633 320 313 626 320 313 626 295 295 633 172 172 632 316 322 624 309 310 622 317 321 625 111 324 598 311 304 595 302 303 591 111 324 612 304 307 608 318 325 611 318 325 611 304 307 608 306 309 609 308 311 613 318 325 611 306 309 609 319 312 629 308 311 623 320 313 626 320 313 626 308 311 623 316 322 624 317 321 625 321 323 628 316 322 624 316 322 624 321 323 628 320 313 626 291 326 637 321 323 628 310 314 630 310 314 630 321 323 628 317 321 625 322 327 640 291 326 641 325 316 642 325 316 642 291 326 641 310 314 644 302 303 591 305 320 597 323 306 601 323 306 601 305 320 597 324 308 604 324 308 604 305 320 597 307 317 605 309 310 622 324 308 636 307 317 631 111 324 598 302 303 591 304 307 602 113 112 618 311 304 620 111 324 612 319 312 615 318 325 611 308 311 613 169 328 646 318 325 647 319 312 648 312 299 587 299 301 590 300 300 588 314 319 635 315 315 627 307 317 631 216 222 451 213 216 445 217 219 448 298 329 596 312 299 587 216 222 592 298 329 454 216 222 451 220 223 453 82 208 187 66 71 185 81 70 182 110 109 614 111 324 612 318 325 611 109 108 617 110 109 614 318 325 611 167 166 327 103 104 328 106 105 331 295 295 633 321 323 628 291 326 637 247 253 654 266 271 652 248 254 649 266 271 652 294 294 653 326 330 650 266 271 652 326 330 650 248 254 649 248 254 649 326 330 650 260 255 651 331 331 643 295 295 645 291 326 641 290 290 570 327 332 573 293 293 569 290 290 655 295 295 656 332 333 657 332 333 659 295 295 660 331 331 661 243 264 78 68 72 81 40 40 74 242 88 76 243 264 78 40 40 74 67 82 180 72 86 179 71 83 176 136 141 504 259 245 503 133 139 506 133 139 33 65 81 32 30 132 31 1 1 16 84 38 23 31 27 19 139 145 487 234 235 486 137 158 488 121 151 255 142 148 259 151 150 257 220 223 459 223 233 463 333 334 466 89 73 82 223 233 89 69 74 86 223 233 424 198 199 422 70 90 418 69 74 86 223 233 89 70 90 92 202 201 414 83 75 417 70 90 418 42 47 664 70 90 665 83 75 666 79 76 688 83 75 687 82 208 690 79 76 186 82 208 187 81 70 182 67 82 34 65 81 32 133 139 33 63 85 173 328 157 181 65 81 178 0 0 26 328 157 28 84 38 23 26 26 684 27 25 683 28 28 685 35 36 279 24 23 272 156 129 276 172 335 365 144 122 360 174 174 357 145 121 247 144 122 249 172 335 252 120 119 250 121 151 255 123 123 253 145 121 546 172 335 550 276 277 544 121 151 539 120 119 542 275 276 540 173 175 583 295 295 580 283 284 582 99 98 205 22 20 208 26 26 203 22 20 668 197 198 669 18 17 670 197 198 51 21 21 54 17 16 45 197 198 51 17 16 45 18 17 48 30 132 31 328 157 28 0 0 26 31 27 672 29 29 673 32 31 674 31 27 198 88 87 197 29 29 196 88 87 197 64 69 192 29 29 196 87 89 151 88 87 158 31 27 154 61 68 153 88 87 158 87 89 151 60 66 149 87 89 151 31 27 154 59 65 152 84 38 156 63 85 159 94 93 194 93 92 189 95 96 193 113 112 228 114 114 232 115 215 234 113 112 449 115 215 443 213 216 445 110 109 233 329 110 231 330 113 229 330 113 616 113 112 618 111 324 612 110 109 614 330 113 616 111 324 612 115 215 234 114 114 232 117 116 235 92 91 237 115 215 234 117 116 235 12 37 7 4 2 2 8 9 8 35 36 9 12 37 7 16 15 11 30 132 6 0 0 0 36 35 4 84 38 156 328 157 162 63 85 159 248 254 108 260 255 106 231 234 107 322 327 640 331 331 643 291 326 641 327 332 663 332 333 659 322 327 662 322 327 662 332 333 659 331 331 661 290 290 655 332 333 657 327 332 658 333 334 675 89 73 676 68 72 677 333 334 675 223 233 678 89 73 676 65 81 178 71 83 176 63 85 173 109 108 617 318 325 611 169 328 619 170 171 638 169 197 639 319 312 629 172 335 679 174 174 680 173 175 681 295 295 348 173 175 349 172 172 346 171 170 344 172 172 346 173 175 349 172 335 550 173 175 547 276 277 544</p>
        </triangles>
      </mesh>
      <extra>
        <technique profile="OpenCOLLADAMaya">
          <originalMayaNodeId>polySurfaceShape72</originalMayaNodeId>
          <double_sided>1</double_sided>
        </technique>
      </extra>
    </geometry>
  </library_geometries>
  <library_visual_scenes>
    <visual_scene id="VisualSceneNode" name="rock_pile01">
      <node id="polySurface72" name="polySurface72" type="NODE">
        <matrix sid="transform">1 0 0 0 0 1 0 0 0 0 1 0 0 0 0 1</matrix>
        <instance_geometry url="#polySurfaceShape75">
          <bind_material>
            <technique_common>
              <instance_material symbol="lambert3SG1SG" target="#lambert3SG1">
                <bind_vertex_input semantic="TEX0" input_semantic="TEXCOORD" input_set="0"/>
              </instance_material>
            </technique_common>
          </bind_material>
        </instance_geometry>
        <extra>
          <technique profile="OpenCOLLADAMaya">
            <originalMayaNodeId>polySurface72</originalMayaNodeId>
          </technique>
        </extra>
      </node>
    </visual_scene>
  </library_visual_scenes>
  <scene>
    <instance_visual_scene url="#VisualSceneNode"/>
  </scene>
</COLLADA>