<?xml version="1.0" encoding="utf-8"?>
<COLLADA xmlns="http://www.collada.org/2005/11/COLLADASchema" version="1.4.1">
  <asset>
    <contributor>
      <author>Marc</author>
      <authoring_tool>OpenCOLLADA2008</authoring_tool>
      <comments>
			ColladaMaya export options: 
			bakeTransforms=1;relativePaths=1;copyTextures=0;exportTriangles=1;exportCgfxFileReferences=0;
			isSampling=0;curveConstrainSampling=1;removeStaticCurves=0;exportPolygonMeshes=1;exportLights=0;
			exportCameras=0;exportJointsAndSkin=1;exportAnimations=1;exportInvisibleNodes=0;exportDefaultCameras=0;
			exportTexCoords=1;exportNormals=1;exportNormalsPerVertex=0;exportVertexColors=1;exportVertexColorsPerVertex=0;
			exportTexTangents=0;exportTangents=0;exportReferencedMaterials=0;exportMaterialsOnly=0;
			exportXRefs=0;dereferenceXRefs=1;exportCameraAsLookat=0;cameraXFov=0;cameraYFov=0;doublePrecision=0
		</comments>
      <source_data>file:///F:/Dropbox/Team/depth_marc/models/rockwall/rockwall%20pieces.mb</source_data>
    </contributor>
    <created>2012-12-10T12:57:43</created>
    <modified>2012-12-10T12:57:43</modified>
    <unit name="meter" meter="1"/>
    <up_axis>Y_UP</up_axis>
  </asset>
  <library_materials>
    <material id="lambert3SG1" name="lambert3SG1">
      <instance_effect url="#lambert3SG1-fx"/>
    </material>
  </library_materials>
  <library_effects>
    <effect id="lambert3SG1-fx">
      <profile_COMMON>
        <newparam sid="file2-surface">
          <surface type="2D">
            <init_from>file2</init_from>
          </surface>
        </newparam>
        <newparam sid="file2-sampler">
          <sampler2D>
            <source>file2-surface</source>
          </sampler2D>
        </newparam>
        <technique sid="common">
          <lambert>
            <emission>
              <color>0 0 0 1</color>
            </emission>
            <ambient>
              <color>0 0 0 1</color>
            </ambient>
            <diffuse>
              <texture texture="file2-sampler" texcoord="TEX0">
                <extra>
                  <technique profile="OpenCOLLADAMaya">
                    <blend_mode>NONE</blend_mode>
                    <coverageU>1</coverageU>
                    <coverageV>1</coverageV>
                    <fast>0</fast>
                    <mirrorU>0</mirrorU>
                    <mirrorV>0</mirrorV>
                    <noiseU>0</noiseU>
                    <noiseV>0</noiseV>
                    <offsetU>0</offsetU>
                    <offsetV>0</offsetV>
                    <repeatU>1</repeatU>
                    <repeatV>1</repeatV>
                    <rotateFrame>0</rotateFrame>
                    <rotateUV>0</rotateUV>
                    <stagger>0</stagger>
                    <translateFrameU>0</translateFrameU>
                    <translateFrameV>0</translateFrameV>
                    <wrapU>1</wrapU>
                    <wrapV>1</wrapV>
                  </technique>
                </extra>
              </texture>
            </diffuse>
            <transparent opaque="RGB_ZERO">
              <color>0 0 0 1</color>
            </transparent>
            <transparency>
              <float>1</float>
            </transparency>
          </lambert>
        </technique>
      </profile_COMMON>
    </effect>
  </library_effects>
  <library_images>
    <image id="file2" name="file2">
      <init_from>./ice_rock_UV.dds</init_from>
      <extra>
        <technique profile="OpenCOLLADAMaya">
          <dgnode_type>kFile</dgnode_type>
          <image_sequence>0</image_sequence>
          <originalMayaNodeId>file2</originalMayaNodeId>
        </technique>
      </extra>
    </image>
  </library_images>
  <library_geometries>
    <geometry id="polySurfaceShape61" name="polySurfaceShape61">
      <mesh>
        <source id="polySurfaceShape61-positions" name="polySurfaceShape61-positions">
          <float_array id="polySurfaceShape61-positions-array" count="1077">16.78814 16 6.478008 21.07676 16 1.608506 8.488613 16 4.341055 4.488613 16 5.824375 12.48861 16 6.039658 19.81738 16 6.02 23.29105 16 0.9163477 2.742109 16 6.49106 25.97541 16 -0.5516431 20.72875 16 3.569277 14.48861 16 5.681802 20.27605 16 4.584631 15.48861 16 6.46127 17.64506 16 7.162485 20.65936 16 2.279512 22.35391 16.05162 1.596689 19.07124 16 7.518853 19.69941 16 7.015908 26.0216 16 -1.562549 1.488613 16 7.531118 24.35867 16 0.1661743 6.488613 16 4.454182 10.48861 16 5.646582 13.48861 16 5.681802 0 19.16155 7.644478 1.488613 19.24884 7.531118 16.78814 19.24884 6.478008 17.64506 19.24884 7.162485 21.07676 19.24884 1.608506 22.35391 19.24884 1.596689 8.488613 19.24884 4.341055 10.48861 19.24884 5.646582 4.488613 19.24884 5.824375 6.488613 19.24884 4.454182 12.48861 19.24884 6.039658 13.48861 19.24884 5.681802 19.81738 19.24884 6.02 20.27605 19.24884 4.584631 23.29105 19.24884 0.9163477 24.35867 19.24884 0.1661743 2.742109 19.24884 6.49106 25.97541 19.24884 -0.5516431 26.0216 19.24884 -1.562549 20.72875 19.24884 3.569277 20.65936 19.24884 2.279512 14.48861 19.24884 5.681802 15.48861 19.24884 6.46127 19.07124 19.24884 7.518853 19.69941 19.24884 7.015908 25.14447 19.16155 -3 0 19.66147 7.413687 1.488613 19.66147 7.041484 16.78814 19.66147 6.019673 17.72629 19.66147 6.942007 20.93828 19.66147 1.332207 22.35391 19.66147 1.306543 8.488613 19.66147 3.783521 10.48861 19.66147 5.089053 4.488613 19.66147 5.334746 6.488613 19.66147 3.896648 12.48861 19.66147 5.482139 13.48861 19.66147 5.12427 19.53893 19.66147 5.770493 19.94176 19.66147 4.584631 23.11793 19.66147 0.7501611 24.25482 19.66147 -0.1246655 2.742109 19.66147 6.001426 25.62679 19.66147 -0.7572632 25.64616 19.66147 -1.59832 20.39447 19.66147 3.569277 20.32507 19.66147 2.279512 14.48861 19.66147 5.12427 15.48861 19.66147 6.002935 18.87977 19.66147 7.176509 19.42094 19.66147 6.766401 24.91369 19.66147 -3 0 16 7.546814 0 19.39791 0 1.488613 19.39791 0 16.78814 19.39791 0 17.52453 19.39791 0 8.488613 19.39791 0 10.48861 19.39791 0 4.488613 19.39791 0 6.488613 19.39791 0 12.48861 19.39791 0 13.48861 19.39791 0 2.742109 19.39791 0 14.48861 19.39791 0 15.48861 19.39791 0 17.5 19.39791 -3 25.04682 16 -3 2.742109 18.94317 6.49106 5.387148 18.40946 5.824375 2.943809 18.0998 7.705642 4.488613 17.57176 6.46697 1.488613 18.28553 7.531118 6.488613 17.62442 4.454182 8.850713 17.62442 3.796443 10.48861 17.62442 5.646582 12.48861 17.62442 6.621199 13.48861 17.62442 6.263342 14.48861 17.62442 5.681802 15.48861 18.3096 6.109277 12.48861 17.90408 6.039658 13.48861 17.9274 5.681802 11.41122 17.62442 6.27634 10.48861 18.43663 5.646582 8.488613 18.43663 4.341055 15.48861 16.93136 5.840801 16.78814 16.9079 6.478008 16.41645 18.07837 6.478008 17.54263 18.24305 6.861792 18.96881 18.29057 7.218159 19.47646 18.27651 6.715215 19.59442 18.08682 5.719307 17.73056 17.42718 7.491829 19.15674 17.39814 7.848196 19.96302 17.31298 7.345251 20.08099 17.31647 6.349343 20.27605 17.62442 4.584631 21.09271 17.62442 3.95834 20.37036 17.67665 2.49666 21.09266 17.67665 1.268408 22.35391 17.65023 1.269822 20.55936 16.81221 2.626101 21.31171 16.81221 1.372356 20.67166 17.0097 3.811108 26.43716 18.38724 -1.777061 26.19335 18.36657 -0.3371313 26.43716 17.11877 -1.777061 26.19335 17.21178 -0.3371313 23.29105 17.62442 1.40489 24.35867 17.62442 0.1661743 22.99324 17.75669 0.4604297 24.35867 18.43663 0.1661743 23.24174 18.50277 0.565022 22.35391 18.44954 1.325522 21.08471 18.46274 1.343845 0 0 10.23639 0 8 6.236392 17.07068 7.337003 6.005449 17.67699 -4.82154e-5 11.08383 0 4 7.340569 16.98559 4 8.358076 21.46436 8 1.85791 23.0566 3.186147 2.882422 25.49184 0 4.449365 8.488613 8 4.445881 9.199287 3.734371 5.550063 7.341133 0 9.664453 4.488613 8 7.016143 4.488613 4 7.340566 4.918711 0 11.92011 12.48861 8 5.127212 12.81194 4 5.460146 12.9228 0 8.06687 19.52832 7.337003 5.372627 20.17688 4.828519 7.659302 22.42145 0 10.46054 23.86355 8 0.4078027 24.79572 4 1.187783 28.2377 0 2.236677 0 12 7.097515 4.488613 12 6.236392 8.488613 12 5.070088 12.48861 12 6.039658 16.78814 12 6.478008 20.02227 12 5.923906 21.68984 12 2.002988 23.73949 12 0.865918 0 10 6.236392 4.488613 10 6.236392 23.73949 10 0.865918 2.742109 12 6.08168 25.56746 12 -0.5857031 24.66922 0 5.790151 21.68836 4 4.681143 20.77367 8 4.005937 20.96691 12 3.845234 8.488613 10 4.757988 12.48861 10 5.127212 17.11204 10 6.527686 19.7443 10 5.849897 20.96691 10 3.845234 21.63082 10 1.622197 14.05442 0 8.62501 10.08067 0 9.173506 6.488613 0 11.21301 2.85748 0 11.91119 1.708398 0 10.78333 8.914873 0 8.832676 19.74242 0 10.18041 24.37787 0 8.437544 24.07361 0 6.934668 28.66564 0 0.2624414 27.95393 0 -1.445801 14.48861 12 5.681802 15.63315 10 5.435698 17.06166 9.309032 5.891572 19.4809 9.309032 5.267881 20.02309 10 4.664873 20.32063 12 4.772107 14.16528 4 6.162192 15.52738 8 5.29791 19.90266 8 4.575566 21.4541 4.828676 5.900566 15.48861 12 6.46127 16.80421 11 6.638237 17.62474 12 7.165225 21.07211 12 2.638096 22.9701 12 1.658506 21.72953 9 1.825039 20.96691 9 3.845234 20.94793 10 2.686072 21.02723 9 2.599092 0 6.002504 6.787788 4.488613 6.002504 6.787788 8.488613 6.002504 4.997285 13.14966 6.002504 5.050391 14.3476 6.002504 5.337305 16.83595 6.69457 7.429863 19.95898 6.69457 6.324204 20.41 6.002504 4.794326 20.98422 6.002504 4.268787 21.74758 6.002504 2.040139 24.40004 6.002504 0.5352148 19.13556 12 7.499858 19.83262 12 6.963525 25.59238 12 -1.552695 1.488613 12 7.101777 24.35998 12 0.1664258 6.488613 12 5.024707 10.48861 12 6.011099 20.65627 8 2.810276 20.90891 6.002504 3.03124 22.78133 8 1.09418 23.19541 6.002504 1.254609 22.64996 9.069696 1.334727 22.32293 4.67255 2.410349 21.4327 4.959606 3.009065 22.93949 4.912284 1.651201 22.95121 11 1.420525 19.15254 3.133922 9.216626 21.81715 3.063729 9.646455 23.14408 2.955777 7.673413 22.37393 2.630896 5.832949 22.82529 1.630119 4.515918 23.62195 1.593073 3.246194 27.87527 2.46817 2.12624 5.036191 2 11.08202 7.914873 2 7.607256 6.388428 1.734854 10.72584 9.903418 2.943027 8.706777 15.21873 4 7.446582 15.50892 6.002504 6.593984 15.26802 7.498291 5.790039 12.48861 7.498291 5.40291 11.68176 6.002504 5.541177 11.60418 4 6.080742 11.54979 3.025702 8.088521 11.57569 0 8.942944 15.39439 0 9.808857 12.85964 2.279051 6.726006 14.11518 2.192054 7.427002 15.11664 2.275423 9.843823 17.44535 2.225668 10.68683 10.48861 10 4.942598 10.48861 8 4.786545 23.74199 0.7317493 6.538345 24.18502 0.9911486 8.653359 22.33279 1.073434 10.67878 19.6173 0.8959113 10.63535 28.09051 2.46817 0.2868335 25.09768 4 -0.2032983 24.1943 6.002504 -0.7010254 23.65994 8 -0.9705566 24.04242 10 -0.7130273 26.78223 2 -1.290059 26.51723 0 3.301523 25.16572 1.796537 2.67551 0 2 8.788479 26.48939 0.5432871 3.288633 28.38775 0.5743804 2.282405 28.79729 0.5117486 0.3018359 27.88287 0.551931 -1.400781 17.59543 0.7051773 11.20983 15.21802 0.6168394 10.04939 14.06942 0.5413255 8.581826 12.90743 0.554516 7.994512 11.57053 0.6029446 9.032158 10.0418 0.6454907 9.253262 18.46801 6.69457 7.023921 18.4882 7.337003 6.421904 18.45962 9.309032 6.310918 18.45756 10 6.30291 19.8323 9.154516 4.453572 15.58027 9 5.366807 1.696738 2 9.675503 3.009951 1.70073 10.76803 1.530391 4 7.340566 3.009502 4 7.340566 7.034277 3.856453 6.372974 5.761445 3.928226 6.856768 1.509414 6.002504 6.787788 2.999014 6.002504 6.787788 6.488613 6.002504 5.892534 5.488613 6.002504 6.340161 25.97 3 -0.9636816 24.91594 2.898268 2.151787 27.06547 3.419703 0.1000488 26.78975 3.419703 1.795432 1.421094 10 6.236392 1.467393 8 6.236392 5.832012 8 5.635049 2.978008 8 7.118164 6.488613 10 5.497187 0 14.60431 7.546814 1.798164 14.60431 7.546816 3.05166 14.60431 6.49106 4.968887 13.89181 6.041528 6.796328 13.89181 4.75488 8.163984 13.89181 4.725293 10.16398 13.89181 5.838701 12.48861 13.89181 6.039658 14.01579 13.89181 5.681802 15.21976 13.89181 6.46127 16.56463 13.89181 6.483369 17.44212 13.89181 7.187617 19.10619 13.89181 7.508594 19.87844 13.89181 6.944937 20.23725 13.89181 5.815381 20.42256 13.89181 4.603955 20.85428 13.89181 3.714717 20.87689 13.89181 2.468499 21.39988 13.89181 1.816416 22.67746 13.91622 1.633669 24.31781 13.89181 1.143557 25.17406 13.89181 0.3226074 25.76039 13.89181 -0.5695923 25.79537 13.89181 -1.557354 25.04682 14.60431 -3 2.565332 12.9459 6.08168 1.311836 12.9459 7.101777 0 12.9459 7.10178 24.00676 8 -0.3765845 24.54332 6.002504 -0.2289453 6.074941 2.83154 8.791309 4.762402 3.498089 9.211289 3.009727 3.348454 9.054297 7.15165 1.867427 8.464229 27.73639 0 -3 23.73639 8 -3 24.84057 4 -3 24.59752 12 -3 23.73639 10 -3 24.28779 6.002504 -3 26.28848 2 -3 24.60178 12.9459 -3</float_array>
          <technique_common>
            <accessor source="#polySurfaceShape61-positions-array" count="359" stride="3">
              <param name="X" type="float"/>
              <param name="Y" type="float"/>
              <param name="Z" type="float"/>
            </accessor>
          </technique_common>
        </source>
        <source id="polySurfaceShape61-normals" name="polySurfaceShape61-normals">
          <float_array id="polySurfaceShape61-normals-array" count="1077">0.0214107 -0.005881498 0.9997534 0.2457588 -0.06940968 0.9668427 0.1507311 0.1810902 0.9718469 0.07833098 0.2099169 0.9745764 -0.4207946 -0.07499713 0.9040505 -0.3952053 0.09664521 0.9134946 -0.3948371 0.2232252 0.8912206 -0.3414104 0.3244981 0.8821224 0.4885083 0.08048924 0.868839 0.2383683 0.1624832 0.9574862 0.3552385 -0.2429935 0.9026404 0.4949962 -0.1850643 0.8489581 -0.2568708 -0.03081346 0.9659544 -0.5500938 0.137204 0.8237547 -0.400913 -0.09649102 0.9110205 -0.177309 -0.1843133 0.966742 0.5727491 0.1715699 0.8015749 0.3441081 0.3884957 0.8547868 0.3740377 0.4847374 0.7906488 0.153893 0.4488378 0.8802624 0.06776044 0.4546113 0.8881088 -0.04575654 0.5573234 0.8290337 0.2186561 0.5111445 0.8312165 0.9635308 0.2221892 0.1491316 0.8632514 0.04954908 0.5023366 0.95425 0.144377 0.2618438 0.3994136 0.6137071 0.6810524 0.3925668 0.155428 0.9064952 0.2997162 0.01371375 0.9539298 0.5019773 -0.2058384 0.8400293 0.4454336 0.348819 0.8245691 0.4674215 0.3883061 0.7941887 0.789579 -0.1501954 0.5949842 0.9486014 -0.213702 -0.2334241 0.9451281 -0.1839888 -0.2699646 0.75089 -0.1057427 0.651907 0.9424652 0.2786097 0.1847598 0.9989666 -0.01086534 0.0441328 0.9367946 0.1692391 0.3062254 -0.0291728 0.04244691 0.9986727 -0.338469 -0.1533263 0.9284018 -0.3266481 0.3394421 0.8820886 -0.2741621 0.3977584 0.8755702 0.8988513 0.2083926 0.3855368 0.2198239 0.1763871 0.9594608 0.2073825 0.1954599 0.9585343 0.8781381 0.1646804 0.4491703 0.8608029 0.2139548 0.461781 0.9553035 0.2031337 0.2147828 0.9379846 0.2250591 -0.2636918 0.7502895 0.326921 -0.5746199 0.8325123 0.5146304 -0.2051311 0.5072828 -0.1614022 0.8465303 0.3821662 0.1726588 0.9078204 0.6585359 0.1183081 0.7431915 0.459998 -0.1010225 0.8821544 -0.3536585 0.325481 0.8769195 0.01433566 0.3916116 0.9200189 0.4271352 0.2850048 0.8580955 0.156692 0.9211772 0.3562025 0.05873588 0.9067659 0.4175234 -0.1718873 0.9345541 0.3115498 -0.1512427 0.9289917 0.3377869 0.4854743 0.19677 0.8518194 0.3279254 0.1240696 0.9365209 0.1311755 0.8936035 0.4292619 0.1779914 0.917372 0.3560163 -0.2363773 0.4483911 0.8620157 -0.3421579 0.434911 0.8329347 -0.1219885 0.9526473 0.2785355 -0.08391468 0.9575942 0.2756295 0.1109909 0.9533185 0.2808291 0.1653189 0.9406641 0.2963455 0.05315115 0.9565064 0.286828 0.02355563 0.9576566 0.2869473 0.3905943 0.9091305 0.1446296 0.4218203 0.9026344 0.08554947 0.5935127 0.09208357 0.7995394 0.4400145 0.2011983 0.8751609 0.1721968 0.936377 0.3058536 0.2786899 0.8814951 0.3811801 0.1873754 0.9343978 0.3029709 0.6801627 0.5162184 0.5204778 0.5660967 0.8092751 -0.1568708 0.4088908 0.867052 0.2846561 0.3817478 0.9180033 0.1074177 0.386748 0.9190824 0.075588 -0.1238437 0.9418878 0.3122661 -0.1205106 0.9502206 0.2873292 0.1008002 0.8398904 0.5333136 0.4671037 0.8474718 0.2522018 0.2740485 0.9462438 -0.1718139 -0.01065336 0.9992054 -0.03840945 -0.004555791 0.9993253 -0.0364414 -0.04664742 0.9985667 -0.02624253 0.01142621 0.9990358 -0.04239116 0.01212391 0.9984373 -0.05455041 0.008708724 0.997919 -0.06388842 -0.01121475 0.997967 -0.06273866 -0.01467875 0.9985535 -0.05172351 -0.00444079 0.9987141 -0.05050139 -0.001993746 0.9987612 -0.04971985 -0.0128079 0.9989752 -0.04341215 0.01053387 0.9989062 -0.04555826 0.01039283 0.998728 -0.04934055 -0.03339126 0.9991503 -0.02415931 0.5406953 0.1229974 0.8321779 0.4881741 -0.08432939 0.8686624 0.409838 0.07956082 0.9086819 -0.2411131 0.270967 0.931902 -0.4642583 0.06317225 0.883444 0.009616922 -0.17861 0.9838729 0.234352 -0.0958706 0.9674129 0.3912247 0.3647876 0.8449103 -0.2708857 0.1202211 0.9550747 -0.3575644 0.04862044 0.932622 -0.3589127 0.2318651 0.9041128 -0.4074506 0.08034629 0.9096859 -0.4954736 0.04826425 0.8672811 -0.4544225 0.09630239 0.8855654 0.1857092 0.2071383 0.9605237 0.8613362 0.1894142 0.4714043 -0.4524955 -0.05311087 0.8901837 0.1925805 -0.122579 0.973595 0.8446991 -0.09515868 0.5267144 0.9813079 -0.0224688 0.191128 0.938745 0.00798968 0.3445202 0.9886259 0.06904033 0.1336122 0.9562163 -0.1409226 0.2564978 0.9605566 0.07267014 0.2684211 0.9914253 0.05121604 0.1202202 0.4773252 0.1763722 0.8608447 0.2534412 0.1644758 0.9532655 0.4901195 0.1135406 0.8642288 0.9689422 -0.08512048 0.2321753 0.4417081 0.05486844 0.8954794 0.395847 0.4441185 0.803781 0.6007307 0.05009563 0.7978804 0.7801472 -0.1546514 -0.6061793 0.8414258 -0.06604455 0.5363215 0.9352532 -0.1197896 -0.3330945 0.9485095 0.2433436 -0.2027645 0.9215574 0.2563086 -0.2916124 0.9585884 0.06266334 -0.2778156 0.9783979 0.09419649 -0.1840228 -0.3091188 -0.003087284 0.9510185 -0.3392969 -0.001268957 0.9406785 0.05096448 0.04508867 0.997682 -0.517501 0.1760345 0.8373795 -0.2305982 0.3972972 0.8882451 -0.06641807 0.2132082 0.9747466 0.1504457 0.6047423 0.7820824 -0.6316313 0.4535113 0.6287841 -0.5749399 0.4330123 0.6942222 0.06864764 0.4747901 0.8774177 0.5709894 0.5496092 0.6098368 0.7888541 0.5532138 -0.267701 0.4827417 0.819515 -0.308797 0.2763769 0.8074923 0.5211256 0.973878 0.02934829 0.2251666 0.9375256 0.04287602 0.3452642 0.8051916 0.4490067 0.3873752 0.8729997 0.2905541 0.3917269 0.8928138 0.03330328 0.4491931 0.7152871 0.1567677 0.6810199 0.8247817 0.5651477 -0.01852575 0.8091951 0.5867903 0.02967216 0.8709546 0.4563673 -0.1821179 0.2985379 0.1339685 0.9449484 -0.2403933 0.1443027 0.9598895 0.482695 0.1094182 0.8689265 0.4437103 0.2085704 0.8715615 0.383716 0.2701423 0.8830544 0.02397846 0.668923 0.742945 -0.0308871 0.6674046 0.7440546 0.3683982 0.4843522 0.7935273 0.4404411 -0.09464356 0.8927789 0.3131264 0.02560223 0.9493663 -0.2025939 0.0781251 0.9761415 -0.07126226 0.2142721 0.974171 -0.06343862 0.1131983 0.991545 -0.1449881 0.139797 0.9795076 -0.3345986 0.50669 0.7945495 -0.4564399 0.478876 0.7498935 -0.3666056 0.6582532 0.6574975 -0.2674838 0.5918291 0.7603885 -0.2953235 0.08517976 0.9515926 0.1168721 0.03625088 0.9924852 0.02091406 0.1649159 0.9860859 0.2048338 0.572715 0.7937508 0.4031231 0.6197498 0.6733513 -0.4294002 -0.003052357 0.9031093 -0.2670515 0.6542768 0.7075347 0.2245244 0.6658615 0.7114894 0.2393831 0.5159941 0.8224633 -0.2479948 0.5400658 0.8042558 0.3705701 0.06775422 0.92633 0.4928356 0.2428083 0.8355579 0.7763706 0.2785307 0.565393 0.8196794 0.08753878 0.5660939 0.5058697 0.01849013 0.8624116 0.5063838 0.6065668 0.6129047 0.2299106 0.4774371 0.8480536 0.1884209 0.5385915 0.8212288 0.5601588 0.5261877 0.6398037 0.2356502 -0.01487293 0.9717242 0.2192065 0.1758346 0.9597034 0.2223543 0.04387201 0.9739784 0.3363127 -0.001654907 0.941749 0.0849089 -0.0850751 0.99275 -0.1614811 -0.07305408 0.9841681 0.2954338 0.07571556 0.9523581 -0.1600771 -0.2430031 0.9567261 -0.04782452 -0.1961042 0.9794161 0.06704115 -0.2039098 0.9766915 -0.2474019 -0.2090043 0.9461022 -0.3538804 -0.1583448 0.9217894 -0.3903508 -0.08140766 0.9170601 -0.3420539 0.05168314 0.9382579 -0.3260571 -0.1732448 0.9293401 0.7486978 -0.3814563 0.542165 0.819189 -0.2063414 0.5351194 0.9073655 -0.06323187 0.4155593 0.971 -0.1042605 0.2151476 0.4729017 -0.01663768 0.880958 0.4175443 -0.1746081 0.8917223 0.6739332 -0.1096041 0.7306167 0.6294443 -0.1022731 0.7702857 0.950358 -0.3049386 -0.06190472 0.01639396 -0.04852191 0.9986875 0.8939497 -0.2484879 -0.3729716 0.8989171 -0.3723909 -0.2308094 0.8118764 -0.1714858 -0.5580764 0.002408942 -0.1276618 0.9918149 0.3347317 -0.1268067 0.9337423 0.780115 0.5981553 0.183387 0.8644283 0.466581 0.1872592 0.9446269 -0.04428789 0.3251438 0.9005861 0.2828223 0.3300849 0.6181653 0.2637914 0.7404631 0.6333165 0.01232958 0.7737947 0.9334198 0.0329312 0.3572719 0.9435422 0.007117271 0.3311757 0.5406875 -0.06399354 0.8387858 0.5337433 -0.01234752 0.8455564 0.9343696 0.1263774 0.3331401 0.4903053 0.1259353 0.8624042 0.1283276 0.07643341 0.988782 -0.1655031 0.1642553 0.9724346 -0.111181 0.2717832 0.9559146 -0.2971662 -0.1718067 0.9392416 -0.2413257 -0.3417188 0.9082896 -0.3463708 -0.2788932 0.8956818 -0.2484294 -0.1001803 0.9634557 0.7898275 -0.1875469 0.5839509 0.7564747 -0.1107276 0.6445816 0.6207619 -0.01111731 0.7839202 0.9393974 -0.07739044 0.333981 0.4635646 -0.04743016 0.8847925 0.8530903 -0.3001812 0.4267646 0.6728913 -0.1302985 0.7281755 0.3309493 -0.1677643 0.9286159 -0.1892939 -0.2351488 0.9533482 -0.146442 0.3571001 0.9225152 0.8717206 -0.08772122 0.4820876 0.9034552 -0.05922892 0.424571 0.9427737 0.006387417 0.3333721 0.9660764 0.07258733 0.2478455 -0.5897801 0.4984024 0.6354166 -0.6203439 0.4361454 0.6518824 -0.06373449 0.6059964 0.79291 -0.116704 0.6262177 0.7708641 -0.5547352 0.4617853 0.6921148 0.2441961 -0.2044035 0.9479386 0.7880477 0.3714261 0.4909416 0.2753393 0.6934858 0.6657819 0.3028364 0.6716462 0.676152 -0.1558067 0.01519325 0.9876707 0.8349477 -0.1687005 0.5238345 0.8362967 0.02123083 0.5478659 -0.1018572 0.4838623 0.8691964 -0.05128882 0.510767 0.8581879 0 0.266092 0.9639476 0.1070819 0.2695267 0.9570208 0.6259391 0.6569912 0.4201937 0.7966123 0.4840939 0.3620249 0.6091056 0.4740848 0.6357938 0.4884845 0.3882917 0.7814171 0.7650594 0.6121518 -0.1998852 0.2168131 0.00205862 0.976211 0.228441 -0.3231702 0.9183549 0.1386663 -0.4507181 0.8818304 0.8370035 -0.1380205 -0.5295051 0.4906871 0.004835756 0.8713224 0.7612139 -0.008274948 0.6484481 0.4664039 0.6366791 0.6140906 0.04050694 0.6452453 0.7629008 0.3817861 0.1919987 0.9040884 0.1439284 0.09771462 0.984752 0.1488517 -0.3108064 0.9387451 0.377607 -0.2064066 0.9026679 0.9546429 0.1254356 0.2700425 0.9245714 0.3295635 0.1911954 0.8693781 0.4913843 -0.05218417 0.8972448 0.4317485 0.09243944 0.6872091 0.6925248 0.2194373 0.5512409 0.5779005 0.6018012 0.6296585 -0.01303842 0.7767625 0.4693415 0.2816311 0.8369005 0.7752591 0.09681815 0.6241792 0.9774557 0.1196023 -0.1739984 0.1266994 0.4055427 0.9052526 0.6654235 0.3030983 0.6821606 0.6336935 0.5484232 0.5455865 0.1307826 0.6186444 0.7747095 0.7076278 0.4308956 0.5599927 0.6519094 0.5968394 0.4677572 -0.1090244 0.0659814 0.9918468 -0.1285625 0.2500495 0.9596598 -0.06820187 -0.1340263 0.9886281 -0.2620365 0.6556922 0.7080994 0.3737285 -0.06659918 0.9251441 0.4368998 0.1382438 0.8888234 0.13494 0.3000993 0.9443156 0.07947113 0.0538381 0.9953821 -0.592818 -0.06142011 0.8029909 -0.6435918 0.1609538 0.7482536 -0.6372252 -0.04679022 0.769256 -0.5802923 -0.2697693 0.7684305 -0.04963436 0.01502937 0.9986544 -0.05233651 -0.3257129 0.9440191 0.8880711 0.2894925 -0.3571045 0.7232102 0.5485005 -0.4196598 0.6180786 0.6773908 -0.3988992 0.8288482 0.5517991 -0.09234913 0.9533823 0.3017406 0.003822319 0.9961002 0.08789641 -0.007659474 0.9071306 0.3711195 -0.1984549 0.7768185 0.5932197 -0.21129 0.7887512 -0.1865133 0.585734 0.9816549 -0.1478099 -0.1204391 0.9556599 0.06100816 -0.2880838 -0.3481591 0.4741222 0.8086987 -0.3153425 0.5971387 0.7375529 -0.3222202 0.807422 0.4942102 0.1422701 0.8769187 0.4590998 0.5460633 0.7666666 0.3376939 -0.1545933 0.6762462 0.7202722 0.193738 0.6753937 0.7115539 0.2690278 0.1126218 0.9565251 0.4722931 0.5998555 0.6458426 -6.86699e-4 -0.2023184 0.9793196 -0.001463015 -0.2034918 0.9790755 0 0.1342615 0.990946 0.379398 0.1427292 0.9141583 0.3299763 -0.1362904 0.9340988 -7.67077e-4 -0.1319002 0.9912627 0.3511544 -0.1190664 0.9287162 0.8157184 -0.103739 -0.5690709</float_array>
          <technique_common>
            <accessor source="#polySurfaceShape61-normals-array" count="359" stride="3">
              <param name="X" type="float"/>
              <param name="Y" type="float"/>
              <param name="Z" type="float"/>
            </accessor>
          </technique_common>
        </source>
        <source id="polySurfaceShape61-map1" name="polySurfaceShape61-map1">
          <float_array id="polySurfaceShape61-map1-array" count="770">-0.04497 0.538624 0.004097 0.537909 0.003123 0.615743 -0.046229 0.64322 0.547393 0.592087 0.586735 0.597363 0.594835 0.630546 0.559932 0.631967 0.856792 0.585098 0.895148 0.584304 0.895007 0.613971 0.854556 0.610881 0.271699 0.590249 0.346111 0.584756 0.345347 0.611703 0.265415 0.619873 0.141134 0.617421 0.198047 0.64705 0.116454 0.649594 0.445653 0.638241 0.411334 0.63708 0.412053 0.595185 0.446838 0.59565 0.687705 0.562232 0.74147 0.576257 0.700544 0.594825 0.926378 0.599875 0.967618 0.583957 0.971196 0.612786 0.933365 0.619635 0.055154 0.646811 0.054518 0.656476 1.026994 0.529435 1.062296 0.526021 1.069944 0.562662 1.026653 0.568515 0.777842 0.630717 0.815182 0.581595 0.820535 0.635356 0.477229 0.578898 0.514318 0.600029 0.519156 0.630251 0.479403 0.635622 0.74269 0.631489 0.638572 0.59853 0.639863 0.631067 0.666561 0.599041 0.661939 0.632283 0.693041 0.633634 1.07237 0.601466 1.126433 0.627087 1.068607 0.631601 0.05864 0.531813 0.045582 0.605387 1.02958 0.603935 0.19704 0.592532 0.379155 0.578723 0.410882 0.577102 0.001618 0.647197 0.006228 0.666944 -0.045506 0.661542 0.595445 0.645968 0.55527 0.652587 0.849369 0.638209 0.892229 0.641543 0.895079 0.657172 0.849072 0.65542 0.267275 0.646973 0.346102 0.638009 0.341246 0.65973 0.264466 0.669541 0.203388 0.668984 0.124392 0.668458 0.446957 0.661163 0.411352 0.65852 0.739168 0.648915 0.6985 0.651467 0.930384 0.644615 0.975012 0.640456 0.979638 0.657298 0.929399 0.659972 0.061749 0.676034 1.033969 0.632132 1.071743 0.648771 1.035252 0.649603 0.815959 0.652195 0.775357 0.647325 0.515338 0.648659 0.475957 0.659233 0.636295 0.648124 0.663257 0.649452 1.127282 0.645983 0.854002 1.05244 0.805654 1.038714 0.812933 0.807978 0.861694 0.809524 0.306201 0.990511 0.274754 1.019934 0.286989 0.792568 0.311196 0.793173 0.579813 0.925033 0.513063 0.965754 0.517976 0.79888 0.583536 0.800837 0.709202 0.979785 0.645156 0.930733 0.649094 0.802846 0.714625 0.804884 0.447246 0.976702 0.414883 0.964069 0.419549 0.796033 0.452392 0.796966 0.765688 1.003386 0.771858 0.806679 0.382194 0.963173 0.34872 0.991053 0.353857 0.794266 0.3867 0.795133 0.236795 1.0267 0.219396 1.012838 0.216332 0.98013 0.204081 0.941008 0.190064 0.907445 0.193272 0.865291 0.173924 0.833861 0.066422 0.783904 0.021912 0.762263 0.021845 0.734702 0.046791 0.689285 0.103033 0.813322 0.2898 0.694311 0.12765 0.832048 0.106497 0.591267 0.11956 0.5345 0.197757 0.536555 0.264065 0.535197 0.343084 0.528066 0.410712 0.523044 0.446137 0.521963 0.441178 0.577014 0.477125 0.522745 0.509585 0.55431 0.516482 0.518758 0.556265 0.520287 0.555588 0.551459 0.597854 0.566635 0.639101 0.56379 0.661246 0.560571 0.590849 0.519098 0.638824 0.518495 0.665619 0.517895 0.697938 0.518181 0.745645 0.520367 0.781497 0.52147 0.771656 0.555561 0.823137 0.524734 0.811388 0.551922 0.858913 0.555262 0.889137 0.527605 0.848132 0.527091 0.768726 0.577257 0.92487 0.52659 0.918242 0.576697 0.968848 0.529007 1.121146 0.517109 1.018142 0.461073 1.051289 0.458976 0.992098 0.19123 1.009662 0.197492 1.003235 0.261961 0.980807 0.25936 0.508767 0.449536 0.551767 0.449388 0.416132 0.187595 0.456482 0.182639 0.499941 0.223865 0.402408 0.238044 0.39181 0.057809 0.43127 0.042162 0.442408 0.114375 0.39479 0.126628 1.013289 0.007622 1.059683 0.025979 1.043919 0.066068 0.997945 0.048921 0.708258 0.448319 0.747387 0.448298 0.743251 0.173086 0.775476 0.177563 0.768088 0.246306 0.727172 0.241668 0.744503 0.107393 0.755527 0.005836 0.797308 0.044971 0.208062 0.465391 0.25511 0.464021 0.168148 0.268772 0.144671 0.199802 0.182088 0.201881 0.213917 0.050046 0.268378 0.134961 0.19369 0.128327 0.067032 0.48762 0.133418 0.463402 0.008085 0.273703 0.006343 0.207641 0.055428 0.202177 0.06181 0.267108 -0.093987 -0.003614 -0.041871 -0.029971 -0.018361 0.042108 -0.071516 0.073625 0.331901 0.459149 0.409923 0.4544 0.36481 0.191413 0.350339 0.122794 0.333346 0.052323 0.586772 0.449495 0.569179 0.165962 0.625459 0.17232 0.630292 0.20963 0.567722 0.217907 0.892252 0.456295 0.918524 0.190489 0.96633 0.18762 0.9527 0.257795 0.907756 0.257964 0.885736 0.039747 0.931564 0.027238 0.941122 0.069221 0.880019 0.093656 0.060637 0.401515 0.117883 0.334424 0.119416 0.40044 0.191636 0.33507 0.265062 0.332769 0.267487 0.398577 0.198133 0.401864 0.335248 0.327764 0.408051 0.321184 0.408677 0.393109 0.342208 0.398681 0.520278 0.386949 0.565492 0.352324 0.561425 0.386541 0.595629 0.385605 0.681891 0.316157 0.726581 0.313364 0.737544 0.383017 0.698934 0.38488 0.89762 0.392298 0.902545 0.359251 0.937452 0.327 0.934218 0.393482 0.994733 0.325012 0.013809 0.338587 1.036458 0.401768 1.072691 0.314885 1.089072 0.381964 -0.044846 0.491875 0.013178 0.493079 0.845629 0.035229 0.797049 0.108115 0.811431 0.253215 0.81818 0.190081 0.862758 0.192916 0.855026 0.257352 0.819101 0.388103 0.815149 0.320418 0.859973 0.32313 0.851934 0.390466 0.821023 0.453263 0.84925 0.45557 0.264188 0.269326 0.33324 0.263285 0.40407 0.256359 0.57354 0.285567 0.579281 0.316633 0.515067 0.314188 0.513801 0.281003 0.688388 0.284104 0.725403 0.281552 0.859532 0.29014 0.819262 0.287045 0.897462 0.293756 1.007377 0.402998 0.96442 0.395953 0.008181 0.40828 0.477254 0.385666 0.508491 0.247624 0.772933 0.282433 0.772694 0.316962 0.776228 0.384657 0.77964 0.449469 0.491924 0.092379 0.493088 -0.003337 0.559216 -0.027179 0.556725 0.071971 0.511698 0.165996 0.630778 0.283247 0.692422 0.213672 0.69102 -0.014078 0.670467 0.089844 0.462235 0.451231 0.667089 0.389245 0.670771 0.449821 -0.052198 0.149294 -0.002953 0.14104 -0.043283 0.212727 0.256521 0.206504 0.682845 0.169536 0.83442 0.157624 0.871425 0.146535 0.904645 0.154981 1.021337 0.127414 0.640586 0.450675 0.641803 0.390701 0.629965 0.311065 1.108889 0.469461 0.947507 0.456542 0.984496 0.458453 0.966717 0.114082 0.618067 0.017799 0.695247 -0.088126 0.614725 -0.07623 0.616577 -0.111014 0.702615 -0.121323 0.795105 -0.097242 0.774092 -0.072004 0.825469 -0.032612 0.829417 -0.062018 0.863148 -0.052839 0.905542 -0.047026 0.953885 -0.052697 0.954253 -0.034419 1.022698 -0.049525 1.087476 -0.032187 0.06906 -0.079344 0.130575 -0.07233 0.121829 -0.016196 0.081664 -0.01091 0.18207 -0.04251 0.180886 0.032326 0.280264 -0.029858 0.236193 -0.035131 0.278585 -0.049795 0.287566 0.039657 0.333558 -0.049152 0.330964 -0.030627 0.384198 -0.013872 0.383354 -0.032221 0.418094 -0.041178 0.424104 -0.024809 0.474539 -0.052507 0.46543 -0.071934 0.551581 -0.07882 0.546945 -0.100972 1.134514 0.011264 1.106132 0.066224 1.072457 0.100751 1.107609 0.16909 1.081788 0.217928 1.068771 0.267581 1.188095 0.026782 1.15052 0.100507 1.023412 -0.066359 1.095225 -0.045496 1.145557 -0.003804 -2.3e-4 -0.06385 0.018992 7.21e-4 0.036786 0.076499 0.090593 0.065279 0.137148 0.054304 0.046102 0.134532 0.098736 0.128491 0.106812 0.198417 0.147567 0.12724 -0.034054 0.338498 -0.039553 0.406222 -0.038901 0.277205 0.107615 0.264566 0.002907 0.437593 -0.041092 0.435862 0.055966 0.431655 1.100869 0.41198</float_array>
          <technique_common>
            <accessor source="#polySurfaceShape61-map1-array" count="385" stride="2">
              <param name="S" type="float"/>
              <param name="T" type="float"/>
            </accessor>
          </technique_common>
        </source>
        <vertices id="polySurfaceShape61-vertices" name="polySurfaceShape61-vertices">
          <input semantic="POSITION" source="#polySurfaceShape61-positions"/>
        </vertices>
        <triangles material="temp_lambert3SG" count="656">
          <input semantic="VERTEX" source="#polySurfaceShape61-vertices" offset="0"/>
          <input semantic="NORMAL" source="#polySurfaceShape61-normals" offset="1"/>
          <input semantic="TEXCOORD" source="#polySurfaceShape61-map1" offset="2" set="0"/>
          <p>19 1 1 96 2 2 76 0 0 76 0 0 96 2 2 24 3 3 111 4 4 112 5 5 26 7 7 26 7 7 112 5 5 27 6 6 124 9 9 137 10 10 123 8 8 123 8 8 137 10 10 138 11 11 98 12 12 99 13 13 108 15 15 108 15 15 99 13 13 107 14 14 93 16 16 33 17 17 32 18 18 35 19 19 34 20 20 105 22 22 105 22 22 34 20 20 104 21 21 119 23 23 120 24 24 115 25 25 134 26 26 133 27 27 136 29 29 136 29 29 133 27 27 135 28 28 92 30 30 32 18 18 40 31 31 18 33 33 130 34 34 8 32 32 8 32 32 130 34 34 131 35 35 43 36 36 122 37 37 44 38 38 102 39 39 103 40 40 45 42 42 45 42 42 103 40 40 46 41 41 120 24 24 43 36 36 37 43 43 103 40 40 111 4 4 46 41 41 46 41 41 111 4 4 26 7 7 112 5 5 113 44 44 27 6 6 27 6 6 113 44 44 47 45 45 123 8 8 138 11 11 122 37 37 122 37 37 138 11 11 44 38 38 124 9 9 134 26 26 137 10 10 137 10 10 134 26 26 136 29 29 114 46 46 48 47 47 113 44 44 113 44 44 48 47 47 47 45 45 115 25 25 36 48 48 114 46 46 114 46 46 36 48 48 48 47 47 128 49 49 49 50 50 42 51 51 19 1 1 7 52 52 94 53 53 133 27 27 129 54 54 135 28 28 97 55 55 98 12 12 108 15 15 104 21 21 106 56 56 100 57 57 102 39 39 45 42 42 105 22 22 105 22 22 45 42 42 35 19 19 24 3 3 25 58 58 50 60 60 50 60 60 25 58 58 51 59 59 27 6 6 53 61 61 26 7 7 26 7 7 53 61 61 52 62 62 29 64 64 55 65 65 28 63 63 28 63 63 55 65 65 54 66 66 31 68 68 57 69 69 30 67 67 30 67 67 57 69 69 56 70 70 32 18 18 33 17 17 58 72 72 58 72 72 33 17 17 59 71 71 34 20 20 35 19 19 60 74 74 60 74 74 35 19 19 61 73 73 36 48 48 37 43 43 62 76 76 62 76 76 37 43 43 63 75 75 38 77 77 39 78 78 64 80 80 64 80 80 39 78 78 65 79 79 40 31 31 32 18 18 66 81 81 66 81 81 32 18 18 58 72 72 41 82 82 42 51 51 67 84 84 67 84 84 42 51 51 68 83 83 43 36 36 44 38 38 69 86 86 69 86 86 44 38 38 70 85 85 46 41 41 72 87 87 45 42 42 45 42 42 72 87 87 71 88 88 43 36 36 69 86 86 37 43 43 37 43 43 69 86 86 63 75 75 26 7 7 52 62 62 46 41 41 46 41 41 52 62 62 72 87 87 47 45 45 73 89 89 27 6 6 27 6 6 73 89 89 53 61 61 28 63 63 54 66 66 44 38 38 44 38 38 54 66 66 70 85 85 29 64 64 38 77 77 55 65 65 55 65 65 38 77 77 64 80 80 48 47 47 74 90 90 47 45 45 47 45 45 74 90 90 73 89 89 48 47 47 36 48 48 74 90 90 74 90 90 36 48 48 62 76 76 42 51 51 49 50 50 68 83 83 68 83 83 49 50 50 75 91 91 25 58 58 40 31 31 51 59 59 51 59 59 40 31 31 66 81 81 41 82 82 67 84 84 39 78 78 39 78 78 67 84 84 65 79 79 33 17 17 30 67 67 59 71 71 59 71 71 30 67 67 56 70 70 34 20 20 60 74 74 31 68 68 31 68 68 60 74 74 57 69 69 35 19 19 45 42 42 61 73 73 61 73 73 45 42 42 71 88 88 50 60 92 51 59 93 77 93 95 77 93 95 51 59 93 78 92 94 53 61 97 80 94 98 52 62 96 52 62 96 80 94 98 79 95 99 57 69 101 82 96 102 56 70 100 56 70 100 82 96 102 81 97 103 58 72 104 59 71 105 83 99 107 83 99 107 59 71 105 84 98 106 60 74 108 61 73 109 85 101 111 85 101 111 61 73 109 86 100 110 66 81 112 58 72 104 87 102 113 87 102 113 58 72 104 83 99 107 72 87 115 89 103 116 71 88 114 71 88 114 89 103 116 88 104 117 52 62 96 79 95 99 72 87 115 72 87 115 79 95 99 89 103 116 51 59 93 66 81 112 78 92 94 78 92 94 66 81 112 87 102 113 59 71 105 56 70 100 84 98 106 84 98 106 56 70 100 81 97 103 60 74 108 85 101 111 57 69 101 57 69 101 85 101 111 82 96 102 61 73 109 71 88 114 86 100 110 86 100 110 71 88 114 88 104 117 53 61 97 73 89 118 62 76 120 62 76 120 73 89 118 74 90 119 53 61 97 62 76 120 80 94 98 80 94 98 62 76 120 63 75 121 63 75 121 69 86 122 80 94 98 69 86 122 70 85 123 80 94 98 70 85 123 54 66 124 80 94 98 67 84 126 68 83 127 65 79 125 65 79 125 68 83 127 75 91 128 64 80 129 65 79 125 90 105 130 55 65 131 64 80 129 90 105 130 55 65 131 90 105 130 54 66 124 80 94 98 54 66 124 90 105 130 90 105 130 65 79 125 75 91 128 92 30 30 95 106 132 93 16 16 21 108 134 93 16 16 3 107 133 3 107 133 93 16 16 95 106 132 3 107 133 95 106 132 7 52 52 7 52 52 95 106 132 94 53 53 19 1 1 94 53 53 96 2 2 25 58 58 92 30 30 40 31 31 24 3 3 96 2 2 25 58 58 96 2 2 92 30 30 25 58 58 96 2 2 94 53 53 92 30 30 92 30 30 93 16 16 32 18 18 94 53 53 95 106 132 92 30 30 93 16 16 97 55 55 33 17 17 93 16 16 21 108 134 97 55 55 21 108 134 2 109 135 98 12 12 98 12 12 22 110 136 99 13 13 22 110 136 4 111 137 106 56 56 23 112 138 101 113 139 4 111 137 4 111 137 101 113 139 100 57 57 23 112 138 10 114 140 102 39 39 102 39 39 109 115 141 103 40 40 100 57 57 101 113 139 104 21 21 104 21 21 101 113 139 105 22 22 101 113 139 102 39 39 105 22 22 23 112 138 102 39 39 101 113 139 99 13 13 104 21 21 107 14 14 22 110 136 106 56 56 99 13 13 99 13 13 106 56 56 104 21 21 106 56 56 4 111 137 100 57 57 104 21 21 34 20 20 107 14 14 107 14 14 34 20 20 31 68 68 108 15 15 107 14 14 30 67 67 30 67 67 107 14 14 31 68 68 33 17 17 108 15 15 30 67 67 97 55 55 108 15 15 33 17 17 21 108 134 98 12 12 97 55 55 2 109 135 22 110 136 98 12 12 10 114 140 12 116 142 109 115 141 0 117 143 110 118 144 12 116 142 12 116 142 110 118 144 109 115 141 109 115 141 111 4 4 103 40 40 109 115 141 110 118 144 111 4 4 10 114 140 109 115 141 102 39 39 117 120 146 113 44 44 116 119 145 116 119 145 113 44 44 112 5 5 117 120 146 118 121 147 113 44 44 113 44 44 118 121 147 114 46 46 118 121 147 119 23 23 114 46 46 114 46 46 119 23 23 115 25 25 13 122 148 16 123 149 116 119 145 116 119 145 16 123 149 117 120 146 17 124 150 118 121 147 16 123 149 16 123 149 118 121 147 117 120 146 5 125 151 119 23 23 17 124 150 17 124 150 119 23 23 118 121 147 116 119 145 112 5 5 110 118 144 110 118 144 112 5 5 111 4 4 0 117 143 13 122 148 110 118 144 110 118 144 13 122 148 116 119 145 5 125 151 11 126 152 119 23 23 119 23 23 11 126 152 120 24 24 115 25 25 37 43 43 36 48 48 115 25 25 120 24 24 37 43 43 11 126 152 9 127 153 127 128 154 9 127 153 14 129 155 125 130 156 126 131 157 123 8 8 125 130 156 125 130 156 123 8 8 122 37 37 15 132 158 124 9 9 126 131 157 126 131 157 124 9 9 123 8 8 9 127 153 125 130 156 127 128 154 1 133 159 15 132 158 126 131 157 1 133 159 126 131 157 14 129 155 14 129 155 126 131 157 125 130 156 125 130 156 122 37 37 127 128 154 127 128 154 122 37 37 121 134 160 120 24 24 127 128 154 121 134 160 11 126 152 127 128 154 120 24 24 121 134 160 122 37 37 43 36 36 120 24 24 121 134 160 43 36 36 128 49 49 42 51 51 129 54 54 129 54 54 42 51 51 41 82 82 130 34 34 128 49 49 131 35 35 131 35 35 128 49 49 129 54 54 124 9 9 6 135 161 132 136 162 132 136 162 20 137 163 133 27 27 8 32 32 131 35 35 20 137 163 20 137 163 131 35 35 133 27 27 133 27 27 131 35 35 129 54 54 124 9 9 132 136 162 134 26 26 132 136 162 133 27 27 134 26 26 129 54 54 41 82 82 135 28 28 135 28 28 41 82 82 39 78 78 136 29 29 39 78 78 38 77 77 136 29 29 38 77 77 137 10 10 137 10 10 38 77 77 29 64 64 137 10 10 29 64 64 138 11 11 138 11 11 29 64 64 28 63 63 44 38 38 138 11 11 28 63 63 136 29 29 135 28 28 39 78 78 15 132 158 6 135 161 124 9 9 6 135 161 20 137 163 132 136 162 91 138 164 49 50 50 130 34 34 130 34 34 49 50 50 128 49 49 18 33 33 91 138 164 130 34 34 339 139 165 340 140 166 8 32 32 8 32 32 340 140 166 18 33 33 346 141 167 275 142 168 345 144 170 345 144 170 275 142 168 276 143 169 326 145 171 327 146 172 12 116 142 12 116 142 327 146 172 0 117 143 219 147 173 220 148 174 257 150 176 257 150 176 220 148 174 256 149 175 264 152 178 203 153 179 263 151 177 263 151 177 203 153 179 155 154 180 249 155 181 273 156 182 311 158 184 311 158 184 273 156 182 310 157 183 332 160 186 11 126 152 331 159 185 331 159 185 11 126 152 5 125 151 224 162 188 178 163 189 223 161 187 223 161 187 178 163 189 205 164 190 206 165 191 245 166 192 246 167 193 321 168 194 322 169 195 21 108 134 21 108 134 322 169 195 2 109 135 314 170 196 307 171 197 306 172 198 251 173 199 149 174 200 302 175 201 320 177 203 3 107 133 319 176 202 319 176 202 3 107 133 7 52 52 313 178 204 304 179 205 315 181 207 315 181 207 304 179 205 305 180 206 190 183 209 298 184 210 139 182 208 139 182 208 298 184 210 281 185 211 323 186 212 324 187 213 22 110 136 22 110 136 324 187 213 4 111 137 258 188 214 219 147 173 257 150 176 155 154 180 259 189 215 263 151 177 263 151 177 259 189 215 260 190 216 327 146 172 328 191 217 0 117 143 0 117 143 328 191 217 13 122 148 221 192 218 292 193 219 141 195 221 141 195 221 292 193 219 293 194 220 336 196 222 6 135 161 15 132 158 226 198 224 160 199 225 237 197 223 237 197 223 160 199 225 236 200 226 280 202 228 309 203 229 248 201 227 248 201 227 309 203 229 146 204 230 174 205 231 172 206 232 164 207 233 316 208 234 180 209 235 232 211 237 232 211 237 180 209 235 165 210 236 267 212 238 181 213 239 233 215 241 233 215 241 181 213 239 166 214 240 207 216 242 208 217 243 167 218 244 208 217 243 209 219 245 167 218 244 201 221 247 202 222 248 183 220 246 183 220 246 202 222 248 168 223 249 211 224 250 242 225 251 170 227 253 170 227 253 242 225 251 173 226 252 345 144 170 276 143 169 277 228 254 312 229 255 315 181 207 172 206 232 229 230 256 355 231 257 354 232 258 318 234 260 19 1 1 317 233 259 317 233 259 19 1 1 76 0 0 20 137 163 339 139 165 8 32 32 248 201 227 146 204 230 247 235 261 247 235 261 146 204 230 177 236 262 234 237 263 235 238 264 145 240 266 145 240 266 235 238 264 225 239 265 210 241 267 214 242 268 169 244 270 169 244 270 214 242 268 185 243 269 334 245 271 335 246 272 14 129 155 14 129 155 335 246 272 1 133 159 314 170 196 148 247 273 316 208 234 316 208 234 148 247 273 180 209 235 268 248 274 154 249 275 267 212 238 267 212 238 154 249 275 181 213 239 182 251 277 198 252 278 199 250 276 199 250 276 198 252 278 297 253 279 183 220 246 200 254 280 201 221 247 201 221 247 200 254 280 296 255 281 212 256 282 215 257 283 145 240 266 145 240 266 215 257 283 234 237 263 236 200 226 160 199 225 238 258 284 238 258 284 160 199 225 173 226 252 173 226 252 175 259 285 231 260 286 312 229 255 174 205 231 230 261 287 324 187 213 23 112 138 4 111 137 181 213 239 198 252 278 197 262 288 204 263 289 297 253 279 154 249 275 154 249 275 297 253 279 181 213 239 205 164 190 178 163 189 296 255 281 296 255 281 178 163 189 213 264 290 201 221 247 184 265 291 202 222 248 202 222 248 184 265 291 179 266 292 332 160 186 333 267 293 11 126 152 11 126 152 333 267 293 9 127 153 254 268 294 265 269 295 144 271 297 144 271 297 265 269 295 266 270 296 256 149 175 220 148 174 255 272 298 199 250 276 141 195 221 294 273 299 294 273 299 141 195 221 293 194 220 157 274 300 223 161 187 205 164 190 244 275 301 245 166 192 158 276 302 158 276 302 245 166 192 206 165 191 325 277 303 326 145 171 10 114 140 10 114 140 326 145 171 12 116 142 182 251 277 208 217 243 198 252 278 198 252 278 208 217 243 207 216 242 228 278 304 183 220 246 168 223 249 17 124 150 330 279 305 5 125 151 5 125 151 330 279 305 331 159 185 333 267 293 334 245 271 9 127 153 9 127 153 334 245 271 14 129 155 336 196 222 15 132 158 335 246 272 335 246 272 15 132 158 1 133 159 212 256 282 238 258 284 185 243 269 185 243 269 238 258 284 173 226 252 214 242 268 215 257 283 185 243 269 185 243 269 215 257 283 212 256 282 213 264 290 184 265 291 296 255 281 296 255 281 184 265 291 201 221 247 184 265 291 214 242 268 179 266 292 179 266 292 214 242 268 210 241 267 215 257 283 214 242 268 213 264 290 213 264 290 214 242 268 184 265 291 185 243 269 242 225 251 169 244 270 169 244 270 242 225 251 211 224 250 300 281 307 304 179 205 143 280 306 143 280 306 304 179 205 216 282 308 306 172 198 302 175 201 218 283 309 218 283 309 302 175 201 149 174 200 259 189 215 155 154 180 258 188 214 258 188 214 155 154 180 219 147 173 155 154 180 203 153 179 219 147 173 219 147 173 203 153 179 220 148 174 220 148 174 203 153 179 255 272 298 255 272 298 203 153 179 254 268 294 158 276 302 292 193 219 144 271 297 144 271 297 292 193 219 221 192 218 158 276 302 206 165 191 222 284 310 222 284 310 206 165 191 223 161 187 223 161 187 177 236 262 224 162 188 235 238 264 240 285 311 225 239 265 225 239 265 240 285 311 239 286 312 239 286 312 241 287 313 225 239 265 225 239 265 241 287 313 237 197 223 346 141 167 274 288 314 275 142 168 328 191 217 329 289 315 13 122 148 13 122 148 329 289 315 16 123 149 16 123 149 329 289 315 17 124 150 17 124 150 329 289 315 330 279 305 227 290 316 295 291 317 183 220 246 227 290 316 183 220 246 228 278 304 340 140 166 341 292 318 18 33 33 18 33 33 341 292 318 91 138 164 319 176 202 7 52 52 318 234 260 318 234 260 7 52 52 19 1 1 338 294 320 20 137 163 337 293 319 337 293 319 20 137 163 6 135 161 321 168 194 21 108 134 320 177 203 320 177 203 21 108 134 3 107 133 322 169 195 323 186 212 2 109 135 2 109 135 323 186 212 22 110 136 224 162 188 235 238 264 178 163 189 178 163 189 235 238 264 234 237 263 237 197 223 236 200 226 225 239 265 225 239 265 236 200 226 145 240 266 145 240 266 236 200 226 212 256 282 212 256 282 236 200 226 238 258 284 215 257 283 213 264 290 234 237 263 234 237 263 213 264 290 178 163 189 239 286 312 240 285 311 146 204 230 146 204 230 240 285 311 177 236 262 161 295 321 226 198 224 241 287 313 241 287 313 226 198 224 237 197 223 235 238 264 224 162 188 240 285 311 240 285 311 224 162 188 177 236 262 161 295 321 241 287 313 146 204 230 146 204 230 241 287 313 239 286 312 185 243 269 173 226 252 242 225 251 173 226 252 231 260 286 170 227 253 173 226 252 277 228 254 175 259 285 158 276 302 243 296 322 244 275 301 206 165 191 246 167 193 177 236 262 243 296 322 144 271 297 266 270 296 272 298 324 192 299 325 271 297 323 271 297 323 192 299 325 159 300 326 193 301 327 270 302 328 159 300 326 159 300 326 270 302 328 271 297 323 269 303 329 270 302 328 194 304 330 194 304 330 270 302 328 193 301 327 177 236 262 246 167 193 247 235 261 246 167 193 269 303 329 247 235 261 247 235 261 269 303 329 176 305 331 176 305 331 147 306 332 247 235 261 247 235 261 147 306 332 248 201 227 147 306 332 279 307 333 282 308 334 284 310 336 273 156 182 283 309 335 283 309 335 273 156 182 249 155 181 158 276 302 144 271 297 243 296 322 153 311 337 188 312 338 250 314 340 250 314 340 188 312 338 252 313 339 350 316 342 252 313 339 150 315 341 150 315 341 252 313 339 188 312 338 291 317 343 191 318 344 187 319 345 251 173 199 253 320 346 149 174 200 221 192 218 255 272 298 144 271 297 144 271 297 255 272 298 254 268 294 204 263 289 256 149 175 141 195 221 257 150 176 256 149 175 154 249 275 154 249 275 256 149 175 204 263 289 268 248 274 257 150 176 154 249 275 259 189 215 258 188 214 149 174 200 149 174 200 258 188 214 218 283 309 149 174 200 253 320 346 259 189 215 259 189 215 253 320 346 260 190 216 291 317 343 187 319 345 290 322 348 290 322 348 187 319 345 261 321 347 203 153 179 264 152 178 254 268 294 254 268 294 264 152 178 265 269 295 290 322 348 261 321 347 289 323 349 289 323 349 261 321 347 156 324 350 186 325 351 288 326 352 156 324 350 156 324 350 288 326 352 289 323 349 287 327 353 288 326 352 262 328 354 262 328 354 288 326 352 186 325 351 287 327 353 262 328 354 286 329 355 286 329 355 262 328 354 142 330 356 286 329 355 142 330 356 272 298 324 272 298 324 142 330 356 192 299 325 165 210 236 267 212 238 233 215 241 148 247 273 268 248 274 180 209 235 180 209 235 268 248 274 267 212 238 246 167 193 245 166 192 269 303 329 269 303 329 245 166 192 270 302 328 271 297 323 270 302 328 244 275 301 244 275 301 270 302 328 245 166 192 243 296 322 272 298 324 244 275 301 244 275 301 272 298 324 271 297 323 141 195 221 255 272 298 221 192 218 222 284 310 223 161 187 157 274 300 206 165 191 177 236 262 223 161 187 284 310 336 285 331 357 273 156 182 273 156 182 285 331 357 278 332 358 308 333 359 310 157 183 278 332 358 278 332 358 310 157 183 273 156 182 274 288 314 353 334 360 275 142 168 275 142 168 353 334 360 356 335 361 275 142 168 356 335 361 276 143 169 276 143 169 356 335 361 352 336 362 277 228 254 276 143 169 355 231 257 355 231 257 276 143 169 352 336 362 175 259 285 277 228 254 229 230 256 229 230 256 277 228 254 355 231 257 278 332 358 285 331 357 357 338 364 357 338 364 285 331 357 351 337 363 274 288 314 308 333 359 353 334 360 283 309 335 249 155 181 282 308 334 282 308 334 249 155 181 280 202 228 161 295 321 309 203 229 311 158 184 298 184 210 300 281 307 281 185 211 281 185 211 300 281 307 143 280 306 279 307 333 162 339 365 282 308 334 282 308 334 162 339 365 283 309 335 195 340 366 284 310 336 162 339 365 162 339 365 284 310 336 283 309 335 284 310 336 195 340 366 285 331 357 285 331 357 195 340 366 196 341 367 243 296 322 266 270 296 272 298 324 272 298 324 266 270 296 286 329 355 265 269 295 287 327 353 266 270 296 266 270 296 287 327 353 286 329 355 264 152 178 288 326 352 265 269 295 265 269 295 288 326 352 287 327 353 288 326 352 264 152 178 289 323 349 289 323 349 264 152 178 263 151 177 263 151 177 260 190 216 289 323 349 289 323 349 260 190 216 290 322 348 291 317 343 290 322 348 253 320 346 253 320 346 290 322 348 260 190 216 158 276 302 222 284 310 292 193 219 292 193 219 222 284 310 293 194 220 293 194 220 222 284 310 157 274 300 200 254 280 294 273 299 157 274 300 157 274 300 294 273 299 293 194 220 209 219 245 182 251 277 295 291 317 295 291 317 182 251 277 294 273 299 294 273 299 182 251 277 199 250 276 200 254 280 183 220 246 294 273 299 294 273 299 183 220 246 295 291 317 209 219 245 208 217 243 182 251 277 209 219 245 295 291 317 227 290 316 296 255 281 200 254 280 205 164 190 205 164 190 200 254 280 157 274 300 297 253 279 204 263 289 199 250 276 199 250 276 204 263 289 141 195 221 298 184 210 190 183 209 299 343 369 299 343 369 190 183 209 189 342 368 189 342 368 153 311 337 299 343 369 299 343 369 153 311 337 250 314 340 349 344 370 299 343 369 348 345 371 348 345 371 299 343 369 250 314 340 349 344 370 298 184 210 299 343 369 347 346 372 252 313 339 350 316 342 252 313 339 347 346 372 250 314 340 250 314 340 347 346 372 348 345 371 305 180 206 301 347 373 217 349 375 217 349 375 301 347 373 152 348 374 304 179 205 300 281 307 305 180 206 305 180 206 300 281 307 301 347 373 307 171 197 303 350 376 306 172 198 306 172 198 303 350 376 302 175 201 152 348 374 303 350 376 217 349 375 217 349 375 303 350 376 307 171 197 278 332 358 357 338 364 308 333 359 308 333 359 357 338 364 353 334 360 146 204 230 309 203 229 161 295 321 311 158 184 310 157 183 161 295 321 161 295 321 310 157 183 274 288 314 274 288 314 310 157 183 308 333 359 309 203 229 280 202 228 311 158 184 311 158 184 280 202 228 249 155 181 258 188 214 268 248 274 218 283 309 218 283 309 268 248 274 148 247 273 171 351 377 312 229 255 163 352 378 163 352 378 312 229 255 230 261 287 313 178 204 312 229 255 140 353 379 140 353 379 312 229 255 171 351 377 304 179 205 313 178 204 216 282 308 216 282 308 313 178 204 140 353 379 312 229 255 172 206 232 174 205 231 151 354 380 314 170 196 172 206 232 217 349 375 307 171 197 151 354 380 151 354 380 307 171 197 314 170 196 315 181 207 305 180 206 151 354 380 151 354 380 305 180 206 217 349 375 172 206 232 315 181 207 151 354 380 313 178 204 315 181 207 312 229 255 172 206 232 316 208 234 164 207 233 164 207 233 316 208 234 232 211 237 314 170 196 316 208 234 172 206 232 314 170 196 306 172 198 148 247 273 148 247 273 306 172 198 218 283 309 230 261 287 343 355 381 163 352 378 163 352 378 343 355 381 344 356 382 174 205 231 342 357 383 230 261 287 230 261 287 342 357 383 343 355 381 342 357 383 320 177 203 319 176 202 164 207 233 232 211 237 320 177 203 320 177 203 232 211 237 321 168 194 165 210 236 322 169 195 232 211 237 232 211 237 322 169 195 321 168 194 233 215 241 323 186 212 165 210 236 165 210 236 323 186 212 322 169 195 166 214 240 324 187 213 233 215 241 233 215 241 324 187 213 323 186 212 197 262 288 325 277 303 166 214 240 166 214 240 325 277 303 324 187 213 207 216 242 326 145 171 197 262 288 197 262 288 326 145 171 325 277 303 167 218 244 327 146 172 207 216 242 207 216 242 327 146 172 326 145 171 209 219 245 328 191 217 167 218 244 167 218 244 328 191 217 327 146 172 328 191 217 209 219 245 329 289 315 329 289 315 209 219 245 227 290 316 330 279 305 329 289 315 228 278 304 228 278 304 329 289 315 227 290 316 331 159 185 330 279 305 168 223 249 168 223 249 330 279 305 228 278 304 168 223 249 202 222 248 331 159 185 331 159 185 202 222 248 332 160 186 333 267 293 332 160 186 179 266 292 179 266 292 332 160 186 202 222 248 334 245 271 333 267 293 210 241 267 210 241 267 333 267 293 179 266 292 334 245 271 210 241 267 335 246 272 335 246 272 210 241 267 169 244 270 211 224 250 336 196 222 169 244 270 169 244 270 336 196 222 335 246 272 211 224 250 170 227 253 336 196 222 170 227 253 231 260 286 337 293 319 337 293 319 231 260 286 338 294 320 231 260 286 339 139 165 338 294 320 175 259 285 229 230 256 339 139 165 339 139 165 229 230 256 340 140 166 340 140 166 358 358 384 341 292 318 343 355 381 342 357 383 318 234 260 318 234 260 342 357 383 319 176 202 344 356 382 343 355 381 317 233 259 317 233 259 343 355 381 318 234 260 174 205 231 164 207 233 342 357 383 342 357 383 164 207 233 320 177 203 229 230 256 354 232 258 358 358 384 229 230 256 358 358 384 340 140 166 231 260 286 175 259 285 339 139 165 338 294 320 339 139 165 20 137 163 336 196 222 170 227 253 337 293 319 336 196 222 337 293 319 6 135 161 176 305 331 269 303 329 194 304 330 282 308 334 280 202 228 147 306 332 147 306 332 280 202 228 248 201 227 191 318 344 291 317 343 251 173 199 251 173 199 291 317 343 253 320 346 351 337 363 285 331 357 196 341 367 345 144 170 277 228 254 160 199 225 160 199 225 277 228 254 173 226 252 226 198 224 346 141 167 160 199 225 160 199 225 346 141 167 345 144 170 161 295 321 274 288 314 226 198 224 226 198 224 274 288 314 346 141 167 181 213 239 197 262 288 166 214 240 180 209 235 267 212 238 165 210 236 198 252 278 207 216 242 197 262 288 23 112 138 325 277 303 10 114 140 324 187 213 325 277 303 23 112 138 348 345 371 347 346 372 152 348 374 152 348 374 347 346 372 303 350 376 301 347 373 349 344 370 152 348 374 152 348 374 349 344 370 348 345 371 301 347 373 298 184 210 349 344 370 150 315 341 191 318 344 350 316 342 350 316 342 191 318 344 251 173 199 303 350 376 350 316 342 302 175 201 302 175 201 350 316 342 251 173 199 350 316 342 303 350 376 347 346 372 300 281 307 298 184 210 301 347 373 268 248 274 258 188 214 257 150 176 141 195 221 256 149 175 255 272 298 181 213 239 297 253 279 198 252 278</p>
        </triangles>
      </mesh>
      <extra>
        <technique profile="OpenCOLLADAMaya">
          <originalMayaNodeId>polySurfaceShape61</originalMayaNodeId>
          <double_sided>1</double_sided>
        </technique>
      </extra>
    </geometry>
  </library_geometries>
  <library_visual_scenes>
    <visual_scene id="VisualSceneNode" name="rockwall_pieces">
      <node id="polySurface43" name="polySurface43" type="NODE">
        <matrix sid="transform">1 0 0 0 0 1 0 0 0 0 1 0 0 0 0 1</matrix>
        <instance_geometry url="#polySurfaceShape61">
          <bind_material>
            <technique_common>
              <instance_material symbol="temp_lambert3SG" target="#lambert3SG1">
                <bind_vertex_input semantic="TEX0" input_semantic="TEXCOORD" input_set="0"/>
              </instance_material>
            </technique_common>
          </bind_material>
        </instance_geometry>
        <extra>
          <technique profile="OpenCOLLADAMaya">
            <originalMayaNodeId>polySurface43</originalMayaNodeId>
          </technique>
        </extra>
      </node>
    </visual_scene>
  </library_visual_scenes>
  <scene>
    <instance_visual_scene url="#VisualSceneNode"/>
  </scene>
</COLLADA>